Division,WeightClassKg,Place,Name,Team,BodyweightKg,Best3SquatKg,Best3BenchKg,Best3DeadliftKg,TotalKg,Equipment,Event,Sex
Boys,51.71,1,Justin Dowdy,Wills Point,51.71,129.27,74.84,133.81,337.93,Single-ply,SBD,M
Boys,51.71,2,Jeremy Hibler,Justin Northwest,49.71,77.11,45.36,90.72,213.19,Single-ply,SBD,M
Boys,55.79,1,Dillan Cromeens,Nevada Community,55.25,145.15,77.11,151.95,374.21,Single-ply,SBD,M
Boys,55.79,2,Jason St John,Garland Rowlett,55.16,79.38,63.5,97.52,240.4,Single-ply,SBD,M
Boys,59.87,1,Matt Castillo,North Mesquite,59.24,149.69,92.99,181.44,424.11,Single-ply,SBD,M
Boys,59.87,2,Joseph Musgrove,Justin Northwest,58.6,120.2,90.72,154.22,365.14,Single-ply,SBD,M
Boys,59.87,3,Kelvin Okolo,Garland Rowlett,59.69,127.01,74.84,161.03,362.87,Single-ply,SBD,M
Boys,59.87,4,Kaleb Moore,Caddo Mills,58.79,124.74,61.23,151.95,337.93,Single-ply,SBD,M
Boys,59.87,5,Josh Sims,South Garland,58.6,117.93,77.11,136.08,331.12,Single-ply,SBD,M
Boys,59.87,6,David Isham,Caddo Mills,57.79,102.06,49.9,115.67,267.62,Single-ply,SBD,M
Boys,67.13,1,Alex Ramsey,Royse City,67.04,195.04,129.27,199.58,523.9,Single-ply,SBD,M
Boys,74.84,2,Jeffrey McLeod,Garland Rowlett,67.31,170.1,92.99,192.78,455.86,Single-ply,SBD,M
Boys,67.13,3,Denton Bridges,Terrell,66.68,142.88,99.79,151.95,394.63,Single-ply,SBD,M
Boys,67.13,4,DeAndre Jackson,North Mesquite,65.86,140.61,86.18,158.76,385.55,Single-ply,SBD,M
Boys,67.13,5,Tim Caradine,Terrell,64.5,129.27,77.11,163.29,369.68,Single-ply,SBD,M
Boys,67.13,6,Zach Smith,Nevada Community,66.22,124.74,65.77,149.69,340.19,Single-ply,SBD,M
Boys,67.13,7,Casey Cranford,Wills Point,64.5,113.4,79.38,133.81,326.59,Single-ply,SBD,M
Boys,67.13,8,Troy Woodson,Caddo Mills,61.33,88.45,56.7,122.47,267.62,Single-ply,SBD,M
Boys,67.13,DQ,Zach Lemond,Caddo Mills,63.05,97.52,,,,Single-ply,SBD,M
Boys,74.84,1,James Wright,Wills Point,73.03,210.92,120.2,213.19,544.31,Single-ply,SBD,M
Boys,74.84,2,Christian Varela,North Mesquite,72.94,185.97,117.93,231.33,535.24,Single-ply,SBD,M
Boys,74.84,3,Dylon Bonesteel,North Mesquite,73.57,188.24,122.47,199.58,510.29,Single-ply,SBD,M
Boys,74.84,4,Johnson Dang,Garland Rowlett,73.94,176.9,95.25,183.7,455.86,Single-ply,SBD,M
Boys,74.84,5,Chandler Tolbert,Royse City,74.62,181.44,113.4,158.76,453.59,Single-ply,SBD,M
Boys,74.84,6,Jacob Free,Justin Northwest,73.75,163.29,111.13,174.63,449.06,Single-ply,SBD,M
Boys,74.84,7,Jemeon Love,South Garland,73.12,163.29,88.45,179.17,430.91,Single-ply,SBD,M
Boys,74.84,8,Jay Johnson,Royse City,73.84,170.1,83.91,176.9,430.91,Single-ply,SBD,M
Boys,74.84,9,Des Black,South Garland,73.21,151.95,106.59,170.1,428.64,Single-ply,SBD,M
Boys,74.84,10,Desmond Meredith,Garland Rowlett,73.57,136.08,90.72,181.44,408.23,Single-ply,SBD,M
Boys,74.84,11,Flozel Nipper,South Garland,74.84,145.15,106.59,156.49,408.23,Single-ply,SBD,M
Boys,74.84,12,Anfernee Harris,Wills Point,70.31,142.88,92.99,158.76,394.63,Single-ply,SBD,M
Boys,82.1,13,Cyle Ferrell,Nevada Community,75.02,138.35,108.86,147.42,394.63,Single-ply,SBD,M
Boys,74.84,14,Dre Deleon,Nevada Community,70.67,127.01,83.91,149.69,360.61,Single-ply,SBD,M
Boys,82.1,1,Brandon Young,Rockwall-Heath,80.83,204.12,145.15,226.8,576.06,Single-ply,SBD,M
Boys,82.1,2,Jacob Grand-Lienard,Rockwall-Heath,77.38,199.58,115.67,231.33,546.58,Single-ply,SBD,M
Boys,82.1,3,Jacob Parker,Justin Northwest,79.83,208.65,111.13,197.31,517.1,Single-ply,SBD,M
Boys,82.1,4,Ramses Gomez,Garland Rowlett,80.56,188.24,124.74,185.97,498.95,Single-ply,SBD,M
Boys,82.1,5,Nick Romo,North Mesquite,78.2,176.9,108.86,197.31,483.08,Single-ply,SBD,M
Boys,82.1,6,Brandon Rodriguez,Terrell,79.56,167.83,122.47,190.51,480.81,Single-ply,SBD,M
Boys,82.1,7,Dondre Coleman,South Garland,79.2,149.69,127.01,195.04,471.74,Single-ply,SBD,M
Boys,82.1,8,Lane Allen,Justin Northwest,80.83,167.83,129.27,172.37,469.47,Single-ply,SBD,M
Boys,89.81,9,Josh Upton,Terrell,82.19,170.1,108.86,185.97,464.93,Single-ply,SBD,M
Boys,82.1,10,Anthony Tanksley,North Mesquite,76.11,149.69,83.91,188.24,421.84,Single-ply,SBD,M
Boys,82.1,11,Isaiah Harris,South Garland,82.1,145.15,111.13,158.76,415.04,Single-ply,SBD,M
Boys,82.1,12,Cameron Wiser,Nevada Community,79.56,156.49,92.99,163.29,412.77,Single-ply,SBD,M
Boys,82.1,13,Adrian Escandon,Nevada Community,82.1,154.22,83.91,158.76,396.89,Single-ply,SBD,M
Boys,82.1,14,Cameron Leath,Wills Point,76.2,129.27,83.91,145.15,358.34,Single-ply,SBD,M
Boys,82.1,15,Ryan Perry,Rockwall,81.56,129.27,86.18,115.67,331.12,Single-ply,SBD,M
Boys,82.1,DQ,Clay Wilkerson,Rockwall-Heath,81.28,185.97,108.86,,,Single-ply,SBD,M
Boys,89.81,1,Cody Duffey,Justin Northwest,87.72,249.48,154.22,231.33,635.03,Single-ply,SBD,M
Boys,89.81,2,Joel Dunn,Royse City,89.49,238.14,133.81,181.44,553.38,Single-ply,SBD,M
Boys,89.81,3,Quamyas White,Terrell,89.81,195.04,136.08,192.78,523.9,Single-ply,SBD,M
Boys,89.81,4,Ken Louden,North Mesquite,88.18,185.97,113.4,217.72,517.1,Single-ply,SBD,M
Boys,89.81,5,Daelin Young,North Mesquite,83.28,181.44,88.45,217.72,487.61,Single-ply,SBD,M
Boys,89.81,6,Elijah Huntley,Royse City,88.09,183.7,129.27,174.63,487.61,Single-ply,SBD,M
Boys,89.81,7,Peter Scheele,Rockwall-Heath,84.37,172.37,113.4,183.7,469.47,Single-ply,SBD,M
Boys,89.81,8,Blake Robinson,Rockwall-Heath,85.91,165.56,92.99,183.7,442.25,Single-ply,SBD,M
Boys,89.81,9,Will Smith,Rockwall,88.9,142.88,97.52,151.95,392.36,Single-ply,SBD,M
Boys,89.81,10,Collin Kranock,Wills Point,86.27,129.27,81.65,136.08,347,Single-ply,SBD,M
Boys,99.79,DQ,Jarod Loftis,Royse City,89.9,238.14,,,,Single-ply,SBD,M
Boys,99.79,1,Thomas Johnson,Royse City,93.67,249.48,142.88,210.92,603.28,Single-ply,SBD,M
Boys,99.79,2,Colton Henderson,Terrell,91.63,217.72,149.69,217.72,585.13,Single-ply,SBD,M
Boys,99.79,3,Jake Johnson,Garland Rowlett,93.44,183.7,104.33,213.19,501.22,Single-ply,SBD,M
Boys,99.79,4,Colton Gillespie,Garland Rowlett,94.26,170.1,108.86,210.92,489.88,Single-ply,SBD,M
Boys,99.79,5,Lathan Fink,Terrell,95.89,158.76,99.79,181.44,439.98,Single-ply,SBD,M
Boys,99.79,6,Austin Kocian,Terrell,91.35,156.49,104.33,170.1,430.91,Single-ply,SBD,M
Boys,99.79,7,Matt Coker,Caddo Mills,95.07,127.01,111.13,165.56,403.7,Single-ply,SBD,M
Boys,99.79,8,Cole Ketchum,Wills Point,99.43,140.61,90.72,147.42,378.75,Single-ply,SBD,M
Boys,109.77,1,Jackson Bolin,Rockwall,109.32,217.72,176.9,226.8,621.42,Single-ply,SBD,M
Boys,109.77,2,Jalon Scott,North Mesquite,103.51,226.8,136.08,226.8,589.67,Single-ply,SBD,M
Boys,109.77,3,Andrew Hughes,Royse City,107.86,226.8,154.22,183.7,564.72,Single-ply,SBD,M
Boys,109.77,4,Chris Morel,Rockwall-Heath,103.69,181.44,113.4,195.04,489.88,Single-ply,SBD,M
Boys,109.77,5,Robert Perry,Rockwall,108.05,188.24,115.67,170.1,474,Single-ply,SBD,M
Boys,109.77,6,Micah Olsen,Garland Rowlett,103.51,161.03,102.06,181.44,444.52,Single-ply,SBD,M
Boys,109.77,7,Zach Gray,Wills Point,107.95,181.44,108.86,147.42,437.72,Single-ply,SBD,M
Boys,109.77,8,Jared Norman,Wills Point,106.68,113.4,68.04,142.88,324.32,Single-ply,SBD,M
Boys,109.77,DQ,Anthony Villa,South Garland,104.42,158.76,,,,Single-ply,SBD,M
Boys,109.77,DQ,Jose Reyes,Royse City,107.86,,,,,Single-ply,SBD,M
Boys,109.77,DQ,Blair Bryant,Rockwall-Heath,109.77,197.31,,,,Single-ply,SBD,M
Boys,124.74,1,Ethan Dobbs,Rockwall-Heath,123.92,290.3,170.1,263.08,723.48,Single-ply,SBD,M
Boys,124.74,2,Travis Stubblefield,Justin Northwest,120.29,299.37,176.9,244.94,721.21,Single-ply,SBD,M
Boys,124.74,3,Evan Higbee,Rockwall-Heath,122.65,265.35,147.42,267.62,680.39,Single-ply,SBD,M
Boys,124.74,4,Joe Gonzales,Justin Northwest,112.85,278.96,149.69,249.48,678.12,Single-ply,SBD,M
Boys,124.74,5,Amine Elhaili,Rockwall,123.74,226.8,136.08,235.87,598.74,Single-ply,SBD,M
Boys,124.74,6,Dameer Tibbs,Rockwall-Heath,112.94,242.67,127.01,226.8,596.47,Single-ply,SBD,M
Boys,124.74,7,Cameron Defebaugh,Rockwall,118.48,197.31,142.88,195.04,535.24,Single-ply,SBD,M
Boys,124.74,8,Nickelas Blain,Caddo Mills,121.11,226.8,124.74,176.9,528.44,Single-ply,SBD,M
Boys,124.74,9,Zak Mirza,Garland Rowlett,116.3,190.51,124.74,195.04,510.29,Single-ply,SBD,M
Boys,124.74,10,Marc Miller,Garland Rowlett,120.2,226.8,95.25,183.7,505.76,Single-ply,SBD,M
Boys,124.74,11,Victor Puente,South Garland,122.11,142.88,108.86,158.76,410.5,Single-ply,SBD,M
Boys,124.74,DQ,James Brown,Royse City,117.03,256.28,142.88,,,Single-ply,SBD,M
Boys,124.74+,1,Josh Brown,South Garland,135.9,235.87,131.54,210.92,578.33,Single-ply,SBD,M
Boys,124.74+,2,Aldren Kamara,North Mesquite,143.97,226.8,106.59,204.12,537.51,Single-ply,SBD,M
Boys,124.74+,3,Orville Clark,Rockwall-Heath,136.98,176.9,136.08,199.58,512.56,Single-ply,SBD,M
Boys,124.74+,4,Brice Chambers,North Mesquite,125.37,197.31,111.13,199.58,508.02,Single-ply,SBD,M
Boys,124.74+,5,Eric Roberts,Terrell,126.28,204.12,117.93,185.97,508.02,Single-ply,SBD,M
Boys,124.74+,6,Erik Coleman,South Garland,136.89,158.76,133.81,192.78,485.34,Single-ply,SBD,M
Boys,124.74+,7,Preston Clark,Justin Northwest,132.99,183.7,108.86,181.44,474,Single-ply,SBD,M
Boys,124.74+,DQ,Rj Carranza,Nevada Community,128.37,215.46,,,,Single-ply,SBD,M
Boys,124.74+,DQ,Rishun Wimbly,Terrell,144.88,165.56,,,,Single-ply,SBD,M
