Division,WeightClassKg,Place,Name,Team,BodyweightKg,Best3SquatKg,Best3BenchKg,Best3DeadliftKg,TotalKg,Equipment,Event,Sex
Boys,51.71,1,Rudy Sanchez,Somerset,51.07,145.15,74.84,167.83,387.82,Single-ply,SBD,M
Boys,51.71,2,Robert Norega,Manor,51.71,142.88,70.31,161.03,374.21,Single-ply,SBD,M
Boys,51.71,3,Istvan Castilleja,Buda Hays,49.8,142.88,81.65,147.42,371.95,Single-ply,SBD,M
Boys,51.71,4,Pedro Saldivar,Kyle Lehman,51.53,127.01,65.77,140.61,333.39,Single-ply,SBD,M
Boys,51.71,5,Rudy Pina,Del Valle,49.99,113.4,68.04,138.35,319.78,Single-ply,SBD,M
Boys,51.71,6,Jack Dombrowski,Dripping Springs,51.44,104.33,74.84,136.08,315.25,Single-ply,SBD,M
Boys,51.71,7,Mauricio Rangel,Buda Hays,47.26,97.52,63.5,120.2,281.23,Single-ply,SBD,M
Boys,55.79,1,Jacob Vasquez,Kyle Lehman,55.79,161.03,70.31,161.03,392.36,Single-ply,SBD,M
Boys,55.79,2,Jeremiah Thompson,Manor,55.07,142.88,88.45,145.15,376.48,Single-ply,SBD,M
Boys,55.79,3,Chris Guerrero,Del Valle,54.52,124.74,65.77,163.29,353.8,Single-ply,SBD,M
Boys,55.79,4,Isaac Trejo,San Marcos,55.79,120.2,81.65,142.88,344.73,Single-ply,SBD,M
Boys,55.79,5,Tucker Klein,Fredericksburg,55.7,115.67,74.84,138.35,328.85,Single-ply,SBD,M
Boys,55.79,6,Colton Caswell,Buda Hays,55.61,102.06,61.23,117.93,281.23,Single-ply,SBD,M
Boys,55.79,7,David Leonard,San Marcos,55.61,90.72,52.16,108.86,251.74,Single-ply,SBD,M
Boys,55.79,DQ,Lucas Stevenson,Austin Lake Travis,55.79,,,,,Single-ply,SBD,M
Boys,55.79,DQ,Johnny Mata,Hutto,55.79,,,,,Single-ply,SBD,M
Boys,59.87,1,Shawnpail Fields,Taylor,59.51,213.19,102.06,226.8,542.04,Single-ply,SBD,M
Boys,59.87,2,Eli Luna,Somerset,59.69,185.97,97.52,179.17,462.66,Single-ply,SBD,M
Boys,59.87,3,Luke Merchant,San Marcos,59.42,154.22,95.25,167.83,417.3,Single-ply,SBD,M
Boys,59.87,4,Marc Anthony Govea,Del Valle,57.42,145.15,81.65,151.95,378.75,Single-ply,SBD,M
Boys,59.87,5,Juan Araujo,Taylor,59.15,145.15,68.04,147.42,360.61,Single-ply,SBD,M
Boys,59.87,6,Capel Glee,Killeen Shoemaker,59.33,129.27,77.11,136.08,342.46,Single-ply,SBD,M
Boys,59.87,7,Stefan Schultz,Austin Lake Travis,57.52,97.52,70.31,120.2,288.03,Single-ply,SBD,M
Boys,59.87,DQ,Trestan Hudnall,Killeen Ellison,59.87,,,,,Single-ply,SBD,M
Boys,59.87,DQ,Matthew Forbergh,Luling,59.87,,,,,Single-ply,SBD,M
Boys,59.87,DQ,Noah Pachicano,Taylor,59.87,,,,,Single-ply,SBD,M
Boys,67.13,1,Isaiah Mesa,Taylor,65.86,272.16,158.76,260.82,691.73,Single-ply,SBD,M
Boys,67.13,2,Happy Jones,Manor,66.95,222.26,111.13,199.58,532.97,Single-ply,SBD,M
Boys,67.13,3,Josh Howard,Hutto,66.13,197.31,122.47,210.92,530.7,Single-ply,SBD,M
Boys,67.13,4,Ray Heiser,Kyle Lehman,66.32,199.58,120.2,210.92,530.7,Single-ply,SBD,M
Boys,67.13,5,Mario Cabrera,Somerset,67.13,210.92,92.99,206.38,510.29,Single-ply,SBD,M
Boys,67.13,6,Chris Velazquez,Geronimo Navarro,62.69,204.12,117.93,170.1,492.15,Single-ply,SBD,M
Boys,67.13,7,Julian Rico,Somerset,62.87,208.65,111.13,165.56,485.34,Single-ply,SBD,M
Boys,67.13,8,Chandler Brill,Kyle Lehman,67.04,183.7,113.4,188.24,485.34,Single-ply,SBD,M
Boys,67.13,9,Antonio Garcia,Somerset,64.41,185.97,102.06,190.51,478.54,Single-ply,SBD,M
Boys,67.13,10,Stephen Leal,Taylor,65.95,199.58,104.33,174.63,478.54,Single-ply,SBD,M
Boys,67.13,11,Jason Leal,Buda Hays,65.59,183.7,104.33,185.97,474,Single-ply,SBD,M
Boys,67.13,12,Lindsey Kaleb,Hutto,66.32,158.76,104.33,181.44,444.52,Single-ply,SBD,M
Boys,67.13,13,Caleb Thomas,Buda Hays,67.13,145.15,99.79,147.42,392.36,Single-ply,SBD,M
Boys,67.13,14,Brandon Aguilar,Somerset,63.96,129.27,83.91,142.88,356.07,Single-ply,SBD,M
Boys,67.13,15,Nathan Morrow,Killeen Ellison,66.32,124.74,68.04,149.69,342.46,Single-ply,SBD,M
Boys,67.13,DQ,Daniel Strong,Killeen Ellison,67.13,,,,,Single-ply,SBD,M
Boys,67.13,DQ,Deandre Exford,Killeen Shoemaker,67.13,,,,,Single-ply,SBD,M
Boys,67.13,DQ,Bar Htoo,Manor,67.13,,,,,Single-ply,SBD,M
Boys,67.13,DQ,Dorian Armstrong-Price,Killeen Ellison,62.14,,,,,Single-ply,SBD,M
Boys,74.84,1,Cesar Gonzalez,Somerset,72.39,238.14,117.93,233.6,589.67,Single-ply,SBD,M
Boys,74.84,2,Hugh Shelton,Taylor,74.03,226.8,115.67,238.14,580.6,Single-ply,SBD,M
Boys,74.84,3,Kory Young,Killeen Ellison,74.03,226.8,127.01,199.58,553.38,Single-ply,SBD,M
Boys,74.84,4,Tucker Trejo,Hutto,73.84,195.04,120.2,201.85,517.1,Single-ply,SBD,M
Boys,74.84,5,Juan Venegas,Dripping Springs,73.21,188.24,124.74,190.51,503.49,Single-ply,SBD,M
Boys,74.84,6,KeKoa Engleman,Kyle Lehman,74.03,174.63,124.74,199.58,498.95,Single-ply,SBD,M
Boys,74.84,7,Gary Alonzo,Buda Hays,73.84,204.12,106.59,176.9,487.61,Single-ply,SBD,M
Boys,74.84,8,Bolding Zane,Hutto,69.85,174.63,102.06,190.51,467.2,Single-ply,SBD,M
Boys,74.84,9,Christian Alvarez,San Marcos,68.31,167.83,106.59,190.51,464.93,Single-ply,SBD,M
Boys,74.84,10,Easy Charles,Manor,70.4,170.1,97.52,188.24,455.86,Single-ply,SBD,M
Boys,74.84,11,Forrest Cameron,Hutto,72.48,165.56,104.33,183.7,453.59,Single-ply,SBD,M
Boys,74.84,12,Carlos Hernandez,San Marcos,74.57,158.76,108.86,183.7,451.32,Single-ply,SBD,M
Boys,74.84,13,Joseph Hidalgo,Somerset,72.85,142.88,124.74,165.56,433.18,Single-ply,SBD,M
Boys,74.84,14,Levonte Benford,Manor,69.31,158.76,90.72,174.63,424.11,Single-ply,SBD,M
Boys,74.84,15,Hunter Metzger,Fredericksburg,73.21,151.95,99.79,161.03,412.77,Single-ply,SBD,M
Boys,74.84,16,Kimble Mekhi,Hutto,68.67,149.69,86.18,172.37,408.23,Single-ply,SBD,M
Boys,74.84,17,Matthew Gilliam,Geronimo Navarro,72.39,165.56,79.38,154.22,399.16,Single-ply,SBD,M
Boys,74.84,18,Dylan Basham,San Marcos,71.3,138.35,83.91,163.29,385.55,Single-ply,SBD,M
Boys,74.84,19,Jesau Batres,Lockhart,69.04,158.76,83.91,140.61,383.29,Single-ply,SBD,M
Boys,74.84,20,Roston Razo,Taylor,72.67,113.4,74.84,156.49,344.73,Single-ply,SBD,M
Boys,74.84,21,Gavin West,Fredericksburg,70.31,120.2,63.5,142.88,326.59,Single-ply,SBD,M
Boys,74.84,22,Angel Aguiliar,Taylor,70.67,113.4,70.31,140.61,324.32,Single-ply,SBD,M
Boys,74.84,DQ,Josh Handley,Fredericksburg,74.84,,,,,Single-ply,SBD,M
Boys,74.84,DQ,Cam Correa,Austin Lake Travis,74.84,,,,,Single-ply,SBD,M
Boys,74.84,DQ,Jose Palomino,Del Valle,74.84,,,,,Single-ply,SBD,M
Boys,74.84,DQ,Marcus Oliva,Lockhart,74.84,,,,,Single-ply,SBD,M
Boys,74.84,DQ,Travion Walker,Manor,74.84,,,,,Single-ply,SBD,M
Boys,74.84,DQ,Seth Martinez,Luling,74.84,,,,,Single-ply,SBD,M
Boys,74.84,DQ,Jabrion White,Manor,70.13,122.47,90.72,,,Single-ply,SBD,M
Boys,74.84,DQ,Daniel Kiyuna,Kyle Lehman,73.94,149.69,,,,Single-ply,SBD,M
Boys,82.1,1,Roy DeLeon,Somerset,76.38,242.67,145.15,244.94,632.76,Single-ply,SBD,M
Boys,82.1,2,Euler de Leon,Geronimo Navarro,80.1,219.99,131.54,238.14,589.67,Single-ply,SBD,M
Boys,82.1,3,Devin Norman,Lockhart,80.47,213.19,147.42,222.26,582.87,Single-ply,SBD,M
Boys,82.1,4,Jayden Medina,Hutto,81.65,195.04,120.2,231.33,546.58,Single-ply,SBD,M
Boys,82.1,5,Robert Nicholas,Killeen Ellison,77.75,219.99,106.59,213.19,539.77,Single-ply,SBD,M
Boys,82.1,6,Victor Torres,Kyle Lehman,80.92,201.85,131.54,204.12,537.51,Single-ply,SBD,M
Boys,82.1,7,Dominic Gomez,Killeen Ellison,81.92,195.04,106.59,217.72,519.36,Single-ply,SBD,M
Boys,82.1,8,Gabriel Rodriguez,Kyle Lehman,79.83,181.44,129.27,199.58,510.29,Single-ply,SBD,M
Boys,82.1,9,George Sanchez,Luling,75.39,190.51,124.74,190.51,505.76,Single-ply,SBD,M
Boys,82.1,10,Jaden Moreno,Pflugerville Connally,81.28,190.51,129.27,183.7,503.49,Single-ply,SBD,M
Boys,82.1,11,Eston Epton,Fredericksburg,81.37,172.37,122.47,195.04,489.88,Single-ply,SBD,M
Boys,82.1,12,Belema Dennis,Del Valle,81.1,176.9,108.86,192.78,478.54,Single-ply,SBD,M
Boys,82.1,13,Preciado Javier,Hutto,82.01,176.9,117.93,170.1,464.93,Single-ply,SBD,M
Boys,82.1,14,Tristan Birch,Lockhart,77.66,142.88,108.86,190.51,442.25,Single-ply,SBD,M
Boys,82.1,15,Coreyon Chester,Manor,82.1,172.37,106.59,154.22,433.18,Single-ply,SBD,M
Boys,82.1,16,Abron Ortiz,Geronimo Navarro,80.29,172.37,108.86,149.69,430.91,Single-ply,SBD,M
Boys,82.1,17,Brian Holmes,Geronimo Navarro,80.29,136.08,99.79,181.44,417.3,Single-ply,SBD,M
Boys,82.1,18,Caleb Sosa,Kyle Lehman,78.83,158.76,83.91,167.83,410.5,Single-ply,SBD,M
Boys,82.1,19,Santos Lacewell,Killeen Ellison,76.84,163.29,86.18,154.22,403.7,Single-ply,SBD,M
Boys,82.1,20,Jose Cruz,Luling,80.2,142.88,86.18,149.69,378.75,Single-ply,SBD,M
Boys,82.1,21,John Villanueva,San Marcos,76.48,124.74,79.38,142.88,347,Single-ply,SBD,M
Boys,82.1,DQ,Aaren Casillas,Lockhart,82.1,,,,,Single-ply,SBD,M
Boys,82.1,DQ,Devin Brown,Killeen Shoemaker,82.1,,,,,Single-ply,SBD,M
Boys,82.1,DQ,Desionee Rich,Manor,80.29,142.88,,,,Single-ply,SBD,M
Boys,82.1,DQ,Israel Romero,San Marcos,81.47,,,,,Single-ply,SBD,M
Boys,82.1,DQ,Joey Hernandez,Somerset,79.74,183.7,,,,Single-ply,SBD,M
Boys,82.1,DQ,Christian Yannis,Taylor,74.93,,,,,Single-ply,SBD,M
Boys,82.1,DQ,Matthew Atkinson,Taylor,78.02,,,,,Single-ply,SBD,M
Boys,89.81,1,Josh Ewald,Kyle Lehman,89.63,226.8,122.47,233.6,582.87,Single-ply,SBD,M
Boys,89.81,2,Jake Cox,Dripping Springs,86.45,215.46,120.2,235.87,571.53,Single-ply,SBD,M
Boys,89.81,3,Elias Torres,Somerset,86.27,235.87,142.88,183.7,562.45,Single-ply,SBD,M
Boys,89.81,4,Tyler Law,Geronimo Navarro,84.1,201.85,140.61,217.72,560.19,Single-ply,SBD,M
Boys,89.81,5,Courtney Lee,Manor,83.01,204.12,115.67,233.6,553.38,Single-ply,SBD,M
Boys,89.81,6,Maui Trevino,Austin Lake Travis,86.82,197.31,127.01,206.38,530.7,Single-ply,SBD,M
Boys,89.81,7,Michael Gonzalez,Somerset,82.28,201.85,142.88,183.7,528.44,Single-ply,SBD,M
Boys,89.81,8,Landen Brown,Lockhart,89.18,190.51,120.2,197.31,508.02,Single-ply,SBD,M
Boys,89.81,9,David Reyna,Geronimo Navarro,89.36,204.12,120.2,174.63,498.95,Single-ply,SBD,M
Boys,89.81,10,Cornez Harris,Killeen Shoemaker,88.27,188.24,111.13,197.31,496.68,Single-ply,SBD,M
Boys,89.81,11,Takai Madgett,San Marcos,88.54,188.24,108.86,195.04,492.15,Single-ply,SBD,M
Boys,89.81,12,Jose Herrera,Somerset,85.46,158.76,117.93,210.92,487.61,Single-ply,SBD,M
Boys,89.81,13,Caleb Key,Dripping Springs,88.18,185.97,102.06,188.24,476.27,Single-ply,SBD,M
Boys,89.81,14,Connor Travers,Dripping Springs,87.27,165.56,115.67,192.78,474,Single-ply,SBD,M
Boys,89.81,15,Cory Alcala,Pflugerville Connally,89.09,167.83,120.2,165.56,453.59,Single-ply,SBD,M
Boys,89.81,16,Matt Hill,Manor,83.64,142.88,97.52,183.7,424.11,Single-ply,SBD,M
Boys,89.81,17,Rafael Gutierrez,Pflugerville Connally,83.01,149.69,83.91,145.15,378.75,Single-ply,SBD,M
Boys,89.81,18,Dom Colon,Pflugerville Connally,84.64,131.54,83.91,147.42,362.87,Single-ply,SBD,M
Boys,89.81,19,Kolby Wright,Fredericksburg,89.63,131.54,74.84,149.69,356.07,Single-ply,SBD,M
Boys,89.81,20,Konnor Peronto,Killeen Ellison,82.55,124.74,70.31,133.81,328.85,Single-ply,SBD,M
Boys,89.81,DQ,James Williams,Killeen Ellison,89.81,,,,,Single-ply,SBD,M
Boys,89.81,DQ,Bryan Cedesma,Somerset,88.81,,,,,Single-ply,SBD,M
Boys,89.81,DQ,Johnny Rodriguez,Taylor,87,,,,,Single-ply,SBD,M
Boys,99.79,1,Rick Reyes,Buda Hays,98.97,288.03,161.03,260.82,709.87,Single-ply,SBD,M
Boys,99.79,2,Ryan Leal,Buda Hays,97.79,290.3,163.29,242.67,696.26,Single-ply,SBD,M
Boys,99.79,3,Seth Sanchez,Kyle Lehman,94.44,210.92,138.35,247.21,596.47,Single-ply,SBD,M
Boys,99.79,4,Aubrey Kelly,Killeen Ellison,94.62,249.48,111.13,233.6,594.21,Single-ply,SBD,M
Boys,99.79,5,Eduardo Ventura,Kyle Lehman,93.35,226.8,129.27,215.46,571.53,Single-ply,SBD,M
Boys,99.79,6,Tajha Brooks,Manor,95.44,215.46,129.27,226.8,571.53,Single-ply,SBD,M
Boys,99.79,7,Cecil Bishop,Pflugerville Connally,93.98,181.44,136.08,206.38,523.9,Single-ply,SBD,M
Boys,99.79,8,Nick Williams,Buda Hays,94.26,219.99,115.67,185.97,521.63,Single-ply,SBD,M
Boys,99.79,9,Jerron Lewis,Pflugerville Connally,98.7,190.51,131.54,183.7,505.76,Single-ply,SBD,M
Boys,99.79,10,Brett Butler,Geronimo Navarro,91.35,174.63,129.27,174.63,478.54,Single-ply,SBD,M
Boys,99.79,11,Nathan Erickson,Dripping Springs,99.06,156.49,108.86,170.1,435.45,Single-ply,SBD,M
Boys,99.79,12,John Gilbert,Geronimo Navarro,99.25,147.42,88.45,190.51,426.38,Single-ply,SBD,M
Boys,99.79,13,Ryan Durnell,Austin Lake Travis,92.17,158.76,90.72,165.56,415.04,Single-ply,SBD,M
Boys,99.79,14,Peyton Maxwell,Austin Lake Travis,97.89,163.29,90.72,142.88,396.89,Single-ply,SBD,M
Boys,99.79,15,Leaunte Glee,Killeen Shoemaker,94.26,151.95,90.72,147.42,390.09,Single-ply,SBD,M
Boys,99.79,16,Kolby Peronto,Killeen Ellison,89.9,131.54,56.7,113.4,301.64,Single-ply,SBD,M
Boys,99.79,DQ,Seth Fields,Luling,99.79,,,,,Single-ply,SBD,M
Boys,99.79,DQ,River Foreman,Austin Lake Travis,99.79,,,,,Single-ply,SBD,M
Boys,99.79,DQ,Emmanuel Pina,Taylor,99.79,,,,,Single-ply,SBD,M
Boys,99.79,DQ,Jesus Oranday,Taylor,93.35,276.69,,,,Single-ply,SBD,M
Boys,109.77,1,Olisa Uzuegbunam,Manor,102.97,260.82,158.76,249.48,669.05,Single-ply,SBD,M
Boys,109.77,2,Ochaun Mathis,Manor,102.97,215.46,140.61,263.08,619.15,Single-ply,SBD,M
Boys,109.77,3,Lordswill Uwa-Ndukwe,Hutto,109.68,249.48,124.74,244.94,619.15,Single-ply,SBD,M
Boys,109.77,4,Princely Umanmielen,Manor,107.86,226.8,102.06,238.14,566.99,Single-ply,SBD,M
Boys,109.77,5,David Sillero,Lockhart,108.86,208.65,154.22,197.31,560.19,Single-ply,SBD,M
Boys,109.77,6,Cameron Wilkins,Del Valle,106.68,195.04,127.01,215.46,537.51,Single-ply,SBD,M
Boys,109.77,7,John McKee,Pflugerville Connally,106.68,204.12,122.47,199.58,526.17,Single-ply,SBD,M
Boys,109.77,8,Jaime Guerra,Lockhart,105.96,197.31,124.74,183.7,505.76,Single-ply,SBD,M
Boys,109.77,9,Daniel Ramos,Somerset,109.32,195.04,142.88,158.76,496.68,Single-ply,SBD,M
Boys,109.77,10,Brandon Rangel,San Marcos,101.88,183.7,111.13,197.31,492.15,Single-ply,SBD,M
Boys,109.77,11,Dareylan Sinegal,Del Valle,109.23,165.56,102.06,204.12,471.74,Single-ply,SBD,M
Boys,109.77,12,Chris Rivera,Pflugerville Connally,101.6,181.44,90.72,163.29,435.45,Single-ply,SBD,M
Boys,109.77,13,Daniel Reyes,Kyle Lehman,109.23,145.15,81.65,154.22,381.02,Single-ply,SBD,M
Boys,109.77,14,Ty Thornton,Manor,103.42,124.74,83.91,149.69,358.34,Single-ply,SBD,M
Boys,109.77,DQ,Kade Langston,Austin Lake Travis,109.77,,,,,Single-ply,SBD,M
Boys,109.77,DQ,Todd Moon,Austin Lake Travis,103.87,183.7,,,,Single-ply,SBD,M
Boys,109.77,DQ,John Sanchez,San Marcos,107.68,181.44,111.13,,,Single-ply,SBD,M
Boys,124.74,1,Tyvionne Roaches,Kyle Lehman,123.92,294.84,183.7,240.4,718.94,Single-ply,SBD,M
Boys,124.74,2,Antares Gillespie,Killeen Ellison,116.3,272.16,161.03,281.23,714.41,Single-ply,SBD,M
Boys,124.74,3,Dylan Hatfield,Geronimo Navarro,123.47,272.16,165.56,217.72,655.44,Single-ply,SBD,M
Boys,124.74,4,Daylan Littlejohn,Killeen Ellison,115.21,231.33,113.4,226.8,571.53,Single-ply,SBD,M
Boys,124.74,5,Stephen Ansumana,Dripping Springs,112.22,210.92,131.54,226.8,569.26,Single-ply,SBD,M
Boys,124.74,6,Zack Holmes,Hutto,114.31,249.48,117.93,199.58,566.99,Single-ply,SBD,M
Boys,124.74,6,Will Germond,Austin Lake Travis,123.38,165.56,113.4,206.38,485.34,Single-ply,SBD,M
Boys,124.74,7,Azreal Valle,Luling,110.77,215.46,136.08,204.12,555.65,Single-ply,SBD,M
Boys,124.74,8,Kallen Maxwell,Pflugerville Connally,123.92,206.38,145.15,201.85,553.38,Single-ply,SBD,M
Boys,124.74,9,Trace Lopez,Taylor,116.3,219.99,136.08,181.44,537.51,Single-ply,SBD,M
Boys,124.74,10,Arvin Jones,Killeen Shoemaker,115.3,197.31,124.74,208.65,530.7,Single-ply,SBD,M
Boys,124.74,11,Landon West,Fredericksburg,118.93,185.97,104.33,226.8,517.1,Single-ply,SBD,M
Boys,124.74,12,Oswany Diaz,Pflugerville Connally,122.02,188.24,124.74,183.7,496.68,Single-ply,SBD,M
Boys,124.74,13,Khalid Santiago,Del Valle,119.11,204.12,68.04,192.78,464.93,Single-ply,SBD,M
Boys,124.74,14,Bryan Vasquez,Del Valle,111.22,142.88,111.13,199.58,453.59,Single-ply,SBD,M
Boys,124.74,15,Cody Beran,Del Valle,110.31,154.22,106.59,145.15,405.97,Single-ply,SBD,M
Boys,124.74,16,Klaton Manning,Luling,122.47,163.29,83.91,154.22,401.43,Single-ply,SBD,M
Boys,124.74,DQ,Kaleb Luna,Killeen Ellison,124.74,,,,,Single-ply,SBD,M
Boys,124.74,DQ,Kaleb Wenson,Austin Lake Travis,124.74,,,,,Single-ply,SBD,M
Boys,124.74,DQ,Brandon Garcia,Buda Hays,123.2,235.87,170.1,,,Single-ply,SBD,M
Boys,124.74,DQ,Reed Leonardis,Buda Hays,122.38,174.63,120.2,,,Single-ply,SBD,M
Boys,124.74+,1,Scale Igiehon,Del Valle,151.41,260.82,142.88,247.21,650.91,Single-ply,SBD,M
Boys,124.74+,2,Sebastian Ramirez,Somerset,134.35,256.28,158.76,210.92,625.96,Single-ply,SBD,M
Boys,124.74+,3,Isaiah Reyna,Somerset,145.15,265.35,102.06,219.99,587.4,Single-ply,SBD,M
Boys,124.74+,4,Sergio Hernandez,Geronimo Navarro,148.51,204.12,156.49,217.72,578.33,Single-ply,SBD,M
Boys,124.74+,5,Chapman Rowe,Killeen Ellison,139.53,249.48,120.2,197.31,566.99,Single-ply,SBD,M
Boys,124.74+,7,Shaun Vega,Taylor,137.08,156.49,92.99,158.76,408.23,Single-ply,SBD,M
Boys,124.74+,8,Michael Perez,Somerset,128.82,117.93,104.33,142.88,365.14,Single-ply,SBD,M
Boys,124.74+,9,Will Taylor,Killeen Ellison,139.53,113.4,74.84,124.74,312.98,Single-ply,SBD,M
Boys,124.74+,DQ,Keanu Ramirez,Killeen Ellison,125.19,,,,,Single-ply,SBD,M
Boys,124.74+,DQ,Jaxson Langford,Killeen Ellison,125.19,,,,,Single-ply,SBD,M
Boys,124.74+,DQ,Grimm Mark,Hutto,127.01,,,,,Single-ply,SBD,M
