﻿REZULTATI - MUŠKARCI;;;;;;;;;;;;;;;;;;;;;
;;;;;;;;;;;;;;;;;;;;;
R.b.;Ime i prezime;God;BW;P1;P2;P3;P4;NP;D1;D2;D3;D4;ND;TOTAL;BODOVI;;;;;;
DOBNA KATEGORIJA: OPEN;;;;;;;;;;;;;;;;;;;;;
Kategorija: - 100kg;;;;;;;;;;;;;;;;;;;;;
1.;MUHAMMED ENES ÖZKAN;30;97.0;150;160;175;-;175;300;315;321;-;315;490;454.23;;;;;;
DOBNA KATEGORIJA: MASTER 1;;;;;;;;;;;;;;;;;;;;;
Kategorija: - 140kg;;;;;;;;;;;;;;;;;;;;;
1.;Miloš Šnajdr;40;135;220;230;230;-;230;320;350;370;-;350;580;490.68;;;;;;
DOBNA KATEGORIJA: MASTER 2;;;;;;;;;;;;;;;;;;;;;
Kategorija: - 67.5kg;;;;;;;;;;;;;;;;;;;;;
1.;Vjekoslav Karakas;47;65.7;85;90;90;-;90;140;150;155;-;150;240;330.573;;;;;;