Division,WeightClassKg,Place,Name,Team,BodyweightKg,Best3SquatKg,Best3BenchKg,Best3DeadliftKg,TotalKg,Equipment,Event,Sex
Boys,51.71,1,Lukthaddeus Collins,Jasper,50.8,149.69,83.91,165.56,399.16,Single-ply,SBD,M
Boys,51.71,2,Keithon Glenn,Jasper,50.71,127.01,77.11,161.03,365.14,Single-ply,SBD,M
Boys,51.71,3,Richie Garza,West Columbia,51.07,129.27,86.18,149.69,365.14,Single-ply,SBD,M
Boys,51.71,4,Alex Williams,Bridge City,51.35,113.4,86.18,129.27,328.85,Single-ply,SBD,M
Boys,51.71,5,Jaydan Flemons,Jasper,48.17,113.4,56.7,136.08,306.17,Single-ply,SBD,M
Boys,51.71,6,Gavin Jackson,Orangefield,50.71,117.93,70.31,108.86,297.1,Single-ply,SBD,M
Boys,51.71,7,Dorian Steamer,Freeport Brazosport,51.62,108.86,61.23,117.93,288.03,Single-ply,SBD,M
Boys,51.71,8,Austin Taylor,Orangefield,50.62,95.25,45.36,113.4,254.01,Single-ply,SBD,M
Boys,51.71,9,Andrew King,Cleveland Tarkington,44.45,95.25,52.16,99.79,247.21,Single-ply,SBD,M
Boys,51.71,10,Greyson Kuykendall,Orange Little Cypress-Mauriceville,46.81,83.91,61.23,99.79,244.94,Single-ply,SBD,M
Boys,51.71,11,Walker Windt,Shepherd,48.08,102.06,36.29,92.99,231.33,Single-ply,SBD,M
Boys,55.79,1,Jordon Trevino,Bay City,54.34,147.42,72.57,172.37,392.36,Single-ply,SBD,M
Boys,55.79,2,Lucas Collins,Jasper,55.79,142.88,79.38,167.83,390.09,Single-ply,SBD,M
Boys,55.79,3,Jake Potter,Bridge City,54.57,136.08,79.38,151.95,367.41,Single-ply,SBD,M
Boys,55.79,4,Octavio Vargas,Hamshire-Fannett,53.07,142.88,65.77,142.88,351.53,Single-ply,SBD,M
Boys,55.79,5,Adam Blodgett,Cleveland Tarkington,54.88,124.74,79.38,138.35,342.46,Single-ply,SBD,M
Boys,55.79,6,Evan Salazar,Cleveland,55.61,122.47,74.84,142.88,340.19,Single-ply,SBD,M
Boys,55.79,7,Gabriel Vargas,Bay City,55.43,127.01,61.23,140.61,328.85,Single-ply,SBD,M
Boys,55.79,8,Don Dana,Shepherd,53.71,127.01,70.31,108.86,306.17,Single-ply,SBD,M
Boys,55.79,DQ,Brandon Liamas,Wharton,54.88,,,,,Single-ply,SBD,M
Boys,59.87,1,DeAndre Limbrick,Jasper,57.06,165.56,95.25,188.24,449.06,Single-ply,SBD,M
Boys,59.87,2,Payton Samuel,Jasper,59.33,147.42,92.99,165.56,405.97,Single-ply,SBD,M
Boys,59.87,3,Andre Thomas,West Orange-Stark,58.15,140.61,95.25,149.69,385.55,Single-ply,SBD,M
Boys,59.87,4,Reggie Shaw,Jasper,58.69,145.15,72.57,161.03,378.75,Single-ply,SBD,M
Boys,59.87,5,Jaden Buchanan,Sweeny,59.6,127.01,81.65,158.76,367.41,Single-ply,SBD,M
Boys,59.87,6,Will Whitaker,Shepherd,59.69,133.81,90.72,138.35,362.87,Single-ply,SBD,M
Boys,59.87,7,Byrone Grant,Jasper,59.78,111.13,83.91,133.81,328.85,Single-ply,SBD,M
Boys,59.87,8,Shelton Thomas,Huffman Hargrave,56.61,108.86,81.65,136.08,326.59,Single-ply,SBD,M
Boys,59.87,9,Julian Arteaga,Orange Little Cypress-Mauriceville,58.88,117.93,72.57,117.93,308.44,Single-ply,SBD,M
Boys,59.87,DQ,Clayton Coogler,Shepherd,59.42,,,,,Single-ply,SBD,M
Boys,59.87,DQ,Richard Salazar,West Columbia,59.24,,,,,Single-ply,SBD,M
Boys,59.87,DQ,Fransisco Salas,Needville,58.15,,,,,Single-ply,SBD,M
Boys,67.13,1,Collin Kovarcik,Needville,65.68,254.01,127.01,247.21,628.23,Single-ply,SBD,M
Boys,67.13,2,Eric Perez,Cleveland,66.77,201.85,111.13,231.33,544.31,Single-ply,SBD,M
Boys,67.13,3,Juan Carapia,Shepherd,65.77,208.65,104.33,201.85,514.83,Single-ply,SBD,M
Boys,67.13,4,Zane Havel,Bay City,63.78,204.12,102.06,192.78,498.95,Single-ply,SBD,M
Boys,67.13,5,Orlando Moreno,Bay City,66.22,192.78,113.4,192.78,498.95,Single-ply,SBD,M
Boys,67.13,6,Brendin Shomo,Bridge City,65.77,190.51,92.99,190.51,474,Single-ply,SBD,M
Boys,67.13,7,Luktourius Collins,Jasper,63.05,181.44,108.86,181.44,471.74,Single-ply,SBD,M
Boys,67.13,8,Jarvic Southwell,Jasper,66.95,176.9,90.72,183.7,451.32,Single-ply,SBD,M
Boys,67.13,9,Randy Spears,West Columbia,62.19,154.22,108.86,170.1,433.18,Single-ply,SBD,M
Boys,67.13,10,Juan Mendoza,Freeport Brazosport,66.22,149.69,104.33,167.83,421.84,Single-ply,SBD,M
Boys,67.13,11,Clay Frick,Sweeny,64.05,151.95,90.72,158.76,401.43,Single-ply,SBD,M
Boys,74.84,1,Jerkerion Simmons,Jasper,72.48,240.4,172.37,285.76,698.53,Single-ply,SBD,M
Boys,74.84,2,Hunter Angelo,Orange Little Cypress-Mauriceville,72.39,260.82,149.69,226.8,637.3,Single-ply,SBD,M
Boys,74.84,3,James Harrison,Shepherd,74.21,249.48,115.67,204.12,569.26,Single-ply,SBD,M
Boys,74.84,4,Jacob Rhodes,Needville,71.21,199.58,102.06,204.12,505.76,Single-ply,SBD,M
Boys,74.84,5,Cason Chandler,Jasper,71.12,183.7,117.93,181.44,483.08,Single-ply,SBD,M
Boys,74.84,6,Caleb Graddick,Freeport Brazosport,74.12,170.1,106.59,204.12,480.81,Single-ply,SBD,M
Boys,74.84,7,Clint Williams,West Orange-Stark,74.3,183.7,97.52,190.51,471.74,Single-ply,SBD,M
Boys,74.84,8,Jacob Chapman,Orangefield,69.85,199.58,90.72,176.9,467.2,Single-ply,SBD,M
Boys,74.84,9,Christian Randell,Cleveland,73.48,185.97,113.4,165.56,464.93,Single-ply,SBD,M
Boys,74.84,10,Deandre Noble,Jasper,71.67,167.83,111.13,183.7,462.66,Single-ply,SBD,M
Boys,74.84,11,Kyler Teykl,Needville,71.76,183.7,106.59,156.49,446.79,Single-ply,SBD,M
Boys,74.84,12,Charlie Hayman,Sour Lake Hardin-Jefferson,72.94,163.29,97.52,174.63,435.45,Single-ply,SBD,M
Boys,82.1,1,Ethan McKay,Orange Little Cypress-Mauriceville,80.38,231.33,133.81,224.53,589.67,Single-ply,SBD,M
Boys,82.1,2,Lonnie Foster,Silsbee,81.83,213.19,115.67,219.99,548.85,Single-ply,SBD,M
Boys,82.1,3,Jonathan Pesina,Bay City,75.84,210.92,120.2,199.58,530.7,Single-ply,SBD,M
Boys,82.1,4,Trevor Howard,Cleveland Tarkington,76.02,201.85,97.52,222.26,521.63,Single-ply,SBD,M
Boys,82.1,5,Fabian Bogany,Cleveland,81.19,190.51,108.86,219.99,519.36,Single-ply,SBD,M
Boys,82.1,6,Shawn McKay,Orange Little Cypress-Mauriceville,82.1,197.31,115.67,199.58,512.56,Single-ply,SBD,M
Boys,82.1,7,Chris McClain,Cleveland,79.2,188.24,108.86,199.58,496.68,Single-ply,SBD,M
Boys,82.1,8,Trevin Parson,Sweeny,80.65,165.56,104.33,215.46,485.34,Single-ply,SBD,M
Boys,82.1,9,Bradley Sanders,Cleveland Tarkington,75.57,188.24,104.33,170.1,462.66,Single-ply,SBD,M
Boys,82.1,10,Trystain Conner,Sour Lake Hardin-Jefferson,79.11,165.56,92.99,183.7,442.25,Single-ply,SBD,M
Boys,82.1,DQ,Jonathan Ruiz,Bay City,80.01,,,,,Single-ply,SBD,M
Boys,89.81,1,Austin Cartwright,Cleveland,88,272.16,136.08,256.28,664.51,Single-ply,SBD,M
Boys,89.81,2,Quade Miller,Needville,87.63,240.4,158.76,238.14,637.3,Single-ply,SBD,M
Boys,89.81,3,Ronald Hargrove,Needville,83.64,238.14,147.42,219.99,605.55,Single-ply,SBD,M
Boys,89.81,4,Brady Byrd,Sweeny,89.63,238.14,136.08,215.46,589.67,Single-ply,SBD,M
Boys,89.81,5,Jarvis Wilson,Jasper,89.72,235.87,129.27,210.92,576.06,Single-ply,SBD,M
Boys,89.81,6,Jose Sanchez,Cleveland,88.09,204.12,124.74,215.46,544.31,Single-ply,SBD,M
Boys,89.81,7,Kole Matula,Needville,86,215.46,120.2,195.04,530.7,Single-ply,SBD,M
Boys,89.81,8,Trent Brown,Orange Little Cypress-Mauriceville,88.09,181.44,136.08,213.19,530.7,Single-ply,SBD,M
Boys,89.81,9,Kody Gums,Stafford,87.18,172.37,117.93,210.92,501.22,Single-ply,SBD,M
Boys,89.81,10,Trip Leger,Orangefield,87.09,197.31,104.33,192.78,494.42,Single-ply,SBD,M
Boys,89.81,11,Walker Kalinowski,Needville,88.81,185.97,113.4,174.63,474,Single-ply,SBD,M
Boys,89.81,12,Deryk Villareal,Huffman Hargrave,87.36,195.04,120.2,,315.25,Single-ply,SB,M
Boys,99.79,1,Jose Zaragoza,West Columbia,97.98,288.03,156.49,281.23,725.75,Single-ply,SBD,M
Boys,99.79,2,Jaime Morales,Cleveland,94.08,278.96,140.61,281.23,700.8,Single-ply,SBD,M
Boys,99.79,3,Adam Altrech,Needville,95.53,303.91,170.1,226.8,700.8,Single-ply,SBD,M
Boys,99.79,4,Colt LeBleu,Orange Little Cypress-Mauriceville,93.35,226.8,149.69,213.19,589.67,Single-ply,SBD,M
Boys,99.79,5,Ken Savanah,Stafford,93.8,206.38,149.69,222.26,578.33,Single-ply,SBD,M
Boys,99.79,6,Luke Arias,West Columbia,99.16,217.72,142.88,210.92,571.53,Single-ply,SBD,M
Boys,99.79,7,Dylan Andrews,Silsbee,96.89,215.46,129.27,192.78,537.51,Single-ply,SBD,M
Boys,99.79,8,Adam Snyder,Bridge City,98.97,217.72,115.67,204.12,537.51,Single-ply,SBD,M
Boys,99.79,9,James Cobb,Sweeny,99.25,210.92,115.67,199.58,526.17,Single-ply,SBD,M
Boys,99.79,10,Demarcus Mays,Jasper,95.89,199.58,117.93,204.12,521.63,Single-ply,SBD,M
Boys,99.79,DQ,Brandon Haltom,Cleveland Tarkington,93.17,,,,,Single-ply,SBD,M
Boys,109.77,1,Jack Fontenot,Bridge City,102.51,281.23,147.42,217.72,646.37,Single-ply,SBD,M
Boys,109.77,2,Alvaro Andrade,Hamshire-Fannett,108.14,260.82,136.08,226.8,623.69,Single-ply,SBD,M
Boys,109.77,3,Daniel Grant,Silsbee,108.41,217.72,149.69,244.94,612.35,Single-ply,SBD,M
Boys,109.77,4,Edrick Adams,Jasper,102.69,226.8,149.69,204.12,580.6,Single-ply,SBD,M
Boys,109.77,5,Isaiah Garcia,Shepherd,104.51,213.19,142.88,224.53,580.6,Single-ply,SBD,M
Boys,109.77,6,Darby Jones,West Orange-Stark,109.68,204.12,133.81,240.4,578.33,Single-ply,SBD,M
Boys,109.77,7,Marcos Hernandez,Cleveland,99.97,206.38,117.93,215.46,539.77,Single-ply,SBD,M
Boys,109.77,8,Cody Duncan,Silsbee,109.04,219.99,136.08,183.7,539.77,Single-ply,SBD,M
Boys,109.77,9,Lucas Russell,Orange Little Cypress-Mauriceville,101.42,208.65,122.47,204.12,535.24,Single-ply,SBD,M
Boys,109.77,10,Ricardo Marquez,Needville,106.5,192.78,117.93,195.04,505.76,Single-ply,SBD,M
Boys,109.77,11,Malik Griffin,Orange Little Cypress-Mauriceville,106.87,183.7,147.42,165.56,496.68,Single-ply,SBD,M
Boys,124.74,1,Joseph Cotie,Cleveland,122.92,272.16,167.83,229.06,669.05,Single-ply,SBD,M
Boys,124.74,2,Marquell Hale,Silsbee,109.81,272.16,167.83,226.8,666.78,Single-ply,SBD,M
Boys,124.74,3,Marcus Fowler,Bay City,111.04,242.67,120.2,238.14,601.01,Single-ply,SBD,M
Boys,124.74,4,Gus Davis,Huffman Hargrave,121.38,226.8,142.88,231.33,601.01,Single-ply,SBD,M
Boys,124.74,5,Clayton Martinez,Shepherd,123.83,240.4,108.86,244.94,594.21,Single-ply,SBD,M
Boys,124.74,6,Jacob Jones,Cleveland Tarkington,117.57,215.46,142.88,204.12,562.45,Single-ply,SBD,M
Boys,124.74,7,Quincy Ledet,West Orange-Stark,116.03,199.58,99.79,217.72,517.1,Single-ply,SBD,M
Boys,124.74,8,Samuel Roundtree,Silsbee,122.2,204.12,129.27,174.63,508.02,Single-ply,SBD,M
Boys,124.74,DQ,Peyton McCormick,Cleveland Tarkington,124.74,240.4,140.61,,,Single-ply,SBD,M
Boys,124.74,DQ,Grant LaCour,Orange Little Cypress-Mauriceville,122.74,272.16,158.76,,,Single-ply,SBD,M
Boys,124.74,DQ,Blake Ferguson,Orange Little Cypress-Mauriceville,124.65,,,,,Single-ply,SBD,M
Boys,124.74,DQ,Enrique Montes,Sour Lake Hardin-Jefferson,120.02,222.26,106.59,,,Single-ply,SBD,M
Boys,124.74+,1,Michael Willer,Sweeny,145.97,340.19,185.97,244.94,771.11,Single-ply,SBD,M
Boys,124.74+,2,John Woods,Sweeny,162.66,274.42,192.78,233.6,700.8,Single-ply,SBD,M
Boys,124.74+,3,Tron Rideaux,Sour Lake Hardin-Jefferson,151.95,260.82,151.95,249.48,662.24,Single-ply,SBD,M
Boys,124.74+,4,Cameron Williams,Sweeny,146.96,229.06,154.22,274.42,657.71,Single-ply,SBD,M
Boys,124.74+,5,Dillan Ahre,Cleveland Tarkington,169.64,244.94,127.01,185.97,557.92,Single-ply,SBD,M
Boys,124.74+,6,Jordan Garrett,West Orange-Stark,132.36,217.72,129.27,204.12,551.11,Single-ply,SBD,M
Boys,124.74+,7,Marcus Smith,Stafford,140.61,174.63,145.15,190.51,510.29,Single-ply,SBD,M
Boys,124.74+,8,Jayden Evans,Needville,142.16,192.78,136.08,165.56,494.42,Single-ply,SBD,M
Boys,124.74+,DQ,Ryan Logan-Jones,Jasper,153.77,249.48,163.29,,,Single-ply,SBD,M
Boys,124.74+,DQ,Aaron Galitz,Orangefield,154.22,265.35,,,,Single-ply,SBD,M
Boys,124.74+,DQ,Zach Taylor,Shepherd,141.97,,,,,Single-ply,SBD,M
