Division,WeightClassKg,Place,Name,Team,BodyweightKg,Best3SquatKg,Best3BenchKg,Best3DeadliftKg,TotalKg,Equipment,Event,Sex
Freshmen,51.71,1,Jake Gutierrez,Zapata,51.53,124.74,63.5,140.61,328.85,Single-ply,SBD,M
Freshmen,51.71,2,Diego Cantu,Roma,50.35,106.59,52.16,117.93,276.69,Single-ply,SBD,M
Freshmen,51.71,3,Braulio Cortez,Laredo United South,50.98,95.25,56.7,117.93,269.89,Single-ply,SBD,M
Freshmen,55.79,4,Jaime Garcia,Laredo United,51.89,97.52,45.36,113.4,256.28,Single-ply,SBD,M
Freshmen,51.71,5,Juan Martinez,Laredo Nixon,49.71,68.04,43.09,106.59,217.72,Single-ply,SBD,M
Freshmen,51.71,6,Joseph Saucedo,Laredo United,50.17,83.91,36.29,97.52,217.72,Single-ply,SBD,M
Freshmen,51.71,7,Jose Cantu,Rio Grande City,44.63,79.38,40.82,90.72,210.92,Single-ply,SBD,M
Freshmen,55.79,1,Josh Baez,Falfurrias,54.25,102.06,68.04,115.67,285.76,Single-ply,SBD,M
Freshmen,55.79,2,Cesar Ramos,Laredo Nixon,55.61,97.52,52.16,136.08,285.76,Single-ply,SBD,M
Freshmen,55.79,3,Trey White,Laredo United South,55.07,61.23,52.16,120.2,233.6,Single-ply,SBD,M
Freshmen,59.87,1,Rogelio Lozano,Roma,57.97,138.35,79.38,140.61,358.34,Single-ply,SBD,M
Freshmen,59.87,2,Jonathan Pena,Laredo United South,57.33,115.67,83.91,142.88,342.46,Single-ply,SBD,M
Freshmen,59.87,3,Hector de la Rosa,Laredo United South,59.33,115.67,63.5,124.74,303.91,Single-ply,SBD,M
Freshmen,67.13,4,Ramon Huerta,Falfurrias,60.06,97.52,61.23,138.35,297.1,Single-ply,SBD,M
Freshmen,67.13,5,Rudy Ramos,Laredo Nixon,59.96,102.06,61.23,124.74,288.03,Single-ply,SBD,M
Freshmen,59.87,6,Juan Carmona,Laredo Nixon,57.79,97.52,61.23,127.01,285.76,Single-ply,SBD,M
Freshmen,67.13,1,Erik Corona,Laredo United,63.23,120.2,68.04,131.54,319.78,Single-ply,SBD,M
Freshmen,67.13,2,Ricardo Torres,Rio Grande City,64.14,122.47,72.57,124.74,319.78,Single-ply,SBD,M
Freshmen,67.13,3,David Herrera,Laredo United South,64.59,115.67,65.77,136.08,317.51,Single-ply,SBD,M
Freshmen,67.13,4,Damian Selvera,Laredo Nixon,66.22,102.06,70.31,140.61,312.98,Single-ply,SBD,M
Freshmen,67.13,5,David Marquez,Laredo Nixon,64.41,127.01,61.23,120.2,308.44,Single-ply,SBD,M
Freshmen,67.13,6,Marc Cerda,Laredo United,65.5,111.13,54.43,140.61,306.17,Single-ply,SBD,M
Freshmen,67.13,7,Joel Benavides,Laredo United South,62.69,99.79,56.7,136.08,292.57,Single-ply,SBD,M
Freshmen,67.13,8,Adolfo Chavez,Laredo Johnson,67.13,108.86,65.77,115.67,290.3,Single-ply,SBD,M
Freshmen,67.13,9,Leroy Sustaita,Laredo Martin,65.14,90.72,49.9,117.93,258.55,Single-ply,SBD,M
Freshmen,67.13,10,Juan Lugo,Laredo United South,65.77,72.57,40.82,90.72,204.12,Single-ply,SBD,M
Freshmen,74.84,1,Adrian Garcia,Roma,74.84,156.49,83.91,158.76,399.16,Single-ply,SBD,M
Freshmen,74.84,2,Eric Estrada,Roma,72.12,140.61,92.99,161.03,394.63,Single-ply,SBD,M
Freshmen,74.84,3,Kike Gonzalez,Laredo United,74.39,133.81,99.79,149.69,383.29,Single-ply,SBD,M
Freshmen,74.84,4,Alexis Navarro,Laredo Martin,73.94,136.08,83.91,161.03,381.02,Single-ply,SBD,M
Freshmen,74.84,5,Yahir Garcia,Laredo United South,69.31,124.74,77.11,151.95,353.8,Single-ply,SBD,M
Freshmen,74.84,6,Ray Orosco,Carrizo Springs,74.39,113.4,74.84,158.76,347,Single-ply,SBD,M
Freshmen,74.84,7,Lucas Mora,Falfurrias,73.03,120.2,61.23,154.22,335.66,Single-ply,SBD,M
Freshmen,74.84,8,Gavino Perez,Falfurrias,71.94,111.13,83.91,133.81,328.85,Single-ply,SBD,M
Freshmen,74.84,9,Raul Cantu,Laredo United South,71.03,120.2,61.23,122.47,303.91,Single-ply,SBD,M
Freshmen,74.84,10,Heraldo Solis,Rio Grande City,68.86,102.06,61.23,127.01,290.3,Single-ply,SBD,M
Freshmen,74.84,11,Norman Madrigal,Laredo Johnson,73.21,97.52,61.23,127.01,285.76,Single-ply,SBD,M
Freshmen,74.84,12,Jonathan Valdez,Laredo Johnson,72.21,97.52,52.16,106.59,256.28,Single-ply,SBD,M
Freshmen,74.84,13,Elmer Vazquez,Laredo Johnson,70.13,86.18,54.43,113.4,254.01,Single-ply,SBD,M
Freshmen,82.1,1,Greg Diaz,Rio Grande City,77.75,158.76,79.38,158.76,396.89,Single-ply,SBD,M
Freshmen,82.1,2,David Oliva,Laredo Martin,79.74,120.2,99.79,170.1,390.09,Single-ply,SBD,M
Freshmen,82.1,3,Marcos Resendes,Roma,81.19,145.15,86.18,140.61,371.95,Single-ply,SBD,M
Freshmen,82.1,4,Jose Luis Fuentes,Laredo United,77.56,140.61,70.31,154.22,365.14,Single-ply,SBD,M
Freshmen,82.1,5,Ricky Mena,Laredo United,79.92,111.13,88.45,151.95,351.53,Single-ply,SBD,M
Freshmen,82.1,6,Alfredo Trejo,Laredo Johnson,75.48,104.33,52.16,120.2,276.69,Single-ply,SBD,M
Freshmen,89.81,1,Andrew Garza,Falfurrias,87.54,158.76,102.06,181.44,442.25,Single-ply,SBD,M
Freshmen,89.81,2,Frank Rossi,Hebbronville,89.81,165.56,79.38,167.83,412.77,Single-ply,SBD,M
Freshmen,89.81,3,Bryan Vela,Bruni,86.09,149.69,74.84,163.29,387.82,Single-ply,SBD,M
Freshmen,89.81,4,Marte Guerra,Roma,88.09,142.88,83.91,149.69,376.48,Single-ply,SBD,M
Freshmen,89.81,5,Joshua Juarez,Laredo Johnson,84.73,117.93,72.57,156.49,347,Single-ply,SBD,M
Freshmen,89.81,6,Danny Cardona,Laredo United,89.27,117.93,61.23,156.49,335.66,Single-ply,SBD,M
Freshmen,99.79,1,Silvestre Bustamante,Zapata,99.52,181.44,117.93,172.37,471.74,Single-ply,SBD,M
Freshmen,99.79,2,Jonathan Villegas,Roma,96.34,183.7,104.33,174.63,462.66,Single-ply,SBD,M
Freshmen,99.79,3,Jose Anaya,Laredo United South,97.89,133.81,95.25,170.1,399.16,Single-ply,SBD,M
Freshmen,99.79,4,Frank Villalobos,Laredo United South,94.62,158.76,65.77,158.76,383.29,Single-ply,SBD,M
Freshmen,99.79,5,Mario Torres,Laredo Johnson,95.07,140.61,65.77,167.83,374.21,Single-ply,SBD,M
Freshmen,99.79,6,Rey Davila,Laredo Martin,95.98,129.27,88.45,151.95,369.68,Single-ply,SBD,M
Freshmen,99.79,7,David Orosco,Carrizo Springs,98.16,115.67,90.72,131.54,337.93,Single-ply,SBD,M
Freshmen,99.79,8,Jordy Velasquez,Laredo Johnson,96.71,102.06,74.84,131.54,308.44,Single-ply,SBD,M
Freshmen,109.77,1,Elhim Hernandez,Laredo United,109.32,172.37,102.06,176.9,451.32,Single-ply,SBD,M
Freshmen,109.77,2,Ramiro Ozuna,Roma,104.69,142.88,92.99,149.69,385.55,Single-ply,SBD,M
Freshmen,109.77,3,Juan Gonzalez,Laredo United,105.87,129.27,88.45,158.76,376.48,Single-ply,SBD,M
Freshmen,124.74,1,Marcus Avila,Carrizo Springs,124.38,172.37,108.86,190.51,471.74,Single-ply,SBD,M
Freshmen,124.74,2,Faustino Beltran,Roma,119.48,199.58,83.91,176.9,460.4,Single-ply,SBD,M
Freshmen,124.74,3,Bobby Pulido,Falfurrias,119.2,136.08,127.01,195.04,458.13,Single-ply,SBD,M
Freshmen,124.74,4,Javier Escobedo,Laredo Johnson,114.03,136.08,70.31,149.69,356.07,Single-ply,SBD,M
Freshmen,124.74,5,Jaun Castillo,Roma,110.22,106.59,61.23,147.42,315.25,Single-ply,SBD,M
Freshmen,124.74,DQ,Gerardo Gonzalez,Laredo Nixon,119.48,170.1,90.72,,,Single-ply,SBD,M
Freshmen,124.74+,1,Eduardo Sanchez,Zapata,130.09,226.8,140.61,201.85,569.26,Single-ply,SBD,M
Freshmen,124.74+,2,Rudy Flores,Laredo United South,134.26,215.46,120.2,213.19,548.85,Single-ply,SBD,M
Freshmen,124.74+,3,Homero Toscano,Rio Grande City,132.99,195.04,102.06,195.04,492.15,Single-ply,SBD,M
Freshmen,124.74+,4,Ruben Hinojosa,Roma,141.34,199.58,108.86,158.76,467.2,Single-ply,SBD,M
Freshmen,124.74+,5,Hector Velasquez,Laredo Johnson,143.79,147.42,74.84,158.76,381.02,Single-ply,SBD,M
Freshmen,124.74+,6,Rudy Melendez,Laredo Nixon,144.61,131.54,90.72,154.22,376.48,Single-ply,SBD,M
