Name,Team,Sex,Division,BodyweightKg,WeightClassKg,Best3SquatKg,Best3BenchKg,Best3DeadliftKg,TotalKg,Place,Event,Equipment
James Yancy Blas,TB,M,D,22.3,33,42.5,27.5,60,130,1,SBD,Raw
Jose Dayao,CMG,M,D,33.4,38,70,38,80,188,1,SBD,Raw
Alwin Bernaldez,TB,M,D,45.7,48,67.5,50,90,207.5,1,SBD,Raw
John Mathew Manalang,ZPG-A,M,SJ,49.5,53,90,70,115,275,1,SBD,Raw
Leonard Yuk Fong Monty Hon,NEU-A,M,SJ,50.2,53,90,55,110,255,2,SBD,Raw
Eric Kyle Ileto,NEU-A,M,SJ,57.7,59,110,60,160.5,330.5,1,SBD,Raw
Martin Lester Flores,OSP,M,SJ,56.4,59,115,75,137.5,327.5,2,SBD,Raw
Jeremias Jerome Reyes,NEU-A,M,SJ,56.8,59,90,47.5,110,247.5,3,SBD,Raw
Lance Gabriel Laquian,OSP,M,SJ,61.3,66,127.5,60,142.5,330,1,SBD,Raw
Marcunicolas Laput,NEU-A,M,SJ,60.7,66,95,75,150,320,2,SBD,Raw
Sebastianne Uly Garces,NEU-A,M,SJ,63.6,66,110,60,140,310,3,SBD,Raw
Robert Louis Mallonga,OSP,M,SJ,72.8,74,120,65,147.5,332.5,1,SBD,Raw
Dwight Michael Marajas,NEU-A,M,SJ,70.6,74,100,60,135,295,2,SBD,Raw
Daniel Taduran,NEU-A,M,SJ,68.2,74,110,60,120,290,3,SBD,Raw
Maro Luiz Yarza,OSP,M,SJ,91.3,93,175,90,,,DQ,SBD,Raw
Antonio Luis Legarda,AFUPTC,M,J,58.6,59,110,80,145,335,1,SBD,Raw
Miguel Carlo Aytona,ZPG-A,M,J,65.6,66,183,92.5,192.5,468,1,SBD,Raw
Bernie Santos,AFUPTC,M,J,64.5,66,162.5,95,205,462.5,2,SBD,Raw
Mark Viloria,ZPG-A,M,J,63.4,66,165,92.5,185,442.5,3,SBD,Raw
Archeo Harry Vicente,KTX-A,M,J,65.9,66,170,95,175,440,4,SBD,Raw
Timothy Roxas,GG-B,M,J,63.8,66,152.5,90,185,427.5,5,SBD,Raw
Clark David Buban,AFUPTC,M,J,63.7,66,155,87.5,180,422.5,6,SBD,Raw
Carlos Joseph Villareal,IND,M,J,62.5,66,130,80,165,375,7,SBD,Raw
Carel Javier Rivera,IND,M,J,63.4,66,130,80,160,370,8,SBD,Raw
Jose Mari Sobrevilla,UA&P,M,J,62.4,66,,,,,DQ,SBD,Raw
Jose Vicente Sobrevilla,UA&P,M,J,64,66,,,,,DQ,SBD,Raw
Michael Andrew Budol,IND,M,J,72.1,74,170,100,217.5,487.5,1,SBD,Raw
Andrei Ona,GG-A,M,J,70.9,74,167.5,107.5,200,475,2,SBD,Raw
Isaac De Villa,BC,M,J,70.9,74,177.5,97.5,180,455,3,SBD,Raw
Francis Isaiah Mendoza,KTX-A,M,J,72.9,74,160,118.5,165,443.5,4,SBD,Raw
Konni-Kamil Delos Reyes,AFUPTC,M,J,72.5,74,142.5,87.5,200,430,5,SBD,Raw
John Sebastian Cruz,IND,M,J,71.9,74,145,95,180,420,6,SBD,Raw
James Lee,IND,M,J,72.2,74,132.5,85,175,392.5,7,SBD,Raw
Jesus Alfredo M. Roxas,IND,M,J,72.4,74,130,50,160,340,8,SBD,Raw
Iman Cura,IND,M,J,70,74,,65,,,DQ,SBD,Raw
Gaspar Lorenzo,ZPG-A,M,J,80.7,83,220,157.5,235,612.5,1,SBD,Raw
Jeffrey James Portugal,IND,M,J,80.7,83,172.5,90,248,510.5,2,SBD,Raw
Mikaello de Guzman,GG-A,M,J,82.9,83,190,110,200,500,3,SBD,Raw
Jason Joseph Galvez,AFUPTC,M,J,80.4,83,165,90,195,450,4,SBD,Raw
Johan Chan,ZPG-A,M,J,81.1,83,140,100,200,440,5,SBD,Raw
Raymond Alfred Bernal,UA&P,M,J,77.8,83,147.5,105,177.5,430,6,SBD,Raw
Gian Vittorio Osi,IND,M,J,82,83,150,97.5,175,422.5,7,SBD,Raw
Bryan Verzosa,GG-A,M,J,78.7,83,122.5,90,167.5,380,8,SBD,Raw
Von Jacob Rivera,GG-A,M,J,81,83,112.5,77.5,155,345,9,SBD,Raw
Lorenzo Romasanta,UA&P,M,J,79.9,83,110,75,130,315,10,SBD,Raw
Kenneth Patrick Bautista,IND,M,J,80.4,83,160,102.5,,,DQ,SBD,Raw
Kent Jayrald Tan,BARS,M,J,92.4,93,235,142.5,262.5,640,1,SBD,Raw
Nestor Redulla,GG-A,M,J,90.6,93,234,125,267.5,626.5,2,SBD,Raw
Wayne Ramos,AFUPTC,M,J,88,93,220,125,240,585,3,SBD,Raw
Millenus Ocubillo,GG-A,M,J,90.7,93,195,135,240,570,4,SBD,Raw
Greg Dominic Aquino,KTX-B,M,J,90.1,93,160,80,180,420,5,SBD,Raw
Rafael Renzo S. Cahilig,IND,M,J,102.7,105,225,142.5,255,622.5,1,SBD,Raw
Emilio Lorenzo Florendo,ZPG-A,M,J,102.6,105,215,142.5,240,597.5,2,SBD,Raw
Edwin III Saulog,BARS,M,O,58.5,59,160,105,180,445,1,SBD,Raw
Jessie Barlaan,IND,M,O,58.4,59,147.5,100,187.5,435,2,SBD,Raw
Hyrum Yabut,IND,M,O,58.2,59,142.5,92.5,200,435,3,SBD,Raw
Miguel Roman Baldovino,IND,M,O,57.2,59,120,97.5,182.5,400,4,SBD,Raw
Willord Capulong,FNB,M,O,58.2,59,132.5,82.5,165,380,5,SBD,Raw
Solon Condenuevo,ZPG-B,M,O,58.1,59,115,85,140,340,6,SBD,Raw
Paulo Luis Reyes,IND,M,O,54.3,59,95,85,155,335,7,SBD,Raw
Art Diez,ZPG-A,M,O,57.4,59,125,75,130,330,8,SBD,Raw
Archival Charlie Ariete,IND,M,O,57.9,59,157.5,,187.5,,DQ,SBD,Raw
Paul Andrei Bautista,OSP,M,O,58.2,59,117.5,,132.5,,DQ,SBD,Raw
Roelle Cortejo,KTX-A,M,O,58.6,59,145,,,,DQ,SBD,Raw
Isiah de Villa,BC,M,O,64.4,66,202.5,150,227.5,580,1,SBD,Raw
Francis Oliver Retardo,BARS,M,O,64.9,66,210,122.5,240,572.5,2,SBD,Raw
Miguel Carlo Aytona,ZPG-A,M,O,65.6,66,183,92.5,192.5,468,3,SBD,Raw
Romel Pandaan,NEU-A,M,O,65.1,66,160,107.5,200,467.5,4,SBD,Raw
Bernie Santos,AFUPTC,M,O,64.5,66,162.5,95,205,462.5,5,SBD,Raw
Geribert Duran,IND,M,O,64.3,66,175,102.5,175,452.5,6,SBD,Raw
Mark Viloria,ZPG-A,M,O,63.4,66,165,92.5,185,442.5,9,SBD,Raw
Edwin Sonido,CH,M,O,65.1,66,140,112.5,190,442.5,8,SBD,Raw
Archeo Harry Vicente,KTX-A,M,O,65.9,66,170,95,175,440,7,SBD,Raw
Timothy Roxas,GG-B,M,O,63.8,66,152.5,90,185,427.5,10,SBD,Raw
Gian Carlo Budol,KTX-B,M,O,65.2,66,150,95,180,425,11,SBD,Raw
Clark David Buban,AFUPTC,M,O,63.7,66,155,87.5,180,422.5,12,SBD,Raw
Michael Aylwin Santos,KTX-B,M,O,65.4,66,120,82.5,170,372.5,13,SBD,Raw
Roland Kendrick Asuncion,IND,M,O,64,66,127.5,80,140,347.5,14,SBD,Raw
Jansen Banzon,BARS,M,O,64.9,66,,90,175,,DQ,SBD,Raw
Mark Abad,ZPG-A,M,O,73.4,74,180,145,210,535,1,SBD,Raw
Marlon Lugue,KTX-A,M,O,74,74,190,120,192.5,502.5,2,SBD,Raw
Eric Wales,IND,M,O,71.7,74,165,110,225,500,3,SBD,Raw
Aaron Marasigan,GG-B,M,O,72.5,74,190,95,210,495,4,SBD,Raw
Michael Andrew Budol,IND,M,O,72.1,74,170,100,217.5,487.5,5,SBD,Raw
Benjamin Abesamis,GG-A,M,O,72.8,74,170,100,215,485,6,SBD,Raw
Paul Chavit,ZPG-B,M,O,72,74,160,120,200,480,7,SBD,Raw
Donn Esbert Bernal,IND,M,O,72,74,162.5,105,205,472.5,8,SBD,Raw
John Matthew Zerudo,IP,M,O,71.9,74,160,75,200,435,9,SBD,Raw
Alfonso Alag,IP,M,O,71.1,74,152.5,90,177.5,420,10,SBD,Raw
Mark Joshua Cacas,IND,M,O,70.1,74,132.5,100,185,417.5,11,SBD,Raw
Joshua Martin Ocampo,IND,M,O,72.2,74,150,92.5,160,402.5,12,SBD,Raw
Moses Joshua Montilla,KTX-C,M,O,72.5,74,130,105,165,400,13,SBD,Raw
John Florenz Miane,IP,M,O,68.9,74,150,72.5,175,397.5,14,SBD,Raw
Miguel Delfin Quiambao,KTX-C,M,O,72.1,74,115,97.5,180,392.5,15,SBD,Raw
John Sabino,OSP,M,O,73,74,147.5,85,157.5,390,16,SBD,Raw
John Arvie Limbo,IND,M,O,71,74,125,90,160,375,17,SBD,Raw
Emman Glenn Cea,IND,M,O,73.1,74,105,85,135,325,18,SBD,Raw
Edric Jose Barcenas,BARS,M,O,72.4,74,165,140,,,DQ,SBD,Raw
Chester Faytaren,GG-A,M,O,80.7,83,200,142.5,270,612.5,1,SBD,Raw
Gaspar Lorenzo,ZPG-A,M,O,80.7,83,220,157.5,235,612.5,2,SBD,Raw
Julius Abraham Necor,IND,M,O,82,83,195,90,265,550,3,SBD,Raw
Jeffrey James Portugal,IND,M,O,80.7,83,172.5,90,248,510.5,4,SBD,Raw
Mikaello de Guzman,GG-A,M,O,82.9,83,190,110,200,500,5,SBD,Raw
Edwin Onate,KTX-A,M,O,81.4,83,195,102.5,190,487.5,6,SBD,Raw
Kazuhiro Ishikawa,KTX-A,M,O,77.4,83,160,122.5,185,467.5,7,SBD,Raw
Dennis Christopher DM Casiño,IND,M,O,82,83,167.5,100,200,467.5,8,SBD,Raw
Mario Emmanuel Gallardo,IND,M,O,82.4,83,160,115,175,450,9,SBD,Raw
Carlo De Leon,KTX-B,M,O,81.8,83,155,92.5,190,437.5,10,SBD,Raw
Marco Harder,ZPG-B,M,O,81.4,83,160,90,187.5,437.5,11,SBD,Raw
Antonio Francisco Vergeire,IND,M,O,78.5,83,150,107.5,172.5,430,12,SBD,Raw
Adriel Manabat,ZPG-B,M,O,75,83,145,97.5,180,422.5,13,SBD,Raw
Timothy Lopez,GG-A,M,O,79.2,83,100,90,140,330,14,SBD,Raw
Quintin III Abat,IND,M,O,77.3,83,150,,,,DQ,SBD,Raw
Juan Carlos Lopez,IND,M,O,80.7,83,125,,,,DQ,SBD,Raw
Kent Jayrald Tan,BARS,M,O,92.4,93,235,142.5,262.5,640,1,SBD,Raw
Nestor Redulla,GG-A,M,O,90.6,93,234,125,267.5,626.5,2,SBD,Raw
Nelson Ancheta,KTX-A,M,O,91.6,93,210,150,240,600,3,SBD,Raw
Wayne Ramos,AFUPTC,M,O,88,93,220,125,240,585,4,SBD,Raw
Chino Datu,GG-B,M,O,88.3,93,200,110,240,550,5,SBD,Raw
Adriel Justin Gonzales,OSP,M,O,83.3,93,190,115,215,520,6,SBD,Raw
Ian Joseph Jamila,IND,M,O,88.3,93,170,90,210,470,7,SBD,Raw
Greg Dominic Aquino,KTX-B,M,O,90.1,93,160,80,180,420,8,SBD,Raw
Maro Luiz Yarza,OSP,M,O,91.3,93,175,90,,,DQ,SBD,Raw
Gerald Louie Rodriguez,IND,M,O,89.8,93,,115,,,DQ,SBD,Raw
Rafael Renzo S. Cahilig,IND,M,O,102.7,105,225,142.5,255,622.5,1,SBD,Raw
Alfredo Perez IV,AFUPTC,M,O,102.8,105,237.5,120,255,612.5,2,SBD,Raw
Emilio Lorenzo Florendo,ZPG-A,M,O,102.6,105,215,142.5,240,597.5,3,SBD,Raw
Aldrin Caparas,ZPG-A,M,O,100.2,105,190,150,220,560,4,SBD,Raw
Carl Agana,UA&P,M,O,104.7,105,175,130,185,490,5,SBD,Raw
Carlos Antonio Ambal,IND,M,O,99.9,105,170,90,170,430,6,SBD,Raw
John Velasquez,FNB,M,O,95.2,105,115,90,115,320,7,SBD,Raw
Mark Espino,GG-A,M,O,110.3,120,261,120,230,611,1,SBD,Raw
JC Rillera,IND,M,O,105.7,120,222.5,140,230,592.5,2,SBD,Raw
Carlos Lanzona,CH,M,O,116.6,120,230,120,220,570,3,SBD,Raw
Karl Reyes,IND,M,O,112.9,120,200,135,222.5,557.5,4,SBD,Raw
Raymond Debuque,ZPG-A,M,O,131.6,120+,280.5,180,300,760.5,1,SBD,Raw
Jose Aspiras,IND,M,O,126.5,120+,205,125,220,550,2,SBD,Raw
Pochieto Ordoñez,IND,M,O,120.5,120+,195,127.5,,,DQ,SBD,Raw
Geribert Duran,IND,M,M1,64.3,66,175,102.5,175,452.5,1,SBD,Raw
Edwin Sonido,CH,M,M1,65.1,66,140,112.5,190,442.5,2,SBD,Raw
Merwin Torres,FNB,M,M1,70.7,74,142.5,120,175,437.5,1,SBD,Raw
Alfred Tengonciang,CH,M,M1,71.9,74,105,107.5,145,357.5,2,SBD,Raw
Arvin Suller,FNB,M,M1,69.5,74,102.5,55,142.5,300,3,SBD,Raw
Linus Tiu,ZPG-A,M,M1,84.3,93,130,105,192.5,427.5,1,SBD,Raw
Adrian Alfiler,KTX-A,M,M1,90.8,93,162.5,97.5,162.5,422.5,2,SBD,Raw
Mark Inductivo,ZPG-A,M,M1,87.6,93,112.5,75,115,302.5,3,SBD,Raw
Magiting Gonzales,ZPG-A,M,M1,95.6,105,115,67.5,125,307.5,1,SBD,Raw
Richmond Sia,IND,M,M1,141.3,120+,180,160,230,570,1,SBD,Raw
Luisito Manuel,UNP,M,M2,57,59,70,52.5,105,227.5,1,SBD,Raw
Gregorio Gayya,GG-A,M,M2,68.9,74,140,85,140,365,1,SBD,Raw
Edwin Onate,KTX-A,M,M2,81.4,83,195,102.5,190,487.5,1,SBD,Raw
Anthony Rice,OSP,M,M2,82,83,,,,,DQ,SBD,Raw
Roberto Gayanes,GG-A,M,M2,85.3,93,180,105,180,465,1,SBD,Raw
Jessa Mae Tabuan,CMG,F,SJ,46.1,47,85,50,115,250,1,SBD,Raw
Ann Briggite Dominique Tiqui,NEU-A,F,SJ,44.5,47,50,22.5,70,142.5,2,SBD,Raw
Maria Monica Flores,NEU-A,F,SJ,56,57,67.5,35,92.5,195,1,SBD,Raw
Catherine Bautista,NEU-A,F,SJ,60.8,63,75,30,100,205,1,SBD,Raw
Michelle May Apuada,NEU-A,F,SJ,69.7,72,95,40,100,235,1,SBD,Raw
Angel Tamayo,FNB,F,SJ,66.7,72,80,30,102.5,212.5,1,SBD,Raw
Anndrian Ducusin,NEU-A,F,SJ,90.4,84+,118,43,130,291,1,SBD,Raw
Catherine Anne Martos,KTX,F,J,46.3,47,75,40,112.5,227.5,1,SBD,Raw
Mikaela Elzbette Neri,CH,F,J,47,47,90,37.5,100,227.5,2,SBD,Raw
Chelsea Cacho,GG-A,F,J,46.5,47,70,40,80,190,3,SBD,Raw
Dominique Martin Esguerra,IND,F,J,47,47,67.5,35,75,177.5,4,SBD,Raw
Aubrey Khay Gilla,IND,F,J,46,47,45,32.5,62.5,140,5,SBD,Raw
Jenina Marie Solano Vinluan,IND,F,J,49.9,52,85,47.5,115,247.5,1,SBD,Raw
Crystal Jade Alunan,IND,F,J,50,52,90,42.5,102.5,235,2,SBD,Raw
Jeremy Reign Bautista,ZPG-A,F,J,52.9,57,105,72.5,140,317.5,1,SBD,Raw
Raz Paredez,IP,F,J,56.5,57,90,45,120,255,2,SBD,Raw
Rose Emille Diño,KTX-A,F,J,60.2,63,105,50,120,275,1,SBD,Raw
Grace Del Barrio,ZPG-A,F,J,60.6,63,100,50,,,DQ,SBD,Raw
Candice Angelyn Hijastro,IP,F,J,64.5,72,110,60,142.5,312.5,1,SBD,Raw
Marie Denise Jamila,CH,F,J,65.7,72,90,52.5,125,267.5,2,SBD,Raw
Claudine Alexis Yu,IND,F,J,63.5,72,82.5,45,105,232.5,3,SBD,Raw
Lovely Baldonado,NEU-A,F,J,77.1,84,105,40,100,245,1,SBD,Raw
Janella Mhaecy Capili,CH,F,J,92.8,84+,140,67.5,145.5,353,1,SBD,Raw
May Estrera,ZPG-A,F,O,45.8,47,100,52.5,115,267.5,1,SBD,Raw
Freya Jillianne Dylim,IND,F,O,44.7,47,90,42.5,120,252.5,2,SBD,Raw
Catherine Anne Martos,KTX-A,F,O,46.3,47,75,40,112.5,227.5,3,SBD,Raw
Mikaela Elzbette Neri,CH,F,O,47,47,90,37.5,100,227.5,4,SBD,Raw
Chelsea Cacho,GG-A,F,O,46.5,47,70,40,80,190,5,SBD,Raw
Anissa Liane Amilhamja,IND,F,O,45.5,47,60,30,75,165,6,SBD,Raw
Aubrey Khay Gilla,IND,F,O,46,47,45,32.5,62.5,140,7,SBD,Raw
Liza Valencia,AFM,F,O,46.9,47,,40,115,,DQ,SBD,Raw
Jasmine Martin,CH,F,O,50.4,52,110,50,147.5,307.5,1,SBD,Raw
Victorina Calma,GG-A,F,O,50.8,52,92.5,57.5,125,275,2,SBD,Raw
Jenina Marie Solano Vinluan,IND,F,O,49.9,52,85,47.5,115,247.5,3,SBD,Raw
Joanah April Hermano,KTX-A,F,O,51,52,95,50,97.5,242.5,4,SBD,Raw
Katrina Lachica,CH,F,O,47.2,52,77.5,42.5,100,220,5,SBD,Raw
Ghyrel Delos Reyes,IND,F,O,51.2,52,75,37.5,95,207.5,6,SBD,Raw
Rosamonde Camille Ong,IND,F,O,50.9,52,75,35,97.5,207.5,7,SBD,Raw
Maria Cristina Dawn Consengco,IND,F,O,52,52,40,30,70,140,8,SBD,Raw
Jeremy Reign Bautista,ZPG-A,F,O,52.9,57,105,72.5,140,317.5,1,SBD,Raw
Merry Jae Nocum,KTX-A,F,O,56.7,57,97.5,50,142.5,290,2,SBD,Raw
Alyssa Charisse Tecson,UNP,F,O,55.6,57,100,52.5,117.5,270,3,SBD,Raw
Raz Paredez,IP,F,O,56.5,57,90,45,120,255,4,SBD,Raw
Jennelyn Lapus,GG-A,F,O,56.6,57,92.5,45,110,247.5,5,SBD,Raw
Shyne Marie Concepcion,KTX-A,F,O,54.2,57,62.5,25,60,147.5,6,SBD,Raw
Angelic Rodrigo,IND,F,O,61.4,63,125,55,137.5,317.5,1,SBD,Raw
Raya Karel Maala,CH,F,O,61,63,100,52.5,125,277.5,2,SBD,Raw
Rose Emille Diño,KTX-A,F,O,60.2,63,105,50,120,275,3,SBD,Raw
Christine Erine Alejandro,IND,F,O,61.2,63,97.5,52.5,115,265,4,SBD,Raw
Kimberly Nicole Hung,IND,F,O,59.7,63,75,45,107.5,227.5,5,SBD,Raw
Charry Gayle Cabantog,IND,F,O,61.6,63,110,,125,,DQ,SBD,Raw
Grace Del Barrio,ZPG-A,F,O,60.6,63,100,50,,,DQ,SBD,Raw
Joyce Reboton,FNB,F,O,70.1,72,175,75,185,435,1,SBD,Raw
Candice Angelyn Hijastro,IP,F,O,64.5,72,110,60,142.5,312.5,2,SBD,Raw
Triccie Baquiran,BARS,F,O,69.8,72,117.5,50,125,292.5,3,SBD,Raw
Mia Del Mundo,CH,F,O,66.3,72,92.5,45,132.5,270,4,SBD,Raw
Marie Denise Jamila,CH,F,O,65.7,72,90,52.5,125,267.5,5,SBD,Raw
Claudine Alexis Yu,IND,F,O,63.5,72,82.5,45,105,232.5,6,SBD,Raw
Ace Dela Cruz,AFUPTC,F,O,77,84,115,70,145,330,1,SBD,Raw
Lovely Baldonado,NEU-A,F,O,77.1,84,105,40,100,245,2,SBD,Raw
Samantha Tayag,GG-A,F,O,86,84+,146,80,160,386,1,SBD,Raw
Janella Mhaecy Capili,CH,F,O,92.8,84+,140,67.5,145.5,353,2,SBD,Raw
Anndrian Ducusin,NEU-A,F,O,90.4,84+,117.5,42.5,130,290,3,SBD,Raw
Victorina Calma,GG-A,F,M1,50.8,52,92.5,57.5,125,275,1,SBD,Raw
Roscef Llorens,KTX-A,F,M1,55.2,57,75,37.5,92.5,205,1,SBD,Raw
Lynette Suller,FNB,F,M1,59.9,63,80,42.5,102.5,225,1,SBD,Raw
Lilibeth Mortimer,FNB,F,M1,58,63,75,30,80,185,2,SBD,Raw
Meg Sarmenta,BARS,F,M1,69.3,72,87.5,35,112.5,235,1,SBD,Raw
Samantha Tayag,GG-A,F,M1,86,84+,146,80,160,386,1,SBD,Raw
Mary Ann Manuel,UNP,F,M2,54.1,57,52.5,30,85,167.5,1,SBD,Raw
Celestina Naguiat,GG-A,F,M3,57,57,45,20,80,145,1,SBD,Raw
