Division,WeightClassKg,Place,Name,Team,BodyweightKg,Best3SquatKg,Best3BenchKg,Best3DeadliftKg,TotalKg,Equipment,Event,Sex
Boys,51.71,1,Kevin Angus,Port Neches-Groves,50.44,129.27,72.57,136.08,337.93,Single-ply,SBD,M
Boys,51.71,2,Adel Jebokji,Port Neches-Groves,50.44,104.33,68.04,142.88,315.25,Single-ply,SBD,M
Boys,51.71,3,Austin Leger,Lumberton,50.89,104.33,58.97,120.2,283.5,Single-ply,SBD,M
Boys,51.71,4,Bryant Carruth,Lumberton,49.99,88.45,63.5,120.2,272.16,Single-ply,SBD,M
Boys,51.71,5,Gustavo Martinez,Winnie East Chambers,51.17,106.59,52.16,113.4,272.16,Single-ply,SBD,M
Boys,51.71,6,Tanner Royal,Bridge City,48.72,77.11,45.36,99.79,222.26,Single-ply,SBD,M
Boys,51.71,7,John Breaux,Nederland,50.35,47.63,38.56,90.72,176.9,Single-ply,SBD,M
Boys,55.79,1,Hunter Stout,Bridge City,54.88,142.88,79.38,136.08,358.34,Single-ply,SBD,M
Boys,59.87,2,German Netro,Winnie East Chambers,56.02,115.67,65.77,122.47,303.91,Single-ply,SBD,M
Boys,55.79,3,Blake Smith,Nederland,53.07,95.25,52.16,124.74,272.16,Single-ply,SBD,M
Boys,55.79,4,Keaton Baker,Lumberton,55.43,88.45,61.23,106.59,256.28,Single-ply,SBD,M
Boys,55.79,5,Michael Mahlie,Beaumont Monsignor Kelly,54.61,92.99,58.97,95.25,247.21,Single-ply,SBD,M
Boys,55.79,DQ,Michael Miller,Deweyville,55.61,88.45,,,,Single-ply,SBD,M
Boys,59.87,1,Kingsley Harris,Beaumont Monsignor Kelly,59.24,147.42,108.86,165.56,421.84,Single-ply,SBD,M
Boys,67.13,2,Troy Soileau,Lumberton,60.06,151.95,90.72,161.03,403.7,Single-ply,SBD,M
Boys,59.87,3,Delis Chalambaga,Deweyville,58.33,131.54,88.45,140.61,360.61,Single-ply,SBD,M
Boys,59.87,4,Sean Longmire,Bridge City,59.6,136.08,81.65,142.88,360.61,Single-ply,SBD,M
Boys,67.13,1,Austin Powell,Vidor,66.86,165.56,90.72,185.97,442.25,Single-ply,SBD,M
Boys,67.13,2,Micheal Godeaux,Vidor,66.41,165.56,97.52,172.37,435.45,Single-ply,SBD,M
Boys,67.13,3,J. Lucas,Port Arthur Memorial,63.41,140.61,102.06,172.37,415.04,Single-ply,SBD,M
Boys,67.13,4,Matt Thomas,Vidor,65.68,145.15,113.4,156.49,415.04,Single-ply,SBD,M
Boys,67.13,5,C. Walters,Port Arthur Memorial,66.86,131.54,92.99,165.56,390.09,Single-ply,SBD,M
Boys,67.13,6,Dwayne Cologne,Beaumont Ozen,61.87,124.74,83.91,172.37,381.02,Single-ply,SBD,M
Boys,74.84,7,Matt Gerald,Port Neches-Groves,67.22,142.88,102.06,136.08,381.02,Single-ply,SBD,M
Boys,67.13,8,Diego Martinez,Winnie East Chambers,61.23,154.22,79.38,142.88,376.48,Single-ply,SBD,M
Boys,67.13,9,Justin Sperl,Port Neches-Groves,66.86,145.15,77.11,145.15,367.41,Single-ply,SBD,M
Boys,67.13,10,J. Johnson,Port Arthur Memorial,65.14,124.74,79.38,149.69,353.8,Single-ply,SBD,M
Boys,67.13,11,Quincy Honeycutt,Lumberton,63.59,106.59,92.99,149.69,349.27,Single-ply,SBD,M
Boys,67.13,12,Josh Collins,Beaumont Ozen,65.14,124.74,77.11,127.01,328.85,Single-ply,SBD,M
Boys,67.13,13,Brock Belanger,Deweyville,65.95,111.13,74.84,136.08,322.05,Single-ply,SBD,M
Boys,67.13,14,Matt Swain,Nederland,65.41,124.74,68.04,124.74,317.51,Single-ply,SBD,M
Boys,67.13,15,Tengon Vallier,Beaumont Central,66.68,102.06,83.91,129.27,315.25,Single-ply,SBD,M
Boys,67.13,16,Noah Ogrydziak,Nederland,65.68,104.33,81.65,127.01,312.98,Single-ply,SBD,M
Boys,67.13,17,Sumner Ogrydziak,Nederland,63.5,102.06,74.84,127.01,303.91,Single-ply,SBD,M
Boys,67.13,18,J. Bailey,Port Arthur Memorial,63.96,79.38,65.77,142.88,288.03,Single-ply,SBD,M
Boys,67.13,19,Chris Hagner,Nederland,63.96,106.59,54.43,106.59,267.62,Single-ply,SBD,M
Boys,67.13,20,Payton Honeycutt,Lumberton,62.69,54.43,45.36,72.57,172.37,Single-ply,SBD,M
Boys,74.84,DQ,Jared Glenn,Lumberton,67.22,156.49,,,,Single-ply,SBD,M
Boys,74.84,1,Dylan Harvey,Beaumont West Brook,74.03,204.12,115.67,201.85,521.63,Single-ply,SBD,M
Boys,74.84,2,Kody Powell,Vidor,72.85,199.58,113.4,192.78,505.76,Single-ply,SBD,M
Boys,74.84,3,Christian Andrews,Beaumont Ozen,72.57,183.7,127.01,190.51,501.22,Single-ply,SBD,M
Boys,74.84,4,Jose Anaya,Winnie East Chambers,73.39,201.85,83.91,199.58,485.34,Single-ply,SBD,M
Boys,82.1,5,Taylor Reddell,Winnie East Chambers,74.93,158.76,108.86,163.29,430.91,Single-ply,SBD,M
Boys,74.84,6,Carlos Lara,Winnie East Chambers,73.48,154.22,70.31,158.76,383.29,Single-ply,SBD,M
Boys,74.84,7,Trey Perrett,Beaumont Monsignor Kelly,68.58,154.22,79.38,142.88,376.48,Single-ply,SBD,M
Boys,74.84,8,Emmanuel Carter,Beaumont Central,70.49,124.74,86.18,165.56,376.48,Single-ply,SBD,M
Boys,74.84,9,A Hines,Port Arthur Memorial,70.13,106.59,86.18,174.63,367.41,Single-ply,SBD,M
Boys,74.84,10,Shane Chessher,Vidor,71.12,129.27,77.11,158.76,365.14,Single-ply,SBD,M
Boys,74.84,11,Aaron Lemelle,Beaumont Ozen,74.12,113.4,90.72,158.76,362.87,Single-ply,SBD,M
Boys,74.84,12,Dimitri Stamatis,Nederland,69.4,115.67,77.11,120.2,312.98,Single-ply,SBD,M
Boys,74.84,13,Trevor Williams,Nederland,68.58,106.59,65.77,124.74,297.1,Single-ply,SBD,M
Boys,74.84,DQ,Xavier Mitchell,Beaumont Central,68.4,,,,,Single-ply,SBD,M
Boys,74.84,DQ,Jaylan Guillory,Beaumont Central,68.95,,,,,Single-ply,SBD,M
Boys,74.84,DQ,Earl Monroe,Beaumont Central,67.86,,,,,Single-ply,SBD,M
Boys,82.1,1,Josh Wilson,Beaumont West Brook,78.93,265.35,122.47,249.48,637.3,Single-ply,SBD,M
Boys,82.1,2,Colton Carter,Nederland,80.29,204.12,111.13,195.04,510.29,Single-ply,SBD,M
Boys,82.1,3,Terry Dinh,Beaumont Central,80.2,165.56,138.35,174.63,478.54,Single-ply,SBD,M
Boys,82.1,4,David Grantham,Port Neches-Groves,76.11,181.44,102.06,183.7,467.2,Single-ply,SBD,M
Boys,82.1,5,Justin Potter,Lumberton,81.28,167.83,124.74,172.37,464.93,Single-ply,SBD,M
Boys,82.1,6,Keyon Martin,Beaumont Ozen,82.01,167.83,111.13,181.44,460.4,Single-ply,SBD,M
Boys,82.1,7,Dj Schwartz,Deweyville,76.66,127.01,92.99,124.74,344.73,Single-ply,SBD,M
Boys,82.1,8,Zach Cole,Bridge City,79.83,165.56,83.91,,249.48,Single-ply,SB,M
Boys,82.1,DQ,D. Martin,Port Arthur Memorial,79.65,140.61,97.52,,,Single-ply,SB,M
Boys,82.1,DQ,El Roberts,Port Arthur Memorial,82.1,,,,,Single-ply,SB,M
Boys,89.81,1,Ryan Runnels,Vidor,89.36,226.8,124.74,219.99,571.53,Single-ply,SBD,M
Boys,89.81,2,Roy Allen,Beaumont West Brook,88.27,231.33,108.86,210.92,551.11,Single-ply,SBD,M
Boys,89.81,3,James Richardson,Lumberton,86.09,199.58,117.93,217.72,535.24,Single-ply,SBD,M
Boys,89.81,4,Billy Pier,Beaumont West Brook,88.27,195.04,124.74,204.12,523.9,Single-ply,SBD,M
Boys,89.81,5,Anthony Breed,Beaumont Ozen,83.82,170.1,124.74,204.12,498.95,Single-ply,SBD,M
Boys,89.81,6,Lance Louviere,Port Neches-Groves,84.91,197.31,115.67,172.37,485.34,Single-ply,SBD,M
Boys,89.81,7,Dean Whitfield,Deweyville,88.18,188.24,102.06,192.78,483.08,Single-ply,SBD,M
Boys,89.81,8,Ryan Smith,Vidor,88.18,185.97,127.01,170.1,483.08,Single-ply,SBD,M
Boys,89.81,9,Edmund Horn,Lumberton,86.64,190.51,117.93,161.03,469.47,Single-ply,SBD,M
Boys,89.81,10,Rj Pastorella,Nederland,86.91,174.63,108.86,185.97,469.47,Single-ply,SBD,M
Boys,89.81,11,O'Shea Kennebrew,Beaumont Central,88.45,181.44,102.06,183.7,467.2,Single-ply,SBD,M
Boys,89.81,12,Blake Trejo,Nederland,87.45,138.35,81.65,154.22,374.21,Single-ply,SBD,M
Boys,89.81,13,Robert Tutton,Lumberton,82.55,136.08,81.65,136.08,353.8,Single-ply,SBD,M
Boys,99.79,1,Dequane Bennett,Beaumont West Brook,96.89,294.84,145.15,265.35,705.34,Single-ply,SBD,M
Boys,99.79,2,Melvin Adderton,Beaumont Monsignor Kelly,92.44,256.28,113.4,242.67,612.35,Single-ply,SBD,M
Boys,99.79,3,Allen Harris,Beaumont Central,98.07,226.8,129.27,226.8,582.87,Single-ply,SBD,M
Boys,109.77,4,Cody Hill,Vidor,99.97,226.8,142.88,201.85,571.53,Single-ply,SBD,M
Boys,99.79,5,Terchan Newman,Beaumont West Brook,93.98,226.8,122.47,215.46,564.72,Single-ply,SBD,M
Boys,99.79,6,Cody Robinson,Lumberton,97.98,174.63,104.33,185.97,464.93,Single-ply,SBD,M
Boys,99.79,7,James McCowan,Beaumont Central,92.9,158.76,90.72,185.97,435.45,Single-ply,SBD,M
Boys,99.79,8,Tyler Ballard,Bridge City,91.26,170.1,102.06,158.76,430.91,Single-ply,SBD,M
Boys,99.79,9,William Coffman,Lumberton,97.43,136.08,72.57,154.22,362.87,Single-ply,SBD,M
Boys,99.79,10,M. Martinez,Port Arthur Memorial,98.34,120.2,90.72,136.08,347,Single-ply,SBD,M
Boys,99.79,DQ,D. McMillan,Port Arthur Memorial,90.81,,,,,Single-ply,SBD,M
Boys,99.79,DQ,Jonny Gay,Port Neches-Groves,90.45,,,,,Single-ply,SBD,M
Boys,124.74,1,Thomas Luce,Bridge City,109.86,317.51,156.49,226.8,700.8,Single-ply,SBD,M
Boys,109.77,2,Matt Douglas,Beaumont West Brook,104.24,249.48,163.29,204.12,616.89,Single-ply,SBD,M
Boys,109.77,3,Aaron Easley,Port Neches-Groves,109.04,272.16,136.08,204.12,612.35,Single-ply,SBD,M
Boys,109.77,4,Isaac Anderson,Beaumont Monsignor Kelly,103.33,235.87,154.22,217.72,607.81,Single-ply,SBD,M
Boys,109.77,5,Sean Sparks,Lumberton,106.78,217.72,138.35,249.48,605.55,Single-ply,SBD,M
Boys,109.77,6,Vincent Whittington,Beaumont West Brook,104.42,235.87,127.01,204.12,566.99,Single-ply,SBD,M
Boys,109.77,7,Kyle McCrary,Winnie East Chambers,103.96,204.12,129.27,172.37,505.76,Single-ply,SBD,M
Boys,109.77,8,Kyle Holmes,Beaumont Central,101.42,158.76,113.4,204.12,476.27,Single-ply,SBD,M
Boys,109.77,9,K Bill,Port Arthur Memorial,102.78,165.56,102.06,172.37,439.98,Single-ply,SBD,M
Boys,109.77,10,Colby Castillo,Lumberton,102.97,185.97,102.06,145.15,433.18,Single-ply,SBD,M
Boys,109.77,11,Brock Pryor,Nederland,102.33,142.88,95.25,154.22,392.36,Single-ply,SBD,M
Boys,109.77,12,Zach Burkhalter,Lumberton,103.78,140.61,92.99,158.76,392.36,Single-ply,SBD,M
Boys,109.77,DQ,Taylor Britt,Vidor,108.14,,,,,Single-ply,SBD,M
Boys,124.74,1,Austin Dial,Nederland,122.56,226.8,172.37,195.04,594.21,Single-ply,SBD,M
Boys,124.74,2,Patrick Braud,Port Neches-Groves,113.49,235.87,136.08,190.51,562.45,Single-ply,SBD,M
Boys,124.74,3,Josh Byrd,Nederland,116.21,213.19,124.74,183.7,521.63,Single-ply,SBD,M
Boys,124.74,4,Ryan Marks,Port Arthur Memorial,118.21,204.12,115.67,183.7,503.49,Single-ply,SBD,M
Boys,124.74,5,Ben Parks,Port Neches-Groves,110.13,204.12,97.52,192.78,494.42,Single-ply,SBD,M
Boys,124.74,6,Daniel Jones,Beaumont Central,122.29,174.63,113.4,206.38,494.42,Single-ply,SBD,M
Boys,124.74,7,C Griffin,Port Arthur Memorial,117.12,170.1,117.93,179.17,467.2,Single-ply,SBD,M
Boys,124.74,8,Cj Brownlow,Lumberton,115.76,158.76,99.79,163.29,421.84,Single-ply,SBD,M
Boys,124.74+,1,Kenneth White,Beaumont Ozen,131.54,254.01,163.29,204.12,621.42,Single-ply,SBD,M
Boys,124.74+,2,Justin Lummus,Deweyville,137.98,226.8,149.69,215.46,591.94,Single-ply,SBD,M
Boys,124.74+,3,Nashawn Edwards,Beaumont Ozen,159.66,190.51,111.13,219.99,521.63,Single-ply,SBD,M
Boys,124.74+,4,B Dennis,Port Arthur Memorial,134.17,195.04,136.08,181.44,512.56,Single-ply,SBD,M
Boys,124.74+,5,Trey Walker,Beaumont Ozen,169.92,183.7,99.79,190.51,474,Single-ply,SBD,M
Boys,124.74+,6,M. Hager,Port Arthur Memorial,176.9,179.17,97.52,167.83,444.52,Single-ply,SBD,M
Boys,124.74+,DQ,Josh Balka,Beaumont West Brook,136.44,204.12,106.59,,,Single-ply,SBD,M
Boys,124.74+,DQ,J Ned,Port Arthur Memorial,129,,,,,Single-ply,SBD,M
