Division,WeightClassKg,Place,Name,Team,BodyweightKg,Best3SquatKg,Best3BenchKg,Best3DeadliftKg,TotalKg,Equipment,Event,Sex
Boys,51.71,1,Dominique Sterling,Seagraves,51.62,102.06,56.7,108.86,267.62,Single-ply,SBD,M
Boys,51.71,2,John Almance,Odessa,51.26,79.38,43.09,92.99,215.46,Single-ply,SBD,M
Boys,55.79,1,Christian Rayos,Levelland,54.16,113.4,83.91,140.61,337.93,Single-ply,SBD,M
Boys,55.79,DQ,Juwan Driver,Andrews,55.07,,,,,Single-ply,SBD,M
Boys,55.79,DQ,Bryan Marquez,Andrews,55.79,83.91,,,,Single-ply,SBD,M
Boys,59.87,1,Jose Marquez,Odessa,56.52,90.72,58.97,124.74,274.42,Single-ply,SBD,M
Boys,59.87,2,Adalberto Verdugo,Seminole,59.87,106.59,54.43,113.4,274.42,Single-ply,SBD,M
Boys,59.87,3,Osiris Flores,Seagraves,59.78,104.33,56.7,106.59,267.62,Single-ply,SBD,M
Boys,59.87,4,Tyler Valdez,Levelland,56.34,52.16,52.16,90.72,195.04,Single-ply,SBD,M
Boys,59.87,DQ,Adrian Martinez,Odessa,59.51,,,,,Single-ply,SBD,M
Boys,67.13,1,Benito Hernandez,Odessa,66.86,165.56,102.06,165.56,433.18,Single-ply,SBD,M
Boys,67.13,2,Gabriel Zubiate,Seminole,65.14,154.22,77.11,161.03,392.36,Single-ply,SBD,M
Boys,67.13,3,Oscar Ariza,Seminole,65.86,140.61,86.18,158.76,385.55,Single-ply,SBD,M
Boys,67.13,4,Jagger Lopez,Levelland,66.13,124.74,86.18,156.49,367.41,Single-ply,SBD,M
Boys,67.13,5,Colter Robertson,Seminole,66.22,133.81,72.57,133.81,340.19,Single-ply,SBD,M
Boys,67.13,6,Jc Ramirez,Odessa,66.5,111.13,65.77,124.74,301.64,Single-ply,SBD,M
Boys,67.13,7,Elijah Martinez,Seagraves,60.78,102.06,68.04,106.59,276.69,Single-ply,SBD,M
Boys,67.13,8,Jacob Amesquita,Seagraves,63.23,99.79,56.7,111.13,267.62,Single-ply,SBD,M
Boys,67.13,9,Jovanni Flotte,Odessa,63.5,70.31,61.23,74.84,206.38,Single-ply,SBD,M
Boys,74.84,1,Hayden Gray,Seminole,73.21,142.88,92.99,158.76,394.63,Single-ply,SBD,M
Boys,74.84,2,Obed Beltran,Seagraves,69.22,138.35,81.65,129.27,349.27,Single-ply,SBD,M
Boys,74.84,3,David Smart,Andrews,74.39,113.4,70.31,138.35,322.05,Single-ply,SBD,M
Boys,74.84,4,Jacob Guy,Andrews,68.4,104.33,49.9,104.33,258.55,Single-ply,SBD,M
Boys,74.84,DQ,Paulino Gabaldon,Odessa,72.21,133.81,,,,Single-ply,SBD,M
Boys,74.84,DQ,Devin Doerksen,Seminole,72.3,,,,,Single-ply,SBD,M
Boys,82.1,1,Isaac Garza,Levelland,81.19,183.7,115.67,217.72,517.1,Single-ply,SBD,M
Boys,82.1,2,Payton Roberts,Levelland,81.56,170.1,108.86,174.63,453.59,Single-ply,SBD,M
Boys,82.1,3,Hunter Manning,Andrews,81.83,154.22,65.77,170.1,390.09,Single-ply,SBD,M
Boys,82.1,4,Ashton Hernandez,Andrews,77.93,138.35,79.38,131.54,349.27,Single-ply,SBD,M
Boys,82.1,5,Nathan Flora,Andrews,79.47,124.74,74.84,149.69,349.27,Single-ply,SBD,M
Boys,82.1,6,Oscar Carnero,Andrews,77.93,97.52,61.23,117.93,276.69,Single-ply,SBD,M
Boys,89.81,1,Aaron Olivas,Andrews,88,222.26,111.13,181.44,514.83,Single-ply,SBD,M
Boys,89.81,2,Alan Rodriguez,Andrews,83.28,174.63,117.93,192.78,485.34,Single-ply,SBD,M
Boys,89.81,3,Richard Flores,Levelland,87.72,151.95,83.91,156.49,392.36,Single-ply,SBD,M
Boys,89.81,4,Matthew Flores,Andrews,82.74,129.27,102.06,145.15,376.48,Single-ply,SBD,M
Boys,99.79,1,Ian Alvidrez,Seminole,95.98,278.96,163.29,265.35,707.6,Single-ply,SBD,M
Boys,99.79,2,Dylen Wolf,Levelland,99.61,260.82,111.13,197.31,569.26,Single-ply,SBD,M
Boys,99.79,3,Petronillo Bustamante,Andrews,97.43,204.12,106.59,181.44,492.15,Single-ply,SBD,M
Boys,99.79,4,Irvin Delgado,Seminole,93.08,188.24,102.06,190.51,480.81,Single-ply,SBD,M
Boys,99.79,5,Colby Buckner,Andrews,97.98,197.31,104.33,142.88,444.52,Single-ply,SBD,M
Boys,99.79,6,Jose Jimenez,Andrews,93.62,142.88,88.45,174.63,405.97,Single-ply,SBD,M
Boys,109.77,1,Alan Mendoza,Seagraves,103.33,192.78,115.67,190.51,498.95,Single-ply,SBD,M
Boys,109.77,2,Caleb Alexander,Seminole,106.5,183.7,90.72,170.1,444.52,Single-ply,SBD,M
Boys,124.74,1,Kwinton Jennings,Seminole,124.65,231.33,115.67,231.33,578.33,Single-ply,SBD,M
Boys,124.74,DQ,Robert Chavez,Odessa,117.93,,,,,Single-ply,SBD,M
Boys,124.74+,1,JJ Castro,Levelland,181.44,256.28,136.08,249.48,641.83,Single-ply,SBD,M
Boys,124.74+,2,Myles Johnson,Levelland,133.81,235.87,124.74,254.01,614.62,Single-ply,SBD,M
Boys,124.74+,3,Dominick Longoria,Seagraves,152.32,229.06,147.42,206.38,582.87,Single-ply,SBD,M
Boys,124.74+,4,John Rodriguez,Levelland,125.55,124.74,90.72,124.74,340.19,Single-ply,SBD,M
Boys,124.74+,DQ,Beau Zuniga,Levelland,135.08,,,,,Single-ply,SBD,M
