Division,WeightClassKg,Place,Name,Team,BodyweightKg,Best3SquatKg,Best3BenchKg,Best3DeadliftKg,TotalKg,Equipment,Event,Sex
Boys,55.79,1,Oscar Perez,Venus,51.94,154.22,86.18,136.08,376.48,Single-ply,SBD,M
Boys,51.71,2,Jason Nguyen,Oakridge School,49.9,124.74,72.57,149.69,347,Single-ply,SBD,M
Boys,51.71,3,Alejandro Cosio,Fort Worth North Side,50.8,122.47,63.5,129.27,315.25,Single-ply,SBD,M
Boys,51.71,4,Ethan Ford,Burleson Centennial,51.48,113.4,54.43,136.08,303.91,Single-ply,SBD,M
Boys,51.71,5,Sahir Alibhai,Oakridge School,46.72,90.72,54.43,106.59,251.74,Single-ply,SBD,M
Boys,51.71,6,Garrett McGuire,Cedar Hill,50.58,92.99,49.9,104.33,247.21,Single-ply,SBD,M
Boys,55.79,1,Shayne Streminski,Burleson Centennial,54.66,140.61,97.52,138.35,376.48,Single-ply,SBD,M
Boys,59.87,2,Colton Doyle,Waxahachie,56.02,136.08,74.84,145.15,356.07,Single-ply,SBD,M
Boys,55.79,3,D'Vonte Hughes,Ennis,54.43,131.54,72.57,145.15,349.27,Single-ply,SBD,M
Boys,59.87,4,Brock McLemore,Midlothian,56.02,115.67,90.72,117.93,324.32,Single-ply,SBD,M
Boys,55.79,5,Psyche Shepherd,Cedar Hill,54.66,90.72,61.23,113.4,265.35,Single-ply,SBD,M
Boys,59.87,1,Austin Blalock,Burleson Centennial,59.65,158.76,102.06,190.51,451.32,Single-ply,SBD,M
Boys,59.87,2,Rafael Sandoval,Plano John Paul II,59.87,163.29,104.33,183.7,451.32,Single-ply,SBD,M
Boys,59.87,3,Jorge Perez,Venus,57.61,170.1,81.65,154.22,405.97,Single-ply,SBD,M
Boys,67.13,4,Zamir Upsher,Keller Timber Creek,60.1,158.76,79.38,167.83,405.97,Single-ply,SBD,M
Boys,59.87,5,Michael Brown,Lancaster,57.83,131.54,74.84,142.88,349.27,Single-ply,SBD,M
Boys,59.87,6,Theo Serrano,Quinlan Ford,59.87,115.67,72.57,147.42,335.66,Single-ply,SBD,M
Boys,67.13,1,Jeffrey Gage,Keller Timber Creek,66.45,163.29,111.13,201.85,476.27,Single-ply,SBD,M
Boys,67.13,2,Jayvier Rigmaiden,Burleson Centennial,62.37,179.17,99.79,195.04,474,Single-ply,SBD,M
Boys,67.13,3,Garrett David,Waxahachie,66.68,165.56,90.72,192.78,449.06,Single-ply,SBD,M
Boys,67.13,4,Issac Montemayor,Ennis,61.23,167.83,92.99,174.63,435.45,Single-ply,SBD,M
Boys,67.13,5,Blake Echols,Oakridge School,66.68,158.76,95.25,181.44,435.45,Single-ply,SBD,M
Boys,74.84,6,Mark Vasquez,Ennis,67.36,154.22,99.79,181.44,435.45,Single-ply,SBD,M
Boys,67.13,7,Nick Morrow,Midlothian,64.86,138.35,95.25,156.49,390.09,Single-ply,SBD,M
Boys,67.13,8,Ian Lucas,Venus,67.13,145.15,79.38,161.03,385.55,Single-ply,SBD,M
Boys,74.84,9,Carter Creel,Midlothian,67.36,151.95,77.11,149.69,378.75,Single-ply,SBD,M
Boys,67.13,10,Khang Tran,Plano John Paul II,65.32,129.27,74.84,165.56,369.68,Single-ply,SBD,M
Boys,67.13,11,Carter Brigman,Waxahachie,65.77,136.08,97.52,133.81,367.41,Single-ply,SBD,M
Boys,67.13,12,Joshua Scott,Cedar Hill,62.6,122.47,56.7,129.27,308.44,Single-ply,SBD,M
Boys,67.13,DQ,Sean Pobst,Quinlan Ford,65.32,113.4,102.06,,,Single-ply,SBD,M
Boys,74.84,1,Chanse Alexander,Oakridge School,74.84,240.4,117.93,244.94,603.28,Single-ply,SBD,M
Boys,74.84,2,Chris Vega,Fort Worth North Side,73.94,217.72,151.95,231.33,601.01,Single-ply,SBD,M
Boys,74.84,3,Trey Edwards,Ennis,70.76,181.44,92.99,183.7,458.13,Single-ply,SBD,M
Boys,74.84,4,Gavin Pringle,Waxahachie,72.8,165.56,102.06,183.7,451.32,Single-ply,SBD,M
Boys,74.84,5,Charles Willman,Quinlan Ford,74.16,145.15,120.2,170.1,435.45,Single-ply,SBD,M
Boys,74.84,6,Abraham Flores,Fort Worth North Side,73.03,149.69,86.18,190.51,426.38,Single-ply,SBD,M
Boys,74.84,7,Sagar Patel,Oakridge School,68.72,154.22,86.18,181.44,421.84,Single-ply,SBD,M
Boys,74.84,8,Michael Vega,Venus,67.81,154.22,102.06,156.49,412.77,Single-ply,SBD,M
Boys,74.84,9,Isaiah Murkledove,Cedar Hill,71.21,136.08,83.91,192.78,412.77,Single-ply,SBD,M
Boys,74.84,10,Tyler Coody,Midlothian,74.16,147.42,97.52,158.76,403.7,Single-ply,SBD,M
Boys,74.84,11,Calvin Olsen,Quinlan Ford,70.53,138.35,90.72,151.95,381.02,Single-ply,SBD,M
Boys,74.84,12,Trey Sowell,Oakridge School,70.76,136.08,86.18,154.22,376.48,Single-ply,SBD,M
Boys,74.84,13,Alex Diaz #3,Oakridge School,73.03,138.35,74.84,158.76,371.95,Single-ply,SBD,M
Boys,74.84,14,Bryan Robb,Oakridge School,73.94,129.27,70.31,163.29,362.87,Single-ply,SBD,M
Boys,74.84,15,Jace Trammell,Quinlan Ford,69.63,117.93,83.91,136.08,337.93,Single-ply,SBD,M
Boys,74.84,16,Cade Wooten,Oakridge School,70.99,113.4,74.84,149.69,337.93,Single-ply,SBD,M
Boys,74.84,17,Joel Reyes,Cedar Hill,74.16,124.74,79.38,124.74,328.85,Single-ply,SBD,M
Boys,74.84,18,Lee Gaines,Oakridge School,71.67,97.52,54.43,142.88,294.84,Single-ply,SBD,M
Boys,82.1,1,Mason Pierce,Plano John Paul II,81.65,235.87,176.9,258.55,671.32,Single-ply,SBD,M
Boys,82.1,2,Jesus Padilla,Fort Worth North Side,81.42,226.8,156.49,229.06,612.35,Single-ply,SBD,M
Boys,82.1,3,Nathan Ferguson,Burleson Centennial,80.74,195.04,115.67,215.46,526.17,Single-ply,SBD,M
Boys,82.1,4,Alexeev Dismuke,Lancaster,82.1,174.63,115.67,183.7,474,Single-ply,SBD,M
Boys,82.1,5,Alberto Camarillo,Fort Worth North Side,78.02,174.63,102.06,172.37,449.06,Single-ply,SBD,M
Boys,82.1,6,Trevor Brooks,Lancaster,81.42,151.95,115.67,165.56,433.18,Single-ply,SBD,M
Boys,82.1,7,Michael Fonseca,Dallas Jesuit,77.56,156.49,86.18,174.63,417.3,Single-ply,SBD,M
Boys,82.1,8,Sir Charles Miles-Frost,Lancaster,79.15,142.88,102.06,165.56,410.5,Single-ply,SBD,M
Boys,82.1,9,Arami Hicks,Cedar Hill,76.2,147.42,83.91,170.1,401.43,Single-ply,SBD,M
Boys,82.1,10,Austin Schaffer,Oakridge School,79.61,142.88,77.11,181.44,401.43,Single-ply,SBD,M
Boys,82.1,11,Andrew White,Oakridge School,79.83,120.2,77.11,140.61,337.93,Single-ply,SBD,M
Boys,82.1,12,Noel Reyes,Cedar Hill,76.88,111.13,74.84,117.93,303.91,Single-ply,SBD,M
Boys,82.1,DQ,Jordin Waits,Cedar Hill,77.56,138.35,,,,Single-ply,SBD,M
Boys,89.81,1,Najee Mustafaa,Midlothian,89.81,226.8,136.08,226.8,589.67,Single-ply,SBD,M
Boys,89.81,2,Davion Smith,Lancaster,83.23,156.49,133.81,242.67,532.97,Single-ply,SBD,M
Boys,89.81,3,Dj Jefferson,Waxahachie,88.68,188.24,120.2,222.26,530.7,Single-ply,SBD,M
Boys,89.81,4,Leonardo Zavala,Waxahachie,87.54,197.31,106.59,219.99,523.9,Single-ply,SBD,M
Boys,89.81,5,Chris Clark,Waxahachie,83.91,170.1,117.93,229.06,517.1,Single-ply,SBD,M
Boys,89.81,6,Ryan Steinkirchner,Plano John Paul II,88.45,183.7,122.47,208.65,514.83,Single-ply,SBD,M
Boys,89.81,7,Asher Gillaspie,Burleson Centennial,88,195.04,127.01,190.51,512.56,Single-ply,SBD,M
Boys,89.81,8,Brandon Melton,Quinlan Ford,86.86,190.51,104.33,181.44,476.27,Single-ply,SBD,M
Boys,89.81,9,Hunter Powell,Keller Timber Creek,85.28,183.7,104.33,185.97,474,Single-ply,SBD,M
Boys,89.81,10,Robin Agir,Oakridge School,87.77,181.44,86.18,185.97,453.59,Single-ply,SBD,M
Boys,89.81,11,Alex Green,Plano John Paul II,83.01,142.88,83.91,195.04,421.84,Single-ply,SBD,M
Boys,99.79,12,Billy Pritchett,Quinlan Ford,90.04,158.76,81.65,181.44,421.84,Single-ply,SBD,M
Boys,89.81,13,Enrique Perez,Fort Worth North Side,89.36,129.27,104.33,172.37,405.97,Single-ply,SBD,M
Boys,89.81,14,Anthony Smith,Cedar Hill,86.64,147.42,79.38,158.76,385.55,Single-ply,SBD,M
Boys,89.81,15,Nick Tran,Oakridge School,86.18,131.54,61.23,158.76,351.53,Single-ply,SBD,M
Boys,89.81,16,David Anderson,Plano John Paul II,85.28,106.59,74.84,129.27,310.71,Single-ply,SBD,M
Boys,89.81,DQ,Reginald Dixon,Lancaster,89.58,,,,,Single-ply,SBD,M
Boys,99.79,1,Chase Wingo,Midlothian,96.16,247.21,147.42,247.21,641.83,Single-ply,SBD,M
Boys,99.79,2,Nico Rodriguez,Dallas Jesuit,98.2,197.31,147.42,240.4,585.13,Single-ply,SBD,M
Boys,99.79,3,Sid Irwin,Burleson Centennial,93.44,215.46,136.08,231.33,582.87,Single-ply,SBD,M
Boys,99.79,4,Ian Masakini,Keller Timber Creek,92.99,226.8,136.08,208.65,571.53,Single-ply,SBD,M
Boys,99.79,5,Jerry McNeil,Quinlan Ford,99.56,215.46,145.15,204.12,564.72,Single-ply,SBD,M
Boys,99.79,6,Chriss Woods,Waxahachie,98.43,208.65,136.08,204.12,548.85,Single-ply,SBD,M
Boys,99.79,7,Trevor Goree,Keller Timber Creek,91.63,190.51,120.2,215.46,526.17,Single-ply,SBD,M
Boys,99.79,8,Riley Hyslop,Plano John Paul II,94.8,158.76,117.93,213.19,489.88,Single-ply,SBD,M
Boys,99.79,9,Noor Wafayee,Oakridge School,95.25,172.37,113.4,204.12,489.88,Single-ply,SBD,M
Boys,99.79,10,Tyler Hobbs,Quinlan Ford,96.62,176.9,104.33,197.31,478.54,Single-ply,SBD,M
Boys,99.79,11,Jonathan Casillas,Keller Timber Creek,91.63,181.44,108.86,183.7,474,Single-ply,SBD,M
Boys,99.79,12,Guadalupe Silva,Venus,93.44,185.97,99.79,188.24,474,Single-ply,SBD,M
Boys,99.79,13,DeMarcus McGraw,Ennis,95.25,165.56,108.86,188.24,462.66,Single-ply,SBD,M
Boys,99.79,14,Jonathan Bates,Plano John Paul II,98.2,165.56,95.25,199.58,460.4,Single-ply,SBD,M
Boys,99.79,15,Joss Duncan,Midlothian,96.39,165.56,95.25,192.78,453.59,Single-ply,SBD,M
Boys,99.79,16,Chris Castro,Midlothian,95.03,170.1,102.06,170.1,442.25,Single-ply,SBD,M
Boys,99.79,17,Tyler Gibson,Midlothian,90.95,149.69,106.59,183.7,439.98,Single-ply,SBD,M
Boys,109.77,1,Adam Arredondo,Waxahachie,105.91,272.16,154.22,233.6,659.98,Single-ply,SBD,M
Boys,109.77,2,Michael Clift,Venus,100.47,260.82,161.03,208.65,630.49,Single-ply,SBD,M
Boys,109.77,3,Chase Dennis,Keller Timber Creek,103.87,272.16,138.35,204.12,614.62,Single-ply,SBD,M
Boys,109.77,4,Tc Quintana,Burleson Centennial,104.78,219.99,131.54,226.8,578.33,Single-ply,SBD,M
Boys,124.74,5,Shannon Simpson,Lancaster,110,238.14,120.2,208.65,566.99,Single-ply,SBD,M
Boys,109.77,6,Taner Renfro,Quinlan Ford,100.92,226.8,124.74,204.12,555.65,Single-ply,SBD,M
Boys,109.77,7,Javier Alva,Fort Worth North Side,105.01,235.87,111.13,208.65,555.65,Single-ply,SBD,M
Boys,109.77,8,Kimbal Roca,Venus,107.5,208.65,122.47,181.44,512.56,Single-ply,SBD,M
Boys,109.77,9,Ryan Brooks,Dallas Jesuit,100.7,213.19,102.06,176.9,492.15,Single-ply,SBD,M
Boys,109.77,10,Sonny Kemp,Midlothian,107.05,181.44,124.74,158.76,464.93,Single-ply,SBD,M
Boys,109.77,11,Thomas O'Toole-Halverson,Plano John Paul II,107.73,183.7,106.59,174.63,464.93,Single-ply,SBD,M
Boys,109.77,DQ,Daniel Kirk,Lancaster,105.23,,,,,Single-ply,SBD,M
Boys,124.74,1,Colton Hostetler,Burleson Centennial,119.52,267.62,163.29,260.82,691.73,Single-ply,SBD,M
Boys,124.74,2,Victor Mejia,Waxahachie,110.45,256.28,142.88,276.69,675.85,Single-ply,SBD,M
Boys,124.74,3,Ivan Garciduenas,Burleson Centennial,118.61,249.48,170.1,231.33,650.91,Single-ply,SBD,M
Boys,124.74,4,Isaiah Suazo,Burleson Centennial,114.76,242.67,129.27,242.67,614.62,Single-ply,SBD,M
Boys,124.74,5,Adrian Zavala,Waxahachie,110.45,217.72,133.81,260.82,612.35,Single-ply,SBD,M
Boys,124.74,6,Hayden Mahone,Ennis,116.8,242.67,124.74,215.46,582.87,Single-ply,SBD,M
Boys,124.74,7,David Allen,Quinlan Ford,122.02,222.26,127.01,219.99,569.26,Single-ply,SBD,M
Boys,124.74,8,Clay Stahl,Plano John Paul II,112.04,204.12,99.79,204.12,508.02,Single-ply,SBD,M
Boys,124.74,9,Brian Taylor,Lancaster,112.04,165.56,124.74,192.78,483.08,Single-ply,SBD,M
Boys,124.74,10,Damian Torres,Cedar Hill,115.89,215.46,83.91,170.1,469.47,Single-ply,SBD,M
Boys,124.74,11,Justin Cook,Lancaster,114.99,179.17,106.59,181.44,467.2,Single-ply,SBD,M
Boys,124.74+,1,Samir Zeqiraj,North Richland Hills Richland,171.46,274.42,208.65,251.74,734.82,Single-ply,SBD,M
Boys,124.74+,2,Abe Rodriquez,Oakridge School,130.41,244.94,88.45,215.46,548.85,Single-ply,SBD,M
Boys,124.74+,3,Drake Powell,Ennis,134.94,201.85,115.67,204.12,521.63,Single-ply,SBD,M
Boys,124.74+,4,Jared Sanderson,Midlothian,143.11,229.06,99.79,192.78,521.63,Single-ply,SBD,M
Boys,124.74+,DQ,Markiest Scott,Lancaster,127.23,,,,,Single-ply,SBD,M
Boys,,NS,Darian Hartman,Waxahachie,,,,,,Single-ply,SBD,M
