Division,WeightClassKg,Place,Name,Team,BodyweightKg,Best3SquatKg,Best3BenchKg,Best3DeadliftKg,TotalKg,Equipment,Event,Sex
Boys,51.71,1,Diego Pena,Roma,51.35,170.1,88.45,170.1,428.64,Single-ply,SBD,M
Boys,55.79,2,Edgar Barbosa,Laredo Cigarroa,51.8,174.63,81.65,142.88,399.16,Single-ply,SBD,M
Boys,55.79,3,Eli Torres,Laredo Nixon,51.85,133.81,72.57,154.22,360.61,Single-ply,SBD,M
Boys,51.71,4,Hector Villegas,Roma,51.71,131.54,65.77,138.35,335.66,Single-ply,SBD,M
Boys,51.71,5,Juan Muniz,Laredo Cigarroa,51.53,104.33,63.5,113.4,281.23,Single-ply,SBD,M
Boys,51.71,6,Chris Marroquin,Hebbronville,47.9,99.79,49.9,120.2,269.89,Single-ply,SBD,M
Boys,59.87,1,Jerry Alaniz,Laredo Alexander,55.97,192.78,117.93,176.9,487.61,Single-ply,SBD,M
Boys,55.79,2,Eric Oliva,Laredo United South,54.25,163.29,90.72,161.03,415.04,Single-ply,SBD,M
Boys,55.79,3,Martin Villarreal,Laredo United South,54.88,149.69,83.91,181.44,415.04,Single-ply,SBD,M
Boys,59.87,4,Randy Castillo,Bruni,55.97,129.27,70.31,149.69,349.27,Single-ply,SBD,M
Boys,67.13,1,David Lopez,Laredo United South,59.96,167.83,111.13,185.97,464.93,Single-ply,SBD,M
Boys,59.87,2,Mario Cantu,Laredo Cigarroa,59.69,170.1,90.72,167.83,428.64,Single-ply,SBD,M
Boys,67.13,3,Ted Crain,Falfurrias,60.06,172.37,74.84,174.63,421.84,Single-ply,SBD,M
Boys,67.13,4,Juan Delgado,Roma,60.06,161.03,88.45,165.56,415.04,Single-ply,SBD,M
Boys,59.87,5,Rudy Martinez,Carrizo Springs,59.78,133.81,83.91,172.37,390.09,Single-ply,SBD,M
Boys,59.87,6,Israel Granados,Laredo Nixon,59.78,133.81,68.04,151.95,353.8,Single-ply,SBD,M
Boys,67.13,7,Joel Lopez,Bruni,60.06,133.81,61.23,154.22,349.27,Single-ply,SBD,M
Boys,59.87,8,Edgar Briones,Laredo Nixon,59.87,117.93,,,117.93,Single-ply,S,M
Boys,59.87,DQ,Luis Guevara,Laredo Nixon,57.61,,,,,Single-ply,S,M
Boys,59.87,DQ,Luis Mendoza,Laredo Martin,59.87,,,,,Single-ply,S,M
Boys,74.84,1,Ruben Salinas,Roma,67.31,265.35,142.88,222.26,630.49,Single-ply,SBD,M
Boys,74.84,2,Marco Ortiz,Laredo Alexander,67.22,233.6,136.08,204.12,573.79,Single-ply,SBD,M
Boys,74.84,3,Elijio Montalvo,Falfurrias,67.31,204.12,111.13,217.72,532.97,Single-ply,SBD,M
Boys,67.13,4,Jordy Silguero,Hebbronville,65.32,199.58,124.74,201.85,526.17,Single-ply,SBD,M
Boys,67.13,5,Fermin Rendon,Laredo Nixon,66.77,174.63,92.99,197.31,464.93,Single-ply,SBD,M
Boys,67.13,6,Carlos Vedarte,Laredo United South,62.78,181.44,95.25,167.83,444.52,Single-ply,SBD,M
Boys,67.13,7,Xavier Delgado,Zapata,66.68,170.1,92.99,154.22,417.3,Single-ply,SBD,M
Boys,74.84,8,Jose Mosqueda,Laredo Cigarroa,67.31,147.42,77.11,181.44,405.97,Single-ply,SBD,M
Boys,67.13,9,Everando Guerrero,Hebbronville,66.04,163.29,77.11,163.29,403.7,Single-ply,SBD,M
Boys,67.13,10,Jess Rutledge,Carrizo Springs,61.51,154.22,74.84,167.83,396.89,Single-ply,SBD,M
Boys,67.13,11,Justin Martines,Carrizo Springs,61.23,145.15,86.18,158.76,390.09,Single-ply,SBD,M
Boys,67.13,12,Marcos Casas,Falfurrias,61.78,145.15,79.38,156.49,381.02,Single-ply,SBD,M
Boys,67.13,13,Jose Carrillo,Laredo Johnson,62.51,131.54,86.18,145.15,362.87,Single-ply,SBD,M
Boys,67.13,14,Raul Artolozaga,Laredo Nixon,67.04,131.54,65.77,133.81,331.12,Single-ply,SBD,M
Boys,74.84,15,Alex Rincon,Laredo Nixon,67.31,120.2,68.04,129.27,317.51,Single-ply,SBD,M
Boys,67.13,16,Cesar Alfaro,Laredo United South,62.51,195.04,,,195.04,Single-ply,S,M
Boys,67.13,17,Tadeo Gonzalez,Laredo Nixon,64.59,131.54,,,131.54,Single-ply,S,M
Boys,67.13,DQ,Albert Estrada,Laredo Martin,67.13,,,,,Single-ply,S,M
Boys,67.13,DQ,Jordy Lagrange,Laredo Nixon,62.6,,,,,Single-ply,S,M
Boys,67.13,DQ,Lorenzo Cruz,Carrizo Springs,67.13,,,,,Single-ply,S,M
Boys,74.84,1,Kevin Guerrero,Hebbronville,72.21,226.8,136.08,226.8,589.67,Single-ply,SBD,M
Boys,74.84,2,Edgar Mendiola,Laredo Nixon,74.12,197.31,131.54,217.72,546.58,Single-ply,SBD,M
Boys,74.84,3,Rudy Leon,Laredo United South,74.39,188.24,104.33,224.53,517.1,Single-ply,SBD,M
Boys,74.84,4,Edgar Trejo,Laredo United South,74.48,183.7,102.06,199.58,485.34,Single-ply,SBD,M
Boys,74.84,5,Marcus Cortez,Falfurrias,74.39,170.1,120.2,192.78,483.08,Single-ply,SBD,M
Boys,74.84,6,John Trevino,Hebbronville,73.3,167.83,102.06,199.58,469.47,Single-ply,SBD,M
Boys,74.84,7,Sergio Garcia,Laredo Nixon,74.84,195.04,92.99,179.17,467.2,Single-ply,SBD,M
Boys,74.84,8,Estevan Alfaro,Bruni,72.3,174.63,86.18,204.12,464.93,Single-ply,SBD,M
Boys,74.84,9,Marco DeLuna,Laredo United South,74.75,167.83,102.06,183.7,453.59,Single-ply,SBD,M
Boys,82.1,10,Horacio Herrera,Laredo Cigarroa,74.93,156.49,102.06,190.51,449.06,Single-ply,SBD,M
Boys,74.84,11,Anthony Garza,Falfurrias,72.39,142.88,90.72,190.51,424.11,Single-ply,SBD,M
Boys,74.84,12,Andrew Esquivel,Carrizo Springs,68.58,156.49,92.99,167.83,417.3,Single-ply,SBD,M
Boys,74.84,13,Javier Botello,Laredo Nixon,74.21,111.13,79.38,154.22,344.73,Single-ply,SBD,M
Boys,74.84,14,Felipe Hernández,Laredo United,73.48,195.04,117.93,,312.98,Single-ply,SB,M
Boys,74.84,DQ,Eloy Guerrero,Roma,74.84,,,,,Single-ply,SB,M
Boys,74.84,DQ,Raul Garcia,Carrizo Springs,74.84,,,,,Single-ply,SB,M
Boys,74.84,DQ,Edin Martinez,Carrizo Springs,74.84,,,,,Single-ply,SB,M
Boys,74.84,DQ,Javier Martinez,Laredo Alexander,74.39,,,,,Single-ply,SB,M
Boys,74.84,DQ,David Reyes,Laredo Martin,74.84,,,,,Single-ply,SB,M
Boys,74.84,DQ,Armando Mendiola,Laredo Johnson,74.84,,,,,Single-ply,SB,M
Boys,74.84,DQ,Aaron Hunter,Bruni,73.94,,,,,Single-ply,SB,M
Boys,82.1,1,Jose de la Rosa,Roma,81.1,235.87,133.81,229.06,598.74,Single-ply,SBD,M
Boys,89.81,2,Rene Saenz,Hebbronville,82.33,235.87,113.4,195.04,544.31,Single-ply,SBD,M
Boys,82.1,3,Carlos Martinez,Laredo Alexander,80.47,201.85,124.74,201.85,528.44,Single-ply,SBD,M
Boys,82.1,4,Dylan Vasquez,Falfurrias,77.56,190.51,102.06,199.58,492.15,Single-ply,SBD,M
Boys,82.1,5,Daniel Briones,Laredo United South,81.74,181.44,111.13,190.51,483.08,Single-ply,SBD,M
Boys,82.1,6,Adrian Munoz,Laredo Martin,80.92,170.1,104.33,199.58,474,Single-ply,SBD,M
Boys,82.1,7,Frank Garcia,Laredo Martin,81.37,179.17,86.18,183.7,449.06,Single-ply,SBD,M
Boys,82.1,8,Cesar Segeda,Laredo Johnson,79.56,172.37,99.79,172.37,444.52,Single-ply,SBD,M
Boys,82.1,9,Randall Hinojosa,Laredo Alexander,78.38,165.56,102.06,163.29,430.91,Single-ply,SBD,M
Boys,82.1,10,Jaime Hinojosa,Laredo Alexander,76.66,172.37,81.65,167.83,421.84,Single-ply,SBD,M
Boys,82.1,11,Randy Aguilar,Laredo Johnson,80.83,136.08,74.84,158.76,369.68,Single-ply,SBD,M
Boys,82.1,12,Alexis Ortiz,Laredo Johnson,76.66,95.25,74.84,158.76,328.85,Single-ply,SBD,M
Boys,82.1,13,Juan Guerra,Laredo Nixon,77.93,163.29,106.59,,269.89,Single-ply,SB,M
Boys,82.1,14,Joel Elizondo,Zapata,78.65,206.38,,,206.38,Single-ply,S,M
Boys,82.1,15,Victor Ramos,Laredo United South,80.83,197.31,,,197.31,Single-ply,S,M
Boys,82.1,16,Alex Garza,Laredo Nixon,77.02,113.4,,,113.4,Single-ply,S,M
Boys,82.1,DQ,Benito Orozco,Laredo Martin,82.1,,,,,Single-ply,S,M
Boys,89.81,1,Jose Jr Vela,Falfurrias,89.63,263.08,113.4,226.8,603.28,Single-ply,SBD,M
Boys,89.81,2,Alfredo Ibarra,Laredo United,86.36,233.6,108.86,192.78,535.24,Single-ply,SBD,M
Boys,89.81,3,Ac Martinez,Laredo United,84.19,233.6,95.25,201.85,530.7,Single-ply,SBD,M
Boys,89.81,4,Carlos Munoz,Laredo Nixon,88.9,197.31,97.52,231.33,526.17,Single-ply,SBD,M
Boys,99.79,5,Esteban Arredondo,Hebbronville,89.99,181.44,124.74,213.19,519.36,Single-ply,SBD,M
Boys,89.81,6,Mike DeLeon,Falfurrias,87.18,181.44,111.13,183.7,476.27,Single-ply,SBD,M
Boys,89.81,7,Diego Chapa,Laredo Cigarroa,83.46,181.44,95.25,192.78,469.47,Single-ply,SBD,M
Boys,89.81,8,David Galvan,Laredo Cigarroa,85,170.1,92.99,201.85,464.93,Single-ply,SBD,M
Boys,89.81,9,Daniel Barrera,Hebbronville,86.36,170.1,117.93,165.56,453.59,Single-ply,SBD,M
Boys,89.81,10,Nicolas Madrigal,Laredo Johnson,87.27,138.35,97.52,154.22,390.09,Single-ply,SBD,M
Boys,89.81,DQ,Eugenio Perez,Laredo Alexander,89.36,,,,,Single-ply,SBD,M
Boys,89.81,DQ,Juan Gomez,Hebbronville,89.81,,,,,Single-ply,SBD,M
Boys,89.81,DQ,Johnny Bermea,Carrizo Springs,89.81,,,,,Single-ply,SBD,M
Boys,89.81,DQ,Florencio Palmerin,Laredo Nixon,89.36,,,,,Single-ply,SBD,M
Boys,99.79,1,Jose Coreas,Laredo Cigarroa,93.89,263.08,127.01,231.33,621.42,Single-ply,SBD,M
Boys,99.79,2,Erick Fernandez,Laredo Nixon,97.43,226.8,142.88,224.53,594.21,Single-ply,SBD,M
Boys,99.79,3,Heriberto Canales,Hebbronville,98.16,238.14,117.93,219.99,576.06,Single-ply,SBD,M
Boys,99.79,4,Edgar Martinez,Laredo United South,99.79,226.8,124.74,204.12,555.65,Single-ply,SBD,M
Boys,99.79,5,Jorge Martinez,Laredo United,99.79,195.04,122.47,181.44,498.95,Single-ply,SBD,M
Boys,99.79,6,Juan Jasso,Zapata,98.79,190.51,104.33,195.04,489.88,Single-ply,SBD,M
Boys,99.79,7,Rogelio Rodriguez,Zapata,96.39,195.04,102.06,188.24,485.34,Single-ply,SBD,M
Boys,99.79,8,Andrew Estrada,Carrizo Springs,99.25,167.83,83.91,156.49,408.23,Single-ply,SBD,M
Boys,99.79,9,Alex Perez,Laredo United,94.44,127.01,102.06,151.95,381.02,Single-ply,SBD,M
Boys,99.79,DQ,Mark Duron,Laredo Martin,99.79,,,,,Single-ply,SBD,M
Boys,99.79,DQ,Max Flores,Laredo Alexander,99.34,,,,,Single-ply,SBD,M
Boys,109.77,1,Victor Martinez,Laredo Martin,109.04,281.23,172.37,217.72,671.32,Single-ply,SBD,M
Boys,109.77,2,Ricky Martinez,Laredo United,106.23,265.35,136.08,195.04,596.47,Single-ply,SBD,M
Boys,109.77,3,Jorge Gutierrez,Zapata,109.13,219.99,142.88,217.72,580.6,Single-ply,SBD,M
Boys,109.77,4,Rolando Garza,Hebbronville,107.77,210.92,120.2,222.26,553.38,Single-ply,SBD,M
Boys,109.77,5,Christian Rosas,Laredo Alexander,103.69,208.65,129.27,201.85,539.77,Single-ply,SBD,M
Boys,109.77,6,Paul Gonzalez,Laredo United South,102.06,188.24,131.54,195.04,514.83,Single-ply,SBD,M
Boys,109.77,7,Justin Hernandez,Laredo Nixon,108.41,208.65,106.59,195.04,510.29,Single-ply,SBD,M
Boys,109.77,8,Orlando Rodriguez,Laredo Cigarroa,102.24,195.04,99.79,190.51,485.34,Single-ply,SBD,M
Boys,109.77,9,Julio Fuentes,Carrizo Springs,107.05,167.83,108.86,183.7,460.4,Single-ply,SBD,M
Boys,109.77,10,Victor Nenque,Laredo Nixon,104.87,183.7,102.06,167.83,453.59,Single-ply,SBD,M
Boys,109.77,11,Ricky Arambula,Carrizo Springs,106.59,142.88,108.86,142.88,394.63,Single-ply,SBD,M
Boys,109.77,12,Miguel Davila,Falfurrias,102.78,136.08,88.45,140.61,365.14,Single-ply,SBD,M
Boys,109.77,13,Isidro Ayala,Laredo Johnson,105.41,127.01,72.57,145.15,344.73,Single-ply,SBD,M
Boys,124.74,1,Frank Villarreal,Laredo Martin,112.22,278.96,147.42,213.19,639.57,Single-ply,SBD,M
Boys,124.74,2,Arturo Velasquez,Roma,117.57,272.16,147.42,204.12,623.69,Single-ply,SBD,M
Boys,124.74,3,Francisco Moreno,Zapata,113.31,265.35,108.86,238.14,612.35,Single-ply,SBD,M
Boys,124.74,4,Jaime Cardona,Laredo Nixon,116.48,217.72,117.93,192.78,528.44,Single-ply,SBD,M
Boys,124.74,5,Gilbert Hernandez,Laredo Cigarroa,118.84,195.04,111.13,192.78,498.95,Single-ply,SBD,M
Boys,124.74,6,Xavier Rangel,Laredo Nixon,115.48,181.44,104.33,172.37,458.13,Single-ply,SBD,M
Boys,124.74,7,Sebastian Bentancourt,Hebbronville,110.68,188.24,108.86,154.22,451.32,Single-ply,SBD,M
Boys,124.74,8,Jesus Vasquez,Laredo Johnson,122.11,158.76,86.18,172.37,417.3,Single-ply,SBD,M
Boys,124.74,9,Manuel Navarro,Zapata,122.83,204.12,120.2,,324.32,Single-ply,SB,M
Boys,124.74,10,Eliseo Bernal,Laredo Johnson,113.31,154.22,104.33,,258.55,Single-ply,SB,M
Boys,124.74,DQ,Eliud Aguero,Laredo Alexander,124.28,,,,,Single-ply,SB,M
Boys,124.74,DQ,Ovidio Hernandez,Roma,124.28,,,,,Single-ply,SB,M
Boys,124.74+,1,Jose Flores,Laredo Cigarroa,145.06,301.64,147.42,231.33,680.39,Single-ply,SBD,M
Boys,124.74+,2,JR Sandoval,Laredo United,150.23,288.03,106.59,210.92,605.55,Single-ply,SBD,M
Boys,124.74+,3,Jose Gonzalez,Roma,148.05,229.06,149.69,217.72,596.47,Single-ply,SBD,M
Boys,124.74+,4,Fred Romo,Laredo Alexander,137.17,217.72,127.01,217.72,562.45,Single-ply,SBD,M
Boys,124.74+,5,Jj Moreno,Roma,127.46,208.65,127.01,190.51,526.17,Single-ply,SBD,M
Boys,124.74+,6,Cam Menchaca,Falfurrias,147.69,104.33,61.23,136.08,301.64,Single-ply,SBD,M
Boys,124.74+,DQ,Eduardo Garza,Laredo Johnson,125.65,,,,,Single-ply,SBD,M
Boys,124.74+,DQ,Sammy Alarcon,Laredo Johnson,125.19,,,,,Single-ply,SBD,M
Boys,124.74+,DQ,Jesus Ortiz,Laredo Nixon,135.17,,,,,Single-ply,SBD,M
Boys,124.74+,DQ,Leo Espinoza,Laredo Martin,125.19,,,,,Single-ply,SBD,M
