Division,WeightClassKg,Place,Name,Team,BodyweightKg,Best3SquatKg,Best3BenchKg,Best3DeadliftKg,TotalKg,Equipment,Event,Sex
Boys,51.71,1,Morgan Rhew,Sunnyvale,50.71,86.18,52.16,108.86,247.21,Single-ply,SBD,M
Boys,55.79,2,Carl Shehane,Quinlan Ford,51.8,97.52,49.9,99.79,247.21,Single-ply,SBD,M
Boys,51.71,3,Austen Siscoe,Commerce,51.44,95.25,49.9,92.99,238.14,Single-ply,SBD,M
Boys,55.79,1,Ethan Hill,Cumby,54.43,92.99,47.63,90.72,231.33,Single-ply,SBD,M
Boys,55.79,2,Jesse Ortiz,Quinlan Ford,53.89,58.97,34.02,83.91,176.9,Single-ply,SBD,M
Boys,55.79,DQ,Luis Martinez,Commerce,55.29,127.01,,,,Single-ply,SBD,M
Boys,59.87,1,Christian Morales,Commerce,59.51,133.81,70.31,163.29,367.41,Single-ply,SBD,M
Boys,59.87,2,Gilbert Garcia,Longview Spring Hill,57.79,140.61,81.65,142.88,365.14,Single-ply,SBD,M
Boys,59.87,3,Wrangler Welch,Quinlan Ford,59.87,136.08,68.04,161.03,365.14,Single-ply,SBD,M
Boys,59.87,4,Scott Dudley,Paris,59.87,138.35,74.84,147.42,360.61,Single-ply,SBD,M
Boys,67.13,5,Brayden Lopez,Commerce,60.1,136.08,74.84,142.88,353.8,Single-ply,SBD,M
Boys,59.87,6,Travius Brenner,Paris,58.69,113.4,68.04,122.47,303.91,Single-ply,SBD,M
Boys,74.84,1,X-Zavius Gray,Paris,67.22,208.65,108.86,204.12,521.63,Single-ply,SBD,M
Boys,67.13,2,Sean Pobst,Quinlan Ford,66.77,185.97,104.33,208.65,498.95,Single-ply,SBD,M
Boys,74.84,3,Logan Johnson,Lone Oak,67.22,165.56,104.33,204.12,474,Single-ply,SBD,M
Boys,67.13,4,Matt Rumbaugh,Commerce,64.27,195.04,90.72,183.7,469.47,Single-ply,SBD,M
Boys,67.13,5,Kearrius Ladell,Paris,65.41,170.1,86.18,156.49,412.77,Single-ply,SBD,M
Boys,67.13,6,Hunter Leftwich,Caddo Mills,66.41,149.69,83.91,167.83,401.43,Single-ply,SBD,M
Boys,67.13,7,Jackson Smith,Commerce,65.27,151.95,65.77,151.95,369.68,Single-ply,SBD,M
Boys,74.84,8,Tavon Gray,Paris,67.36,124.74,81.65,142.88,349.27,Single-ply,SBD,M
Boys,67.13,9,Garrett Daniels,Grand Saline,63.41,122.47,63.5,117.93,303.91,Single-ply,SBD,M
Boys,67.13,DQ,Clay Moats,Lone Oak,64.32,172.37,,,,Single-ply,SBD,M
Boys,74.84,1,Blaine Jarratt,Caddo Mills,73.66,197.31,111.13,215.46,523.9,Single-ply,SBD,M
Boys,74.84,2,Eric Shaw,Lone Oak,74.12,190.51,129.27,181.44,501.22,Single-ply,SBD,M
Boys,74.84,3,Jonathan Ennin,Sunnyvale,73.03,181.44,102.06,201.85,485.34,Single-ply,SBD,M
Boys,74.84,4,Charles Willman,Quinlan Ford,73.84,179.17,124.74,176.9,480.81,Single-ply,SBD,M
Boys,82.1,5,Calvin Olsen,Quinlan Ford,75.02,192.78,90.72,183.7,467.2,Single-ply,SBD,M
Boys,74.84,6,Darrien Redd,Commerce,73.12,181.44,92.99,190.51,464.93,Single-ply,SBD,M
Boys,74.84,7,Christian Johnson,Longview Spring Hill,70.85,183.7,97.52,174.63,455.86,Single-ply,SBD,M
Boys,74.84,8,Cody Williams,Lone Oak,71.03,161.03,90.72,174.63,426.38,Single-ply,SBD,M
Boys,74.84,9,Nick Butler,Caddo Mills,70.85,138.35,83.91,165.56,387.82,Single-ply,SBD,M
Boys,82.1,10,Donavon Williams,Paris,75.02,149.69,74.84,145.15,369.68,Single-ply,SBD,M
Boys,74.84,11,Noah Tipton,Longview Spring Hill,74.03,131.54,72.57,151.95,356.07,Single-ply,SBD,M
Boys,74.84,DQ,Matt Lutz,Lone Oak,71.49,161.03,,,,Single-ply,SBD,M
Boys,82.1,1,Garrett Ferguson,Sunnyvale,80.6,208.65,127.01,219.99,555.65,Single-ply,SBD,M
Boys,82.1,2,Cody Coldwell,Sunnyvale,75.84,229.06,108.86,206.38,544.31,Single-ply,SBD,M
Boys,82.1,3,Devin Shaw,Lone Oak,78.38,199.58,122.47,199.58,521.63,Single-ply,SBD,M
Boys,82.1,4,Clayton Florio,Caddo Mills,81.6,204.12,113.4,204.12,521.63,Single-ply,SBD,M
Boys,82.1,5,Michael Champion,Commerce,82.1,226.8,90.72,170.1,487.61,Single-ply,SBD,M
Boys,82.1,6,Joel Ennin,Sunnyvale,79.74,174.63,99.79,204.12,478.54,Single-ply,SBD,M
Boys,89.81,7,Galand Parker,Quinlan Ford,82.28,188.24,102.06,181.44,471.74,Single-ply,SBD,M
Boys,82.1,8,Justin Simmons,Grand Saline,80.38,174.63,83.91,192.78,451.32,Single-ply,SBD,M
Boys,82.1,9,Derek Mayhugh,Grand Saline,81.92,170.1,90.72,172.37,433.18,Single-ply,SBD,M
Boys,82.1,10,Cash Nations,Grand Saline,80.38,142.88,90.72,151.95,385.55,Single-ply,SBD,M
Boys,82.1,11,Hayden Harrison,Quinlan Ford,80.1,83.91,,,83.91,Single-ply,S,M
Boys,89.81,1,Brandon Melton,Quinlan Ford,89.09,240.4,113.4,204.12,557.92,Single-ply,SBD,M
Boys,99.79,2,José Castillo,Sunnyvale,89.99,192.78,97.52,215.46,505.76,Single-ply,SBD,M
Boys,89.81,3,Tony Ramirez,Commerce,87.23,188.24,102.06,199.58,489.88,Single-ply,SBD,M
Boys,89.81,4,Jake Williams,Lone Oak,83.19,170.1,120.2,197.31,487.61,Single-ply,SBD,M
Boys,89.81,5,Caleb Schwoyer,Longview Spring Hill,86.91,136.08,104.33,158.76,399.16,Single-ply,SBD,M
Boys,89.81,6,Caleb Freeman,Longview Spring Hill,86.36,120.2,56.7,140.61,317.51,Single-ply,SBD,M
Boys,89.81,7,Marco Reyes,Quinlan Ford,86.55,120.2,63.5,131.54,315.25,Single-ply,SBD,M
Boys,89.81,8,Darren Mitchell,Paris,85.28,113.4,63.5,133.81,310.71,Single-ply,SBD,M
Boys,89.81,9,William Cotton,Quinlan Ford,87.45,83.91,58.97,124.74,267.62,Single-ply,SBD,M
Boys,89.81,DQ,Jace Jarvis,Caddo Mills,84.46,,,,,Single-ply,SBD,M
Boys,99.79,1,Taner Renfro,Quinlan Ford,99.34,283.5,142.88,235.87,662.24,Single-ply,SBD,M
Boys,99.79,2,Kendall Alexander,Paris,94.53,238.14,127.01,222.26,587.4,Single-ply,SBD,M
Boys,99.79,3,Cody Anderson,Cumby,93.62,247.21,120.2,208.65,576.06,Single-ply,SBD,M
Boys,99.79,4,Carter Shelton,Longview Spring Hill,97.25,192.78,113.4,199.58,505.76,Single-ply,SBD,M
Boys,99.79,5,Justus Seiber,Lone Oak,98.79,199.58,108.86,185.97,494.42,Single-ply,SBD,M
Boys,99.79,6,Darrius Samuels,Paris,95.62,165.56,113.4,176.9,455.86,Single-ply,SBD,M
Boys,99.79,7,Jake Mulkey,Longview Spring Hill,90.17,127.01,72.57,127.01,326.59,Single-ply,SBD,M
Boys,99.79,DQ,Sammy Palma,Grand Saline,99.61,199.58,120.2,217.72,,Single-ply,SBD,M
Boys,109.77,1,Dennis Coleman,Paris,109.32,249.48,140.61,238.14,628.23,Single-ply,SBD,M
Boys,109.77,2,Bryton Jimenez,Lone Oak,106.23,231.33,117.93,199.58,548.85,Single-ply,SBD,M
Boys,109.77,3,Roland Stevens,Grand Saline,107.23,219.99,115.67,185.97,521.63,Single-ply,SBD,M
Boys,109.77,4,Jansen Smith,Quinlan Ford,102.78,151.95,102.06,172.37,426.38,Single-ply,SBD,M
Boys,109.77,5,Nick Handy,Commerce,108.09,179.17,61.23,183.7,424.11,Single-ply,SBD,M
Boys,109.77,6,Richard Gallegos,Longview Spring Hill,109.23,204.12,111.13,,315.25,Single-ply,SB,M
Boys,109.77,DQ,Matt Coker,Caddo Mills,108.95,,,,,Single-ply,SB,M
Boys,124.74,1,Chris Figueroa,Grand Saline,112.85,235.87,120.2,231.33,587.4,Single-ply,SBD,M
Boys,124.74,2,Fili Rincon,Lone Oak,111.13,240.4,124.74,215.46,580.6,Single-ply,SBD,M
Boys,124.74,3,Hunter Hicks,Longview Spring Hill,121.83,240.4,129.27,195.04,564.72,Single-ply,SBD,M
Boys,124.74,4,Peter Kleinmeir,Caddo Mills,114.4,210.92,120.2,226.8,557.92,Single-ply,SBD,M
Boys,124.74,5,Dakota Helm,Paris,115.21,210.92,117.93,226.8,555.65,Single-ply,SBD,M
Boys,124.74,6,Javier Utrera,Quinlan Ford,110.59,226.8,127.01,181.44,535.24,Single-ply,SBD,M
Boys,124.74,7,Byron Muse,Paris,118.75,206.38,129.27,183.7,519.36,Single-ply,SBD,M
Boys,124.74,8,Jiovanny Rubio,Sunnyvale,122.65,204.12,120.2,195.04,519.36,Single-ply,SBD,M
Boys,124.74,9,Preston Burke,Sunnyvale,123.38,163.29,106.59,192.78,462.66,Single-ply,SBD,M
Boys,124.74,10,Brendon Isham,Longview Spring Hill,116.21,181.44,104.33,174.63,460.4,Single-ply,SBD,M
Boys,124.74,11,Jacob Pulley,Caddo Mills,121.65,151.95,83.91,170.1,405.97,Single-ply,SBD,M
Boys,124.74,12,Taylon Jackson,Commerce,116.62,158.76,79.38,142.88,381.02,Single-ply,SBD,M
Boys,124.74,13,Jacob Bacook,Grand Saline,114.21,140.61,79.38,149.69,369.68,Single-ply,SBD,M
Boys,124.74+,1,Wade Cookston,Sunnyvale,139.25,294.84,190.51,272.16,757.5,Single-ply,SBD,M
Boys,124.74+,2,Qurdale Huff,Paris,173.91,272.16,161.03,238.14,671.32,Single-ply,SBD,M
Boys,124.74+,3,Colton Chandler,Longview Spring Hill,127.73,192.78,115.67,192.78,501.22,Single-ply,SBD,M
Boys,124.74+,4,Jim Threet,Sunnyvale,140.43,149.69,95.25,172.37,417.3,Single-ply,SBD,M
