Division,WeightClassKg,Place,Name,Team,BodyweightKg,Best3SquatKg,Best3BenchKg,Best3DeadliftKg,TotalKg,Equipment,Event,Sex
Girls,44.23,1,Hope Brekel,Nederland,44.23,117.93,52.16,117.93,288.03,Single-ply,SBD,F
Girls,44.23,2,Hannah Alexander,Lumberton,44.23,92.99,58.97,102.06,254.01,Single-ply,SBD,F
Girls,44.23,3,Caitlyn Blackwell,Nederland,44.23,77.11,29.48,79.38,185.97,Single-ply,SBD,F
Girls,47.85,1,Karli Brewer,Nederland,47.81,117.93,52.16,129.27,299.37,Single-ply,SBD,F
Girls,47.85,2,Hayley Kinard,Vidor,47.17,122.47,52.16,113.4,288.03,Single-ply,SBD,F
Girls,47.85,3,Hailey Alexander,Lumberton,47.63,106.59,63.5,115.67,285.76,Single-ply,SBD,F
Girls,47.85,4,Shania Dies,Bridge City,45.04,104.33,40.82,108.86,254.01,Single-ply,SBD,F
Girls,47.85,5,Hallie Cappel,Nederland,46.58,88.45,45.36,92.99,226.8,Single-ply,SBD,F
Girls,47.85,6,Gracie Martin,Bridge City,47.63,65.77,29.48,61.23,156.49,Single-ply,SBD,F
Girls,51.94,1,Catarina Tran,Nederland,51.57,131.54,54.43,122.47,308.44,Single-ply,SBD,F
Girls,56.02,1,Isabella Barragan,Nederland,55.75,104.33,58.97,122.47,285.76,Single-ply,SBD,F
Girls,56.02,2,Devin Gould,Vidor,55.97,90.72,45.36,97.52,233.6,Single-ply,SBD,F
Girls,60.1,1,Jenna Hoffman,Vidor,59.19,142.88,68.04,149.69,360.61,Single-ply,SBD,F
Girls,60.1,2,Marisa Licatino,Nederland,56.47,113.4,56.7,113.4,283.5,Single-ply,SBD,F
Girls,60.1,3,Sadie Stone,Bridge City,56.25,90.72,45.36,102.06,238.14,Single-ply,SBD,F
Girls,60.1,4,Vivian Hughes,Nederland,58.51,72.57,47.63,95.25,215.46,Single-ply,SBD,F
Girls,67.36,1,Hannah Goode,Nederland,64.41,131.54,56.7,108.86,297.1,Single-ply,SBD,F
Girls,67.36,2,Jayden Shay,Nederland,61.82,81.65,45.36,129.27,256.28,Single-ply,SBD,F
Girls,67.36,3,Cassandra Collazo,Bridge City,61.01,97.52,40.82,88.45,226.8,Single-ply,SBD,F
Girls,67.36,4,Jadyn Cunningham,Bridge City,60.55,86.18,40.82,90.72,217.72,Single-ply,SBD,F
Girls,67.36,5,Hannah Kincannon,Bridge City,61.92,70.31,47.63,81.65,199.58,Single-ply,SBD,F
Girls,67.36,6,Nicole Hamilton,Vidor,63.28,81.65,38.56,70.31,190.51,Single-ply,SBD,F
Girls,75.07,1,Ashley Gonzalez,Lumberton,75.07,149.69,79.38,142.88,371.95,Single-ply,SBD,F
Girls,75.07,2,Ashley Kimey,Nederland,75.07,131.54,47.63,147.42,326.59,Single-ply,SBD,F
Girls,75.07,3,Megan Sheehan,Lumberton,72.35,131.54,58.97,120.2,310.71,Single-ply,SBD,F
Girls,75.07,4,Lacey Pender,Bridge City,68.04,117.93,49.9,122.47,290.3,Single-ply,SBD,F
Girls,75.07,5,Meagan Lafley,Vidor,72.12,92.99,43.09,97.52,233.6,Single-ply,SBD,F
Girls,82.33,1,Carlee Dearing,Bridge City,79.38,136.08,61.23,127.01,324.32,Single-ply,SBD,F
Girls,82.33,2,Skyla Lakey,Vidor,76.88,74.84,38.56,92.99,206.38,Single-ply,SBD,F
Girls,90.04,1,Sam Hargrave,Bridge City,87.77,133.81,68.04,115.67,317.51,Single-ply,SBD,F
Girls,90.04,2,Kimber Ellender,Bridge City,89.22,120.2,49.9,106.59,276.69,Single-ply,SBD,F
Girls,100.02,1,Chloe LeJeune,Bridge City,99.79,122.47,61.23,122.47,306.17,Single-ply,SBD,F
Girls,117.71,1,LaNaysha Boudreaux,Nederland,100.92,113.4,77.11,129.27,319.78,Single-ply,SBD,F
Girls,,NS,Hope Pridgen,Vidor,,,,,,Single-ply,SBD,F
Girls,,NS,Autumn Magnuson,Bridge City,,,,,,Single-ply,SBD,F
Girls,,NS,Megan Wilkinson,Lumberton,,,,,,Single-ply,SBD,F
Girls,,NS,Erin Talley,Lumberton,,,,,,Single-ply,SBD,F
