WeightClassKg,Division,AgeClass,Sex,Name,Best3BenchKg,Best3DeadliftKg,TotalKg,Event,Equipment,Place
48,40-49,,F,James,68.04,,68.04,B,Multi-ply,1
48,O,,F,James,68.04,,68.04,B,Multi-ply,1
56,40-49,,F,Proctor,56.7,,56.7,B,Multi-ply,1
56,O,,F,Proctor,56.7,,56.7,B,Multi-ply,1
60,14-16,,F,Legg,29.48,,29.48,B,Raw,1
82.5+,40-49,,F,Decree,102.06,,102.06,B,Multi-ply,1
36.29,11-13,,M,O'Donnell,29.48,,29.48,B,Raw,1
52,11-13,,M,Hastings,45.36,,45.36,B,Raw,1
60,JR 20-25,20-25,M,Smith,142.88,,142.88,B,Multi-ply,1
60,O,,M,Smith,142.88,,142.88,B,Multi-ply,1
60,40-49,,M,Landess,74.84,,74.84,B,Raw,1
67.5,17-19,,M,Ross,122.47,,122.47,B,Raw,1
67.5,JR 20-25,20-25,M,Greer,158.76,,158.76,B,Multi-ply,1
67.5,JR 20-25,20-25,M,Felicetta,120.2,,120.2,B,Multi-ply,2
67.5,O,,M,Greer,158.76,,158.76,B,Multi-ply,1
67.5,O,,M,Venturella,154.22,,154.22,B,Multi-ply,2
67.5,O,,M,O'Donnell,127.01,,127.01,B,Raw,1
67.5,O,,M,Melrose,106.59,,106.59,B,Raw,2
67.5,40-49,,M,Venturella,154.22,,154.22,B,Multi-ply,1
75,17-19,,M,Wharry,156.49,,156.49,B,Raw,1
75,JR 20-25,20-25,M,Elrod,174.63,,174.63,B,Raw,1
75,O,,M,Elrod,195.04,,195.04,B,Multi-ply,1
75,O,,M,Henderson,163.29,,163.29,B,Multi-ply,2
75,O,,M,Gillum,115.67,,115.67,B,Raw,1
75,O,,M,Legg,102.06,,102.06,B,Raw,2
75,40-49,,M,Henderson,163.29,,163.29,B,Multi-ply,1
75,50-59,,M,Lane,115.67,,115.67,B,Raw,1
75,50-59,,M,Legg,102.06,,102.06,B,Raw,2
75,P/F/M,,M,Legg,102.06,,102.06,B,Raw,1
75,70-79,,M,Fort,81.65,,81.65,B,Multi-ply,1
82.5,O,,M,Ryan,183.71,,183.71,B,Multi-ply,1
82.5,O,,M,Richards,176.9,,176.9,B,Multi-ply,2
82.5,O,,M,Gattinella,154.22,,154.22,B,Multi-ply,3
82.5,SM,,M,Fatta,,,,B,Multi-ply,DQ
82.5,40-49,,M,Richards,176.9,,176.9,B,Multi-ply,1
82.5,40-49,,M,Foltz,124.74,,124.74,B,Multi-ply,2
82.5,50-59,,M,Freeman,145.15,,145.15,B,Raw,1
82.5,60-69,,M,Freed,138.35,,138.35,B,Raw,1
90,17-19,,M,Blackmon,138.35,,138.35,B,Multi-ply,1
90,O,,M,Matta,176.9,,176.9,B,Multi-ply,1
90,O,,M,Weber,167.83,,167.83,B,Raw,1
90,50-59,,M,Makofsky,142.88,,142.88,B,Raw,1
90,50-59,,M,Smith,117.93,,117.93,B,Raw,2
90,50-59,,M,Cinelli,115.67,,115.67,B,Raw,3
90,50-59,,M,Buckbee,140.61,,140.61,B,Multi-ply,1
90,60-69,,M,Miozza,108.86,,108.86,B,Multi-ply,1
100,17-19,,M,Jones,133.81,,133.81,B,Raw,1
100,JR 20-25,20-25,M,Wallace,206.38,,206.38,B,Raw,1
100,JR 20-25,20-25,M,Copenhaver,188.24,,188.24,B,Multi-ply,1
100,O,,M,Wllace,206.38,,206.38,B,Raw,1
100,O,,M,Barrett,254.01,,254.01,B,Multi-ply,1
100,O,,M,Wondra,161.03,,161.03,B,Multi-ply,2
100,SM,,M,Barrett,254.01,,254.01,B,Multi-ply,1
100,40-49,,M,Wondra,161.03,,161.03,B,Multi-ply,1
100,50-59,,M,Cote,190.51,,190.51,B,Multi-ply,1
100,50-59,,M,Caterisano,167.83,,167.83,B,Multi-ply,2
100,70-79,,M,McGuire,120.2,,120.2,B,Multi-ply,1
110,O,,M,Feehan,256.28,,256.28,B,Multi-ply,1
110,O,,M,Nick Maltezos,204.12,,204.12,B,Multi-ply,2
110,O,,M,Defalco,,,,B,Multi-ply,DQ
110,O,,M,Federowicz,174.63,,174.63,B,Raw,1
110,O,,M,Hicks,138.35,,138.35,B,Raw,2
110,SM,,M,Feehan,256.28,,256.28,B,Multi-ply,1
110,40-49,,M,Massaro,167.83,,167.83,B,Raw,1
110,40-49,,M,Hicks,138.35,,138.35,B,Raw,2
110,50-59,,M,Brown,192.78,,192.78,B,Multi-ply,1
110,50-59,,M,Glenney,183.71,,183.71,B,Multi-ply,2
110,70-79,,M,Romero,102.06,,102.06,B,Multi-ply,1
125,JR 20-25,20-25,M,White,242.67,,242.67,B,Raw,1
125,JR 20-25,20-25,M,White,267.62,,267.62,B,Multi-ply,1
125,JR 20-25,20-25,M,Kalfrin,183.71,,183.71,B,Multi-ply,2
125,O,,M,White,242.67,,242.67,B,Raw,1
125,O,,M,Raynor,226.8,,226.8,B,Raw,2
125,O,,M,Ramos,181.44,,181.44,B,Raw,3
125,O,,M,Belle,149.69,,149.69,B,Raw,4
125,O,,M,White,267.62,,267.62,B,Multi-ply,1
125,O,,M,Keaser,219.99,,219.99,B,Multi-ply,2
125,40-49,,M,Kleinsmith,231.33,,231.33,B,Multi-ply,1
125+,O,,M,Lattimer,272.16,,272.16,B,Multi-ply,1
125+,O,,M,Sanders,229.06,,229.06,B,Multi-ply,2
125+,O,,M,Martin,213.19,,213.19,B,Multi-ply,3
125+,O,,M,D. Ferguson,233.6,,233.6,B,Raw,1
125+,O,,M,W. Ferguson,163.29,,163.29,B,Raw,2
125+,SM,,M,D. Ferguson,233.6,,233.6,B,Raw,1
125+,SM,,M,Lopez,226.8,,226.8,B,Multi-ply,1
125+,SM,,M,Rogers,199.58,,199.58,B,Multi-ply,2
125+,40-49,,M,Semmon,213.19,,213.19,B,Multi-ply,1
125+,40-49,,M,Ramey,174.63,,174.63,B,Raw,1
125+,40-49,,M,Ferguson,163.29,,163.29,B,Raw,2
125+,50-59,,M,O'Brien,151.95,,151.95,B,Multi-ply,1
125+,50-59,,M,Schoelkoph,149.69,,149.69,B,Multi-ply,2
125+,50-59,,M,O'Brien,129.27,,129.27,B,Raw,1
125+,P/F/M,,M,Lopez,226.8,,226.8,B,Multi-ply,1
56,O,,F,Torres,,140.61,140.61,D,Raw,1
60,14-16,,F,Legg,,61.24,61.24,D,Raw,2
52,11-13,,M,Hastings,,102.06,102.06,D,Raw,2
60,40-49,,M,Landess,,149.69,149.69,D,Raw,2
67.5,JR 20-25,20-25,M,Penn,,197.31,197.31,D,Multi-ply,1
67.5,O,,M,Melrose,,136.08,136.08,D,Raw,1
67.5,50-59,,M,Hoxworth,,219.99,219.99,D,Raw,1
75,JR 20-25,20-25,M,Albert,,238.14,238.14,D,Raw,2
75,50-59,,M,Legg,,161.03,161.03,D,Raw,3
75,50-59,,M,Lane,,149.69,149.69,D,Raw,4
82.5,O,,M,Rock,,244.94,244.94,D,Raw,2
82.5,O,,M,Neiman,,251.74,251.74,D,Multi-ply,3
82.5,O,,M,Zimmerman,,208.65,208.65,D,Multi-ply,4
82.5,O,,M,Gattinella,,190.51,190.51,D,Multi-ply,5
82.5,O,,M,Tom Eiseman,,,,D,Multi-ply,DQ
82.5,40-49,,M,Andy Skinner,,240.4,240.4,D,Multi-ply,1
82.5,40-49,,M,Foltz,,181.44,181.44,D,Multi-ply,2
82.5,P/F/M,,M,Andy Skinner,,240.4,240.4,D,Multi-ply,1
90,17-19,,M,Blackmon,,206.38,206.38,D,Multi-ply,2
90,O,,M,Clark,,249.48,249.48,D,Raw,1
90,SM,,M,Gillette,,188.24,188.24,D,Multi-ply,1
90,40-49,,M,Christini,,204.12,204.12,D,Multi-ply,2
90,50-59,,M,Smith,,249.48,249.48,D,Raw,3
90,70-79,,M,Burt Rosenfield,,190.51,190.51,D,Multi-ply,1
100,17-19,,M,Stanislaw,,235.87,235.87,D,Multi-ply,3
100,17-19,,M,Jones,,265.35,265.35,D,Raw,2
100,O,,M,Little,,249.48,249.48,D,Multi-ply,3
100,O,,M,Wondra,,215.46,215.46,D,Multi-ply,4
100,40-49,,M,Wondra,,215.46,215.46,D,Multi-ply,2
100,50-59,,M,Caterisano,,204.12,204.12,D,Raw,1
100,80-89,,M,Eberhardinger,,90.72,90.72,D,Raw,1
110,O,,M,Cooper-Bl,,324.32,324.32,D,Raw,1
110,O,,M,Punday,,238.14,238.14,D,Raw,2
110,SM,,M,Szymanski,,285.76,285.76,D,Multi-ply,1
110,P/F/M,,M,Szymanski,,285.76,285.76,D,Multi-ply,1
125,O,,M,Belle,,206.38,206.38,D,Raw,3
125+,O,,M,Hooley,,272.16,272.16,D,Multi-ply,3
125+,50-59,,M,O'Brien,,208.65,208.65,D,Multi-ply,2
125+,50-59,,M,O'Brien,,170.1,170.1,D,Raw,2
125+,P/F/M,,M,O'Brien,,235.87,235.87,D,Multi-ply,2
48,SM,,F,Kassel,61.24,131.54,192.78,BD,Multi-ply,1
52,14-16,,F,Andiorio,43.09,97.52,140.61,BD,Multi-ply,1
60,14-16,,F,Legg,29.48,61.24,90.72,BD,Raw,1
75,JR 20-25,20-25,F,Kalisz,56.7,122.47,179.17,BD,Multi-ply,1
82.5+,17-19,,F,Carey,99.79,136.08,235.87,BD,Multi-ply,1
52,11-13,,M,Hastings,45.36,102.06,147.42,BD,Raw,1
60,40-49,,M,Landess,74.84,149.69,224.53,BD,Raw,1
67.5,SM,,M,Melrose,106.59,136.08,242.67,BD,Raw,1
75,JR 20-25,20-25,M,Albert,124.74,238.14,362.87,BD,Raw,1
75,40-49,,M,Catrambone,124.74,183.71,308.44,BD,Raw,1
75,50-59,,M,Lane,115.67,149.69,265.35,BD,Raw,1
75,50-59,,M,Legg,102.06,161.03,263.08,BD,Raw,2
82.5,17-19,,M,DeStafano,131.54,249.48,381.02,BD,Raw,1
82.5,O,,M,Rock,151.95,244.94,396.89,BD,Raw,1
82.5,O,,M,Zimmerman,161.03,208.65,369.68,BD,Multi-ply,1
82.5,O,,M,Gattinella,154.22,190.51,344.73,BD,Multi-ply,2
90,17-19,,M,Blackmon,138.35,206.38,344.73,BD,Multi-ply,1
90,O,,M,Rodriguez,199.58,294.84,494.42,BD,Multi-ply,1
90,O,,M,Matta,176.9,208.65,385.55,BD,Multi-ply,2
90,40-49,,M,Pride,129.27,226.8,356.07,BD,Multi-ply,1
90,50-59,,M,Smith,117.93,249.48,367.41,BD,Raw,1
90,50-59,,M,Cinelli,115.67,174.63,290.3,BD,Raw,2
100,17-19,,M,Stanislaw,145.15,235.87,381.02,BD,Multi-ply,1
100,17-19,,M,Mercurio,140.61,188.24,328.85,BD,Multi-ply,2
100,17-19,,M,Jones,133.81,265.35,399.16,BD,Raw,1
100,O,,M,Brice,195.04,251.74,446.79,BD,Multi-ply,1
100,O,,M,Wondra,161.03,215.46,376.48,BD,Multi-ply,2
100,40-49,,M,Wondra,161.03,215.46,376.48,BD,Multi-ply,1
100,50-59,,M,Cote,190.51,226.8,417.31,BD,Multi-ply,1
100,50-59,,M,Caterisano,167.83,204.12,371.95,BD,Multi-ply,2
110,17-19,,M,Puglisi,127.01,242.67,369.68,BD,Multi-ply,1
110,O,,M,Perrotta,188.24,249.48,437.72,BD,Multi-ply,1
125,O,,M,Raynor,226.8,292.57,519.36,BD,Raw,1
125,O,,M,Belle,149.69,206.38,356.07,BD,Raw,2
125,O,,M,Toland,,,,BD,Raw,DQ
125,40-49,,M,Brown,117.93,170.1,288.03,BD,Multi-ply,1
125+,O,,M,Hooley,197.31,272.16,469.47,BD,Multi-ply,1
125+,O,,M,Tolmie,174.63,235.87,410.5,BD,Multi-ply,2
125+,50-59,,M,O'Brien,151.95,208.65,360.61,BD,Multi-ply,1
125+,50-59,,M,O'Brien,129.27,170.1,299.37,BD,Raw,1
125+,P/F/M,,M,Tolmie,174.63,235.87,410.5,BD,Multi-ply,1
