Division,WeightClassKg,Place,Name,Team,BodyweightKg,Best3SquatKg,Best3BenchKg,Best3DeadliftKg,TotalKg,Equipment,Event,Sex
Boys,51.71,1,Uriel Rodriguez,Crawford,50.53,156.49,88.45,165.56,410.5,Single-ply,SBD,M
Boys,51.71,2,Rushi Patel,College Station,50.98,117.93,56.7,117.93,292.57,Single-ply,SBD,M
Boys,51.71,3,Bryan McNeil,Rogers,45,102.06,45.36,113.4,260.82,Single-ply,SBD,M
Boys,51.71,4,Isiah Reza,College Station,48.53,104.33,52.16,102.06,258.55,Single-ply,SBD,M
Boys,51.71,DQ,Joel Bryan,College Station,48.53,,,,,Single-ply,SBD,M
Boys,55.79,1,Cody Villa,Crawford,55.52,167.83,104.33,215.46,487.61,Single-ply,SBD,M
Boys,55.79,2,David Hernandez,Hearne,53.8,129.27,83.91,147.42,360.61,Single-ply,SBD,M
Boys,55.79,3,Josh Burkhalter,Caldwell,55.7,133.81,61.23,138.35,333.39,Single-ply,SBD,M
Boys,55.79,4,Mason Matthews,Gatesville,54.7,117.93,63.5,147.42,328.85,Single-ply,SBD,M
Boys,59.87,5,Jose Servin,Waco Reicher Catholic,55.97,111.13,56.7,136.08,303.91,Single-ply,SBD,M
Boys,55.79,6,Dalton Stith,Moody,53.71,95.25,43.09,86.18,224.53,Single-ply,SBD,M
Boys,55.79,DQ,Abel Montemayor,Waco University,53.89,99.79,,,,Single-ply,SBD,M
Boys,55.79,DQ,Andres Gomez,Waco Reicher Catholic,55.34,,,,,Single-ply,SBD,M
Boys,59.87,1,Hector Jaramillo,Franklin,57.24,176.9,95.25,163.29,435.45,Single-ply,SBD,M
Boys,59.87,2,Bobby Hanson,Axtell,58.79,140.61,83.91,154.22,378.75,Single-ply,SBD,M
Boys,59.87,3,David Villafona,McGregor,58.33,136.08,74.84,161.03,371.95,Single-ply,SBD,M
Boys,59.87,4,Callahan Sherrod,Waco Reicher Catholic,58.33,124.74,54.43,140.61,319.78,Single-ply,SBD,M
Boys,59.87,5,Jose Hinojosa,Moody,58.24,111.13,72.57,127.01,310.71,Single-ply,SBD,M
Boys,59.87,6,Christian Lee,Gatesville,59.06,92.99,65.77,113.4,272.16,Single-ply,SBD,M
Boys,59.87,7,Ben Brown,Marlin,57.06,95.25,56.7,113.4,265.35,Single-ply,SBD,M
Boys,59.87,8,Gage Miller,Gatesville,58.51,86.18,74.84,95.25,256.28,Single-ply,SBD,M
Boys,59.87,9,Josh Watson,Marlin,57.97,90.72,61.23,92.99,244.94,Single-ply,SBD,M
Boys,67.13,10,Drew Hargrove,Moody,60.06,77.11,54.43,74.84,206.38,Single-ply,SBD,M
Boys,59.87,DQ,Junior Cobos,Riesel,57.61,111.13,,,,Single-ply,SBD,M
Boys,59.87,DQ,Jp Bustamante,Waco Reicher Catholic,59.15,,,,,Single-ply,SBD,M
Boys,67.13,1,Dylan Haralson,Axtell,65.86,226.8,102.06,226.8,555.65,Single-ply,SBD,M
Boys,67.13,2,Tanner Bailey,Waco Reicher Catholic,65.14,176.9,83.91,206.38,467.2,Single-ply,SBD,M
Boys,67.13,3,Chance Alvarez,Gatesville,65.23,167.83,104.33,192.78,464.93,Single-ply,SBD,M
Boys,67.13,4,Jessie Pena,Waco La Vega,63.68,176.9,90.72,192.78,460.4,Single-ply,SBD,M
Boys,67.13,5,Johnathan Quiroga,Waco University,66.22,151.95,124.74,183.7,460.4,Single-ply,SBD,M
Boys,67.13,6,Joseph Bryant,Waco La Vega,64.86,154.22,88.45,176.9,419.57,Single-ply,SBD,M
Boys,67.13,7,Josh Turner,McGregor,66.32,167.83,90.72,158.76,417.3,Single-ply,SBD,M
Boys,67.13,8,Kris Glynn,Waco University,64.77,158.76,83.91,158.76,401.43,Single-ply,SBD,M
Boys,67.13,9,Emmanuel Torres,McGregor,64.95,149.69,81.65,170.1,401.43,Single-ply,SBD,M
Boys,67.13,10,Thor Hoffmann,Lorena,67.04,154.22,81.65,156.49,392.36,Single-ply,SBD,M
Boys,67.13,11,Dylan Walker,Moody,66.59,145.15,81.65,158.76,385.55,Single-ply,SBD,M
Boys,67.13,12,Eli Ferris,Waco Reicher Catholic,66.86,140.61,90.72,151.95,383.29,Single-ply,SBD,M
Boys,67.13,13,Nick Harris,Lorena,64.64,154.22,77.11,147.42,378.75,Single-ply,SBD,M
Boys,67.13,14,Joshua Bryant,Waco La Vega,64.41,142.88,77.11,156.49,376.48,Single-ply,SBD,M
Boys,67.13,15,Jalyn Holloway,Waco Connally,61.96,140.61,72.57,156.49,369.68,Single-ply,SBD,M
Boys,67.13,16,Colin Highfill,Lorena,66.04,145.15,81.65,142.88,369.68,Single-ply,SBD,M
Boys,67.13,17,Victor Davaloz,Hearne,65.5,149.69,56.7,161.03,367.41,Single-ply,SBD,M
Boys,67.13,18,Isaiah Houston,Waco University,62.87,117.93,77.11,154.22,349.27,Single-ply,SBD,M
Boys,67.13,19,Bailey Janisch,Gatesville,67.04,136.08,79.38,131.54,347,Single-ply,SBD,M
Boys,67.13,20,Arthur Pryor,Hearne,64.86,140.61,56.7,147.42,344.73,Single-ply,SBD,M
Boys,67.13,21,Toby Smith,Moody,66.86,124.74,74.84,136.08,335.66,Single-ply,SBD,M
Boys,67.13,22,Braden Smith,Lorena,62.51,124.74,70.31,136.08,331.12,Single-ply,SBD,M
Boys,67.13,23,Patrick Saucedo,Bosqueville,65.77,129.27,72.57,124.74,326.59,Single-ply,SBD,M
Boys,74.84,24,Jimmie Quinn,Marlin,67.36,117.93,72.57,113.4,303.91,Single-ply,SBD,M
Boys,67.13,25,Tyler Summers,Hearne,64.77,111.13,61.23,124.74,297.1,Single-ply,SBD,M
Boys,74.84,26,Malcolm Harp,Waco University,67.36,111.13,61.23,113.4,285.76,Single-ply,SBD,M
Boys,67.13,27,Keinan Henry,Marlin,65.05,77.11,65.77,136.08,278.96,Single-ply,SBD,M
Boys,74.84,1,Roy Ward,Waco Reicher Catholic,73.3,226.8,129.27,197.31,553.38,Single-ply,SBD,M
Boys,74.84,2,Teondre Parsons,Waco University,73.75,188.24,102.06,181.44,471.74,Single-ply,SBD,M
Boys,74.84,3,John Botello,Lorena,70.31,176.9,95.25,195.04,467.2,Single-ply,SBD,M
Boys,74.84,4,Alex Smith,Bosqueville,74.84,172.37,97.52,163.29,433.18,Single-ply,SBD,M
Boys,74.84,5,Cj Smith,Crawford,71.4,167.83,104.33,154.22,426.38,Single-ply,SBD,M
Boys,74.84,6,Josh Johnson,Gatesville,73.21,165.56,108.86,149.69,424.11,Single-ply,SBD,M
Boys,74.84,7,Thomas Wright,Moody,73.03,142.88,90.72,165.56,399.16,Single-ply,SBD,M
Boys,74.84,8,John Aynesworth,Waco Reicher Catholic,73.84,140.61,95.25,156.49,392.36,Single-ply,SBD,M
Boys,74.84,9,Luke Ratliff,Waco Reicher Catholic,73.66,142.88,95.25,147.42,385.55,Single-ply,SBD,M
Boys,74.84,10,Cortney Young #2,Rogers,68.13,147.42,83.91,147.42,378.75,Single-ply,SBD,M
Boys,74.84,11,Jordan Fox,College Station,72.76,154.22,74.84,149.69,378.75,Single-ply,SBD,M
Boys,74.84,12,Jacob Blaha,College Station,69.49,147.42,81.65,147.42,376.48,Single-ply,SBD,M
Boys,74.84,13,Matt Wright,Moody,68.95,140.61,74.84,156.49,371.95,Single-ply,SBD,M
Boys,74.84,14,Ernest Stith,Moody,70.76,142.88,88.45,136.08,367.41,Single-ply,SBD,M
Boys,74.84,15,Vincent Wilson,Rogers,73.48,136.08,102.06,124.74,362.87,Single-ply,SBD,M
Boys,74.84,16,Dustin Richter,Bosqueville,68.49,133.81,65.77,145.15,344.73,Single-ply,SBD,M
Boys,74.84,17,Ryan Austin,Lorena,74.75,122.47,88.45,131.54,342.46,Single-ply,SBD,M
Boys,74.84,18,Cody Goodwin,Moody,68.22,111.13,77.11,113.4,301.64,Single-ply,SBD,M
Boys,74.84,19,Taylor Coleman,Gatesville,67.99,102.06,77.11,108.86,288.03,Single-ply,SBD,M
Boys,74.84,DQ,Devyn Hebbe,Axtell,73.12,238.14,,,,Single-ply,SBD,M
Boys,74.84,DQ,Creese Goodwin,Moody,68.13,113.4,,,,Single-ply,SBD,M
Boys,82.1,1,Marco Castro,Waco Reicher Catholic,78.93,247.21,140.61,226.8,614.62,Single-ply,SBD,M
Boys,82.1,2,Rodney Rogers,Franklin,78.47,210.92,138.35,192.78,542.04,Single-ply,SBD,M
Boys,82.1,3,Barclay Brunson,Crawford,78.47,195.04,122.47,190.51,508.02,Single-ply,SBD,M
Boys,82.1,4,Brett Ramsey,Moody,81.19,204.12,88.45,195.04,487.61,Single-ply,SBD,M
Boys,82.1,5,Jamaica Doyle,Waco Connally,78.47,170.1,92.99,158.76,421.84,Single-ply,SBD,M
Boys,82.1,6,Hunter Isham,Lorena,78.93,142.88,90.72,176.9,410.5,Single-ply,SBD,M
Boys,82.1,7,Ben Wolz,College Station,79.38,151.95,88.45,149.69,390.09,Single-ply,SBD,M
Boys,82.1,8,Lance Bracco,Crawford,78.47,142.88,92.99,142.88,378.75,Single-ply,SBD,M
Boys,82.1,9,Chris Henson,Moody,81.65,127.01,81.65,131.54,340.19,Single-ply,SBD,M
Boys,82.1,10,Tristan Fletcher,Moody,77.11,113.4,72.57,124.74,310.71,Single-ply,SBD,M
Boys,82.1,DQ,Terry Murphy,Waco University,80.29,127.01,,,,Single-ply,SBD,M
Boys,89.81,1,Tanner Coone,Axtell,88.45,226.8,151.95,233.6,612.35,Single-ply,SBD,M
Boys,89.81,2,Garrett Grant,College Station,86.18,238.14,115.67,204.12,557.92,Single-ply,SBD,M
Boys,89.81,3,Spencer Majors,Waco University,86.18,208.65,102.06,226.8,537.51,Single-ply,SBD,M
Boys,89.81,4,Mikey Castillo,McGregor,87.54,206.38,115.67,215.46,537.51,Single-ply,SBD,M
Boys,89.81,5,Michael Autenreith,Waco Reicher Catholic,87.54,199.58,127.01,204.12,530.7,Single-ply,SBD,M
Boys,89.81,6,Blake Mitchell,Lorena,88.45,190.51,115.67,206.38,512.56,Single-ply,SBD,M
Boys,89.81,7,Dillon Van Zandt,Crawford,86.18,204.12,113.4,192.78,510.29,Single-ply,SBD,M
Boys,89.81,8,Taivunn Briscoe,Waco Connally,87.09,176.9,104.33,192.78,474,Single-ply,SBD,M
Boys,89.81,9,Kase Reigan,Waco Reicher Catholic,89.09,142.88,88.45,151.95,383.29,Single-ply,SBD,M
Boys,89.81,10,Clayton Swonke,Franklin,83.91,133.81,83.91,140.61,358.34,Single-ply,SBD,M
Boys,89.81,11,Rogelio Vavara,Caldwell,85.28,131.54,61.23,124.74,317.51,Single-ply,SBD,M
Boys,89.81,12,Diego Contreras,Franklin,89.81,127.01,65.77,115.67,308.44,Single-ply,SBD,M
Boys,99.79,1,Esteban Nunez,Caldwell,92.08,256.28,120.2,242.67,619.15,Single-ply,SBD,M
Boys,99.79,2,Sam Jackson,Gatesville,95.25,226.8,138.35,210.92,576.06,Single-ply,SBD,M
Boys,99.79,3,Cooper Haigood,Lorena,93.44,238.14,111.13,215.46,564.72,Single-ply,SBD,M
Boys,99.79,4,Alex Parsons,McGregor,91.63,219.99,124.74,210.92,555.65,Single-ply,SBD,M
Boys,99.79,5,Erick Marton,Axtell,95.25,219.99,108.86,226.8,555.65,Single-ply,SBD,M
Boys,99.79,6,Corey Kemp,Waco La Vega,92.53,226.8,129.27,195.04,551.11,Single-ply,SBD,M
Boys,99.79,7,Sebastian Bravo,Waco University,94.8,217.72,102.06,208.65,528.44,Single-ply,SBD,M
Boys,99.79,8,Dustin Brown,Waco La Vega,90.08,204.12,124.74,197.31,526.17,Single-ply,SBD,M
Boys,99.79,9,Preston Trevino,Lorena,95.25,197.31,95.25,204.12,496.68,Single-ply,SBD,M
Boys,99.79,10,Franco Landeros,Crawford,91.63,183.7,115.67,188.24,487.61,Single-ply,SBD,M
Boys,99.79,11,Bradley Dorsett,College Station,94.35,199.58,108.86,174.63,483.08,Single-ply,SBD,M
Boys,99.79,12,Zach Solano,Rogers,93.89,192.78,111.13,165.56,469.47,Single-ply,SBD,M
Boys,99.79,13,Will Worrell,Crawford,90.26,183.7,102.06,179.17,464.93,Single-ply,SBD,M
Boys,99.79,14,Jerome Woodard,Marlin,97.98,149.69,106.59,192.78,449.06,Single-ply,SBD,M
Boys,99.79,15,Jacob Byrd,Lorena,94.8,181.44,95.25,158.76,435.45,Single-ply,SBD,M
Boys,99.79,16,Dylan Woods,Hearne,95.71,161.03,83.91,147.42,392.36,Single-ply,SBD,M
Boys,99.79,17,Jared Grooms,Waco Reicher Catholic,92.08,147.42,79.38,154.22,381.02,Single-ply,SBD,M
Boys,99.79,18,Kavan Dooley,Franklin,95.25,151.95,72.57,149.69,374.21,Single-ply,SBD,M
Boys,99.79,19,Cooper McCauley,McGregor,92.99,131.54,79.38,140.61,351.53,Single-ply,SBD,M
Boys,99.79,20,Enrique Rodriguez,Moody,92.53,127.01,88.45,133.81,349.27,Single-ply,SBD,M
Boys,99.79,DQ,Dalton Zander,Bosqueville,99.34,149.69,,,,Single-ply,SBD,M
Boys,99.79,DQ,Jason Marroquin,Axtell,93.44,208.65,,,,Single-ply,SBD,M
Boys,99.79,DQ,John King,College Station,94.35,217.72,127.01,,,Single-ply,SBD,M
Boys,109.77,1,Christian Contreras,Hearne,107.05,235.87,163.29,251.74,650.91,Single-ply,SBD,M
Boys,109.77,2,Bailey Adair,Gatesville,109.77,249.48,138.35,215.46,603.28,Single-ply,SBD,M
Boys,109.77,3,Robert Gober,Waco Connally,105.69,231.33,122.47,195.04,548.85,Single-ply,SBD,M
Boys,109.77,4,Matthew Richter,Riesel,105.69,188.24,122.47,195.04,505.76,Single-ply,SBD,M
Boys,124.74,1,Byron Bryant,Waco La Vega,121.11,301.64,167.83,258.55,728.02,Single-ply,SBD,M
Boys,124.74,2,Blake Johnson,Franklin,122.92,283.5,124.74,235.87,644.1,Single-ply,SBD,M
Boys,124.74,3,Andrew Escobedo,Waco La Vega,119.29,258.55,136.08,190.51,585.13,Single-ply,SBD,M
Boys,124.74,4,Charles Chrietzberg,Caldwell,112.94,183.7,117.93,147.42,449.06,Single-ply,SBD,M
Boys,124.74,5,David Hahn,College Station,117.03,190.51,92.99,163.29,446.79,Single-ply,SBD,M
Boys,124.74,6,Jairo Rodriguez,Waco La Vega,119.29,167.83,92.99,185.97,446.79,Single-ply,SBD,M
Boys,124.74,7,Kellan Anderson,Rogers,111.13,161.03,77.11,170.1,408.23,Single-ply,SBD,M
Boys,124.74+,1,Marques Robinson,Waco Connally,150.14,317.51,172.37,226.8,716.68,Single-ply,SBD,M
Boys,124.74+,2,Traylon Berry,Waco La Vega,134.26,263.08,131.54,199.58,594.21,Single-ply,SBD,M
Boys,124.74+,3,Narciso Molina,Waco Connally,139.25,238.14,122.47,192.78,553.38,Single-ply,SBD,M
Boys,124.74+,4,Daniel Campo,Marlin,127.01,181.44,122.47,215.46,519.36,Single-ply,SBD,M
Boys,124.74+,5,Ryan Alexander,Riesel,137.89,167.83,102.06,174.63,444.52,Single-ply,SBD,M
Boys,124.74+,DQ,Jaylen Tobler,Waco Connally,157.4,240.4,,,,Single-ply,SBD,M
