Division,WeightClassKg,Place,Name,Team,BodyweightKg,Best3SquatKg,Best3BenchKg,Best3DeadliftKg,TotalKg,Equipment,Event,Sex
Boys,51.71,1,Chance Paschal,Blooming Grove,51.71,124.74,58.97,129.27,312.98,Single-ply,SBD,M
Boys,51.71,2,Sebastian Urteaga,Eustace,49.44,127.01,54.43,108.86,290.3,Single-ply,SBD,M
Boys,55.79,1,Logan Shaw,Buffalo,54.98,115.67,79.38,151.95,347,Single-ply,SBD,M
Boys,55.79,2,Poncho Saldona,Buffalo,54.52,99.79,58.97,120.2,278.96,Single-ply,SBD,M
Boys,55.79,DQ,Chase Paschal,Blooming Grove,52.34,131.54,,,,Single-ply,SBD,M
Boys,59.87,1,Joe Velasquez,Blooming Grove,58.06,145.15,83.91,151.95,381.02,Single-ply,SBD,M
Boys,59.87,2,Caleb Clemmons,Athens,59.87,147.42,72.57,142.88,362.87,Single-ply,SBD,M
Boys,59.87,3,Brandon Renteria,Buffalo,56.43,120.2,83.91,156.49,360.61,Single-ply,SBD,M
Boys,59.87,4,Kemon Ross,Palestine,59.69,138.35,77.11,136.08,351.53,Single-ply,SBD,M
Boys,59.87,5,Julio Palacios,Palestine,57.97,120.2,95.25,99.79,315.25,Single-ply,SBD,M
Boys,59.87,6,Nathaniel Hall,Athens,56.06,122.47,72.57,117.93,312.98,Single-ply,SBD,M
Boys,59.87,7,Maron Hurford,Blooming Grove,57.15,102.06,63.5,115.67,281.23,Single-ply,SBD,M
Boys,59.87,DQ,Stone Smith,Bullard,59.42,90.72,,,,Single-ply,SBD,M
Boys,67.13,1,Tayon Huntley,Palestine,67.13,145.15,74.84,145.15,365.14,Single-ply,SBD,M
Boys,67.13,2,Chandler Jones,Center,60.87,145.15,79.38,138.35,362.87,Single-ply,SBD,M
Boys,67.13,3,Cagen Clark,Palestine,66.22,117.93,72.57,131.54,322.05,Single-ply,SBD,M
Boys,67.13,4,Walker Stegall,Bullard,63.5,113.4,88.45,104.33,306.17,Single-ply,SBD,M
Boys,67.13,DQ,Matthew Beacom,Blooming Grove,64.86,151.95,,,,Single-ply,SBD,M
Boys,74.84,1,Daniel Fernandez,Kerens,73.94,183.7,124.74,174.63,483.08,Single-ply,SBD,M
Boys,74.84,2,John Engle,Bullard,73.94,170.1,115.67,158.76,444.52,Single-ply,SBD,M
Boys,74.84,3,Dekylin Hoyt,Center,73.12,165.56,113.4,161.03,439.98,Single-ply,SBD,M
Boys,74.84,4,Jose Villanueva,Kemp,72.03,158.76,102.06,154.22,415.04,Single-ply,SBD,M
Boys,74.84,5,Kyle Kennerk,Cayuga,70.13,158.76,83.91,170.1,412.77,Single-ply,SBD,M
Boys,74.84,6,Justin Henson,Eustace,74.57,151.95,90.72,156.49,399.16,Single-ply,SBD,M
Boys,74.84,7,Anders Sundaust,Kerens,74.75,156.49,90.72,147.42,394.63,Single-ply,SBD,M
Boys,74.84,8,Jaiden Trevino,Malakoff,73.07,131.54,83.91,149.69,365.14,Single-ply,SBD,M
Boys,74.84,9,Justin Crow,Eustace,68.49,131.54,81.65,142.88,356.07,Single-ply,SBD,M
Boys,74.84,10,Eddie Vaughn,Malakoff,72.12,113.4,83.91,133.81,331.12,Single-ply,SBD,M
Boys,74.84,11,Angel Hernandez,Bullard,69.85,113.4,61.23,124.74,299.37,Single-ply,SBD,M
Boys,74.84,12,Corey Caldwell,Cayuga,74.48,113.4,81.65,102.06,297.1,Single-ply,SBD,M
Boys,74.84,13,Nicholas Pugh,Kerens,74.12,83.91,54.43,106.59,244.94,Single-ply,SBD,M
Boys,74.84,DQ,Dakota Lewis,Blooming Grove,69.4,174.63,,,,Single-ply,SBD,M
Boys,82.1,1,Johnathan Mendez,Kemp,82.1,219.99,113.4,195.04,528.44,Single-ply,SBD,M
Boys,82.1,2,Koby Phelps,Kerens,81.83,174.63,111.13,174.63,460.4,Single-ply,SBD,M
Boys,82.1,3,Casen Grasch,Cayuga,80.1,165.56,92.99,167.83,426.38,Single-ply,SBD,M
Boys,82.1,4,Eden Mayhall,Palestine,79.83,117.93,99.79,158.76,376.48,Single-ply,SBD,M
Boys,82.1,5,Dakota Walker,Cayuga,77.84,113.4,54.43,136.08,303.91,Single-ply,SBD,M
Boys,89.81,1,Da'Michael Harvey,Kerens,88.9,254.01,145.15,251.74,650.91,Single-ply,SBD,M
Boys,89.81,2,Hector Dominguez,Buffalo,83.01,238.14,117.93,217.72,573.79,Single-ply,SBD,M
Boys,89.81,3,Kenya Glasco,Blooming Grove,87.09,195.04,122.47,229.06,546.58,Single-ply,SBD,M
Boys,89.81,4,Carson Rucks,Blooming Grove,84.37,181.44,133.81,181.44,496.68,Single-ply,SBD,M
Boys,89.81,5,Kevin Kennerk,Cayuga,83.37,176.9,90.72,181.44,449.06,Single-ply,SBD,M
Boys,89.81,6,Darion Peace,Malakoff,84.01,167.83,108.86,158.76,435.45,Single-ply,SBD,M
Boys,89.81,7,Hunter Guerrero,Malakoff,86.86,158.76,111.13,154.22,424.11,Single-ply,SBD,M
Boys,89.81,8,Keevie Rose,Malakoff,86.64,158.76,74.84,181.44,415.04,Single-ply,SBD,M
Boys,89.81,9,TaKeenan Langley,Malakoff,85.18,170.1,83.91,156.49,410.5,Single-ply,SBD,M
Boys,89.81,10,Cameron Englehart,Eustace,84.37,136.08,102.06,163.29,401.43,Single-ply,SBD,M
Boys,89.81,11,Tristan Wilmeth,Palestine,89.63,129.27,83.91,142.88,356.07,Single-ply,SBD,M
Boys,99.79,1,Nathan Sims,Athens,97.43,226.8,124.74,222.26,573.79,Single-ply,SBD,M
Boys,99.79,2,Cedric Hicks,Palestine,99.34,229.06,138.35,204.12,571.53,Single-ply,SBD,M
Boys,99.79,3,Harley Manders,Kemp,94.35,222.26,120.2,174.63,517.1,Single-ply,SBD,M
Boys,99.79,4,Cameron Bridges,Bullard,98.43,188.24,124.74,181.44,494.42,Single-ply,SBD,M
Boys,99.79,5,David Mirofuentes,Blooming Grove,93.44,199.58,99.79,161.03,460.4,Single-ply,SBD,M
Boys,99.79,6,Javion Hornbuckle,Malakoff,94.48,174.63,97.52,183.7,455.86,Single-ply,SBD,M
Boys,99.79,7,Kannon Hurd,Malakoff,92.17,161.03,90.72,181.44,433.18,Single-ply,SBD,M
Boys,99.79,8,Abel Salazar,Buffalo,96.43,154.22,81.65,147.42,383.29,Single-ply,SBD,M
Boys,99.79,9,Cody Byrd,Eustace,96.16,129.27,77.11,154.22,360.61,Single-ply,SBD,M
Boys,109.77,1,Zamir Ruiz,Malakoff,109.68,190.51,113.4,181.44,485.34,Single-ply,SBD,M
Boys,109.77,2,Wesley Kirchenbauer,Eustace,101.15,174.63,108.86,161.03,444.52,Single-ply,SBD,M
Boys,109.77,3,Dalton Fitzpatrick,Cayuga,104.05,163.29,97.52,156.49,417.3,Single-ply,SBD,M
Boys,109.77,4,Mason Mitchell,Palestine,106.59,129.27,95.25,149.69,374.21,Single-ply,SBD,M
Boys,109.77,DQ,Joshua Gambrell,Blooming Grove,103.87,,,,,Single-ply,SBD,M
Boys,124.74,1,Lincoln Rogers,Malakoff,123.92,226.8,158.76,204.12,589.67,Single-ply,SBD,M
Boys,124.74,2,Luis Garcia,Eustace,121.56,238.14,136.08,208.65,582.87,Single-ply,SBD,M
Boys,124.74,3,Anthony Hill,Athens,116.57,204.12,129.27,215.46,548.85,Single-ply,SBD,M
Boys,124.74,4,Asa Henson,Buffalo,115.76,192.78,111.13,183.7,487.61,Single-ply,SBD,M
Boys,124.74,5,Kaleb Ferguson,Blooming Grove,113.4,165.56,120.2,190.51,476.27,Single-ply,SBD,M
Boys,124.74,6,William Morse,Bullard,110.77,183.7,115.67,165.56,464.93,Single-ply,SBD,M
Boys,124.74,7,Pedro Garcia-Castillo,Palestine,120.47,161.03,90.72,158.76,410.5,Single-ply,SBD,M
Boys,124.74+,1,Garrett Hayes,Athens,126.01,272.16,158.76,278.96,709.87,Single-ply,SBD,M
Boys,124.74+,2,Dejaun Ealy,Palestine,133.45,285.76,183.7,231.33,700.8,Single-ply,SBD,M
Boys,124.74+,3,Chad Fancher,Eustace,127.01,222.26,161.03,217.72,601.01,Single-ply,SBD,M
Boys,124.74+,4,Julian Gonzales,Malakoff,129.46,181.44,115.67,185.97,483.08,Single-ply,SBD,M
Boys,124.74+,5,Ethan Patterson,Buffalo,135.62,151.95,136.08,181.44,469.47,Single-ply,SBD,M
Boys,124.74+,6,J'Christopher Crawford,Center,126.01,176.9,90.72,183.7,451.32,Single-ply,SBD,M
