Place,Name,Country,BodyweightKg,Sex,Event,Equipment,WeightClassKg,Squat1Kg,Squat2Kg,Squat3Kg,Best3SquatKg,Bench1Kg,Bench2Kg,Bench3Kg,Best3BenchKg,Deadlift1Kg,Deadlift2Kg,Deadlift3Kg,Best3DeadliftKg,TotalKg,BirthDate
1,Nguyen Thi Loan,Vietnam,47.1,F,SBD,Wraps,48,82.5,90,97.5,97.5,35,42.5,45,45,110,120,132.5,132.5,275,
2,Francisca Yeoh,Malaysia,47.9,F,SBD,Wraps,48,77.5,82.5,87.5,87.5,40,45,,45,100,107.5,-112.5,107.5,240,
3,Nguyen Thi Chu Tuyen,Vietnam,46.35,F,SBD,Wraps,48,60,-65,-70,60,30,35,-40,35,90,-105,110,110,205,
1,Dinh Thi Hoa,Vietnam,51.1,F,SBD,Wraps,52,105,110,115,115,55,60,62.5,62.5,125,135,-140,135,312.5,
2,Charmaine Cheang,Malaysia,51.3,F,SBD,Wraps,52,92.5,100,105,105,52.5,57.5,-62.5,57.5,122.5,132.5,137.5,137.5,300,
3,Bui Lan Anh,Vietnam,50.35,F,SBD,Wraps,52,90,95,100,100,52.5,55,57.5,57.5,117.5,125,132.5,132.5,290,
4,Kelly Cheong Yew Vern,Malaysia,50.2,F,SBD,Wraps,52,85,90,92.5,92.5,37.5,42.5,43,43,87.5,97.5,-102.5,97.5,233,
5,Melissa Lee Sui Khim,Malaysia,48.75,F,SBD,Wraps,52,65,67.5,-70,67.5,-40,40,42.5,42.5,82.5,87.5,-90,87.5,197.5,
1,Nur Insyirah Amir,Singapore,54.65,F,SBD,Wraps,56,120,125,127.5,127.5,60,62.5,-65,62.5,147.5,157.5,-162.5,157.5,347.5,
2,Yukie Tu Ngoc Quynh,Vietnam,54.9,F,SBD,Wraps,56,102.5,110,115,115,52.5,57.5,60,60,127.5,137.5,147.5,147.5,322.5,
3,Nguyen Thi Thuong,Vietnam,53.95,F,SBD,Wraps,56,110,117.5,125,125,50,-55,-55,50,130,-140,140,140,315,
4,Seraphina Low Mei Shan,Singapore,55.3,F,SBD,Wraps,56,110,117.5,125,125,50,52.5,-55,52.5,125,135,-145,135,312.5,
5,Hoang Ngoc Linh Phuong,Vietnam,54.1,F,SBD,Wraps,56,80,87.5,-90,87.5,45,50,-55,50,110,-120,120,120,257.5,
1,Trần Trương Việt Hà,Vietnam,58.75,F,SBD,Wraps,60,115,122.5,130,130,50,55,60,60,135,147.5,160,160,350,
2,Nguyễn Diệu Linh,Vietnam,59,F,SBD,Wraps,60,92.5,97.5,-102.5,97.5,60,62.5,65,65,130,-137.5,-140,130,292.5,
3,Dorothy Sarim,Malaysia,58.9,F,SBD,Wraps,60,95,102.5,-105,102.5,50,55,-57.5,55,115,122.5,-130,122.5,280,
4,Khairun Waheeda Ahmad Ismail,Malaysia,59.65,F,SBD,Wraps,60,90,100,105,105,35,-40,-40,35,100,110,-120,110,250,
5,Rosmaria Binti Abd Hamid,Malaysia,57.2,F,SBD,Wraps,60,70,72.5,77.5,77.5,35,40,-42.5,40,100,107.5,112.5,112.5,230,
6,Amira Dalila,Malaysia,59.15,F,SBD,Wraps,60,70,-77.5,82.5,82.5,30,-40,-40,30,80,90,100,100,212.5,
1,Claudine De Vosse,Malaysia,94.6,F,SBD,Wraps,100,90,110,-122.5,110,-50,50,-57.5,50,100,130,152.5,152.5,312.5,
1,Dinh Hong Quan,Vietnam,54.15,M,SBD,Wraps,56,140,152.5,167.5,167.5,90,100,,100,170,-185,-192.5,170,437.5,
2,Nik Ahmad Khair Bin Abu Bakar,Malaysia,55.15,M,SBD,Wraps,56,115,125,130,130,85,-95,-95,85,140,150,160,160,375,
1,Tong Hai Nam,Vietnam,58.6,M,SBD,Wraps,60,150,160,170,170,122.5,130,-137.5,130,195,210,225.5,225.5,525.5,
2,Ngo Van Hoa,Vietnam,58.5,M,SBD,Wraps,60,137.5,147.5,-157.5,147.5,112.5,117.5,122.5,122.5,192.5,202.5,207.5,207.5,477.5,
3,Leong Yi Bin,Malaysia,59.1,M,SBD,Wraps,60,135,-145,145,145,95,100,-105,100,-175,175,192.5,192.5,437.5,
1,Cheah Yee Hang,Malaysia,66.4,M,SBD,Wraps,67.5,165,175,-185,175,110,-115,115,115,220,230,235,235,525,
2,Nguyễn Ngọc Tài,Vietnam,64.4,M,SBD,Wraps,67.5,170,180,187.5,187.5,90,95,-100,95,202.5,220,232.5,232.5,515,
3,Miao Zhi Hao,Malaysia,67.4,M,SBD,Wraps,67.5,175,-185,-185,175,102.5,107.5,112.5,112.5,215,225,-235,225,512.5,
4,Mohamad Ongyod Latif,Brunei,65.9,M,SBD,Wraps,67.5,160,170,-185,170,-110,110,-120,110,200,210,220,220,500,
5,Cồ Ngọc Hải,Vietnam,64.75,M,SBD,Wraps,67.5,160,170,-182.5,170,95,-102.5,-102.5,95,200,-212.5,-212.5,200,465,
6,Jackie Chan Yong Heng,Brunei,66.3,M,SBD,Raw,67.5,160,165,-170,165,90,100,-102.5,100,190,200,-210,200,465,1976-12-02
DQ,Gulshan Luv Choytooa,Mauritius,67.4,M,SBD,Wraps,67.5,-160,-170,-170,,-85,85,-90,85,170,180,190,190,,
1,Ahmad Hariz bin Ahmad Azman,Malaysia,74.9,M,SBD,Wraps,75,205,212.5,217.5,217.5,165,170,180,180,215,225,-235,225,622.5,
2,Lam Nhat Nam,Vietnam,74.9,M,SBD,Wraps,75,190,210,220,220,125,135,-142.5,135,230,245,250,250,605,
3,Wan Muhd Faris,Malaysia,74.95,M,SBD,Wraps,75,200,-210,-215,200,120,-127.5,127.5,127.5,230,240,-255,240,567.5,
4,Edward Jiun Jr,Malaysia,74.9,M,SBD,Wraps,75,175,185,-197.5,185,125,132.5,-140.5,132.5,205,225,-230.5,225,542.5,
5,Yung Jen Sue,Malaysia,74.9,M,SBD,Wraps,75,-165,170,-175,170,110,-115,-115,110,210,220,227.5,227.5,507.5,
6,Benji Phang Li Yuen,Malaysia,69.95,M,SBD,Wraps,75,-160,160,,160,-95,95,-105,95,195,212.5,-225,212.5,467.5,
7,See Toh Wai Zhung,Malaysia,68.65,M,SBD,Wraps,75,95,107.5,117.5,117.5,62.5,70,-72.5,70,120,135,147.5,147.5,335,
1,Kelvin Mwinuka,Tanzania,80.7,M,SBD,Wraps,82.5,215,225,230,230,140,147.5,155,155,240,255,262.5,262.5,647.5,
2,Ak Abdul Aziz Bin Pg Kamalrudzaman,Brunei,81.5,M,SBD,Wraps,82.5,195,-212.5,-212.5,195,137.5,147.5,150,150,260,280,-300,280,625,
3,Foo Mun Xiew,Malaysia,81.5,M,SBD,Wraps,82.5,182.5,197.5,210,210,125,-135,135,135,217.5,235,-255,235,580,
4,James Lim Swee Meng,Singapore,82.15,M,SBD,Wraps,82.5,185,195,200,200,125,135,140,140,205,215,225,225,565,
5,Ahmed Saeed Masoud Abogabal,Egypt,81.6,M,SBD,Wraps,82.5,-180,190,200,200,125,-135,-135,125,205,220,232.5,232.5,557.5,
6,Ooi Fei Hoong,Malaysia,82.2,M,SBD,Wraps,82.5,180,190,-197.5,190,115,-117.5,-117.5,115,220,235,245,245,550,
7,Brian De Cunha,Malaysia,81.2,M,SBD,Wraps,82.5,175,182.5,190,190,110,115,-117.5,115,207.5,-217.5,225,225,530,
8,Alastair Tay,Singapore,81.8,M,SBD,Wraps,82.5,-150,-155,160,160,-110,112.5,-120,112.5,180,200,210,210,482.5,
9,Koh Wee Fong,Malaysia,81.3,M,SBD,Wraps,82.5,-160,167.5,175,175,100,-107.5,-110,100,190,202.5,-210,202.5,477.5,
10,Reshedaren Selvanathan,Malaysia,74.1,M,SBD,Wraps,82.5,110,115,-125,115,85,-92.5,-92.5,85,140,155,165,165,365,
1,Tran Thu The Van,Vietnam,88.95,M,SBD,Wraps,90,230,245,260,260,150,160,165,165,275,300,320,320,745,
2,John Lee Jyh Jiunn,Malaysia,89.7,M,SBD,Wraps,90,230,240,-245,240,170,-177.5,-177.5,170,275,295,-305,295,705,
3,Chai Bor Ren,Malaysia,87.55,M,SBD,Wraps,90,230,240,245,245,160,-165,-165,160,250,-260,-260,250,655,
4,Irfan Rizzqin,Malaysia,90,M,SBD,Wraps,90,-210,220,230,230,-155,160,-167.5,160,240,255,265,265,655,
6,Mohammad Nasrul Faiz,Malaysia,90,M,SBD,Wraps,90,180,190,200,200,130,135,140,140,220,230,-240,230,570,
7,Jarrett Doss,Malaysia,88.5,M,SBD,Wraps,90,190,200,205,205,105,110,-112.5,110,210,220,230,230,545,
8,Mohd Rizuan Bin Mohd Suradi,Malaysia,87.8,M,SBD,Wraps,90,-190,190,195,195,122.5,127.5,-132.5,127.5,180,190,200,200,522.5,
1,Adam Lemesányi,Slovakia,99.1,M,SBD,Wraps,100,170,185,195,195,120,130,140,140,220,235,245,245,580,
2,Mohd Faries Bin Latif,Malaysia,94.35,M,SBD,Wraps,100,160,167.5,175,175,117.5,-125,125,125,180,190,200,200,500,
G,Ivan Tang Veng Hoe,Malaysia,109,M,SBD,Wraps,110,230,240,-250,240,190,-200,-200,190,260,270,-280,270,700,
1,Chan Wai Meng,Malaysia,108,M,SBD,Wraps,110,250,265,-270,265,160,170,175,175,245,260,-270,260,700,
2,Shahirul Alfian Sjahrial,Malaysia,108.5,M,SBD,Wraps,110,200,210,217.5,217.5,115,130,-145,130,220,240,-252.5,240,587.5,
1,Wan Amir Afif,Malaysia,114,M,SBD,Wraps,125,180,192.5,202.5,202.5,90,95,100,100,185,195,207.5,207.5,510,
2,Zarol Alfiyan,Malaysia,119.55,M,SBD,Wraps,125,290,317.5,-325,317.5,185,195,202.5,202.5,315,325,-330,325,845,
DQ,Muhammad Syahiran Bin Mohd Shah,Singapore,119.05,M,SBD,Wraps,125,-225,230,-240,230,135,140,,140,-267.5,-280,-280,-267.5,,
1,Đào Quang Khải,Vietnam,126.9,M,SBD,Wraps,140,200,215,230,230,130,140,152.5,152.5,230,247.5,-260,247.5,630,
