Division,WeightClassKg,Place,Name,Team,BodyweightKg,Best3SquatKg,Best3BenchKg,Best3DeadliftKg,TotalKg,Equipment,Event,Sex
Girls,44.23,1,Kaitlyn Lucio,El Maton Tidehaven,43.68,83.91,45.36,106.59,235.87,Single-ply,SBD,F
Girls,44.23,2,Lesli Miranda,Woodville,41.87,83.91,36.29,88.45,208.65,Single-ply,SBD,F
Girls,44.23,3,Laurel Currie,Coldspring-Oakhurst,43.68,65.77,43.09,97.52,206.38,Single-ply,SBD,F
Girls,44.23,4,Maura Fentress,Woodville,41.46,72.57,36.29,88.45,197.31,Single-ply,SBD,F
Girls,44.23,5,MClaine Seagraves,Coldspring-Oakhurst,39.69,68.04,36.29,81.65,185.97,Single-ply,SBD,F
Girls,44.23,6,Kennedy Seagraves,Coldspring-Oakhurst,42.37,70.31,34.02,74.84,179.17,Single-ply,SBD,F
Girls,44.23,7,Dianysha Casiano,Hitchcock,41.82,63.5,31.75,70.31,165.56,Single-ply,SBD,F
Girls,44.23,8,Andie Seagraves,Coldspring-Oakhurst,43.32,72.57,31.75,58.97,163.29,Single-ply,SBD,F
Girls,44.23,9,Marjorie Wilson,Hitchcock,44.04,45.36,22.68,72.57,140.61,Single-ply,SBD,F
Girls,44.23,DQ,MeyLynn Le,Palacios,44.09,70.31,43.09,,,Single-ply,SBD,F
Girls,44.23,DQ,Yoselin Miranda,Woodville,44.04,83.91,40.82,,,Single-ply,SBD,F
Girls,44.23,DQ,Aracelly Perez,Boling,43.41,,,,,Single-ply,SBD,F
Girls,47.85,1,Hannah Robinson,Buna,46.9,122.47,56.7,129.27,308.44,Single-ply,SBD,F
Girls,47.85,2,Kelsey Lopez,Van Vleck,47.22,115.67,61.23,108.86,285.76,Single-ply,SBD,F
Girls,47.85,3,Marian Gomez,Palacios,47.13,104.33,47.63,122.47,274.42,Single-ply,SBD,F
Girls,47.85,4,Danielle Puentes,Louise,47.63,83.91,45.36,108.86,238.14,Single-ply,SBD,F
Girls,47.85,5,Sydney Bertrand,Anahuac,46.22,88.45,47.63,95.25,231.33,Single-ply,SBD,F
Girls,47.85,6,Stevi Rutherford,Winnie East Chambers,46.9,77.11,45.36,95.25,217.72,Single-ply,SBD,F
Girls,47.85,7,Alize Garcia,Van Vleck,46.45,79.38,38.56,83.91,201.85,Single-ply,SBD,F
Girls,47.85,8,Lilly Payne,Saratoga West Hardin,47.31,72.57,29.48,99.79,201.85,Single-ply,SBD,F
Girls,47.85,9,Sarah Dinh,Palacios,47.85,61.23,40.82,92.99,195.04,Single-ply,SBD,F
Girls,47.85,DQ,Chrissy Fontnow,Saratoga West Hardin,46.81,,,,,Single-ply,SBD,F
Girls,47.85,DQ,Bryana Cusick,Buna,47.72,90.72,,,,Single-ply,SBD,F
Girls,47.85,DQ,Lauren LeFevre,Buna,47.04,90.72,,,,Single-ply,SBD,F
Girls,51.94,1,Peyton Garner,Buna,51.26,124.74,61.23,138.35,324.32,Single-ply,SBD,F
Girls,51.94,2,Kayden Bayer,Buna,49.71,97.52,56.7,124.74,278.96,Single-ply,SBD,F
Girls,51.94,3,Jenna Kana,El Maton Tidehaven,51.26,102.06,54.43,122.47,278.96,Single-ply,SBD,F
Girls,51.94,4,Sara Faas,El Maton Tidehaven,51.17,97.52,54.43,120.2,272.16,Single-ply,SBD,F
Girls,51.94,5,Kaitlyn Surratt,Louise,50.35,97.52,52.16,108.86,258.55,Single-ply,SBD,F
Girls,51.94,6,Laila Fry,Buna,49.99,97.52,43.09,99.79,240.4,Single-ply,SBD,F
Girls,51.94,7,Victoria Waidner,Hitchcock,50.62,83.91,38.56,108.86,231.33,Single-ply,SBD,F
Girls,51.94,8,Jai'Lia Landry,Anahuac,50.76,83.91,36.29,95.25,215.46,Single-ply,SBD,F
Girls,51.94,9,Angolina Quiroga,Van Vleck,51.39,88.45,34.02,88.45,210.92,Single-ply,SBD,F
Girls,51.94,DQ,Reyna Gonzalez,Ganado,50.35,,,,,Single-ply,SBD,F
Girls,51.94,DQ,Samantha Cazares,Vanderbilt Industrial,48.49,,,,,Single-ply,SBD,F
Girls,56.02,1,Peggy King,El Maton Tidehaven,55.52,117.93,54.43,136.08,308.44,Single-ply,SBD,F
Girls,56.02,2,Feather Wilson,Coldspring-Oakhurst,55.07,113.4,49.9,127.01,290.3,Single-ply,SBD,F
Girls,56.02,3,Danielle Robinson,Buna,54.39,124.74,54.43,102.06,281.23,Single-ply,SBD,F
Girls,56.02,4,Lauren Kennedy,Vanderbilt Industrial,53.39,102.06,47.63,117.93,267.62,Single-ply,SBD,F
Girls,56.02,5,Jade Butchee,Buna,54.43,81.65,47.63,115.67,244.94,Single-ply,SBD,F
Girls,56.02,6,Acasia Martinez,Ganado,54.84,102.06,38.56,102.06,242.67,Single-ply,SBD,F
Girls,56.02,7,Ashlee Brinkley,Anahuac,55.61,79.38,45.36,113.4,238.14,Single-ply,SBD,F
Girls,56.02,8,Cassidy Tabares,Van Vleck,54.79,79.38,45.36,99.79,224.53,Single-ply,SBD,F
Girls,56.02,9,Kayla Gace,Hitchcock,55.2,92.99,47.63,83.91,224.53,Single-ply,SBD,F
Girls,56.02,10,Erin Laramore,Buna,53.93,72.57,43.09,83.91,199.58,Single-ply,SBD,F
Girls,56.02,11,Jaymi Shellnut,Deweyville,52.62,52.16,27.22,61.23,140.61,Single-ply,SBD,F
Girls,56.02,DQ,Alicyn Mitcham,Colmesneil,55.79,,,,,Single-ply,SBD,F
Girls,56.02,DQ,Anna Trammell,Danbury,55.66,77.11,,,,Single-ply,SBD,F
Girls,60.1,1,Jayci Robicheaux,Buna,58.97,131.54,70.31,129.27,331.12,Single-ply,SBD,F
Girls,60.1,2,Alexis Mojica,Ganado,57.33,124.74,56.7,136.08,317.51,Single-ply,SBD,F
Girls,60.1,3,Ariana Garay,El Maton Tidehaven,59.33,113.4,61.23,120.2,294.84,Single-ply,SBD,F
Girls,60.1,4,Rachael Smith,Winnie East Chambers,58.79,104.33,49.9,127.01,281.23,Single-ply,SBD,F
Girls,60.1,5,Autumn Champagne,Hull-Daisetta,58.56,97.52,63.5,117.93,278.96,Single-ply,SBD,F
Girls,60.1,6,Mallorie Davis,Boling,59.96,117.93,47.63,111.13,276.69,Single-ply,SBD,F
Girls,60.1,7,Sabrina Trahan,Anahuac,58.74,108.86,56.7,108.86,274.42,Single-ply,SBD,F
Girls,60.1,8,Kymber Garza,Boling,58.01,104.33,45.36,117.93,267.62,Single-ply,SBD,F
Girls,60.1,9,Gabby Castillo,Boling,58.24,102.06,45.36,111.13,258.55,Single-ply,SBD,F
Girls,60.1,DQ,Hillary Saha,El Maton Tidehaven,58.69,95.25,68.04,,,Single-ply,SBD,F
Girls,60.1,DQ,Brooke Leach,El Maton Tidehaven,56.52,,,,,Single-ply,SBD,F
Girls,60.1,DQ,Alexis Wigley,Woodville,59.51,111.13,,,,Single-ply,SBD,F
Girls,67.36,1,Karina Ramon,Palacios,66.81,158.76,92.99,156.49,408.23,Single-ply,SBD,F
Girls,67.36,2,Keisha Walker,Buna,66.63,131.54,58.97,167.83,358.34,Single-ply,SBD,F
Girls,67.36,3,Kelli Cochrell,Saratoga West Hardin,65.54,142.88,72.57,133.81,349.27,Single-ply,SBD,F
Girls,67.36,4,Kenzie Richardson,Buna,64.09,131.54,68.04,120.2,319.78,Single-ply,SBD,F
Girls,67.36,5,Maddison Leaven,Winnie East Chambers,64.55,122.47,54.43,120.2,297.1,Single-ply,SBD,F
Girls,67.36,6,Mackenzie Ortego,Winnie East Chambers,63.73,108.86,49.9,111.13,269.89,Single-ply,SBD,F
Girls,67.36,7,Camber Castellanos,Woodville,61.14,108.86,47.63,104.33,260.82,Single-ply,SBD,F
Girls,67.36,DQ,Julissa Roman,Van Vleck,66.77,,,,,Single-ply,SBD,F
Girls,67.36,DQ,Sarah Weinmann,Edna,62.37,113.4,54.43,,,Single-ply,SBD,F
Girls,67.36,DQ,Stormy Bairfield,Colmesneil,64.95,,,,,Single-ply,SBD,F
Girls,67.36,DQ,Gisella Gonzales,El Maton Tidehaven,64.18,,,,,Single-ply,SBD,F
Girls,67.36,DQ,Daelyn Frank,Hitchcock,65.05,,,,,Single-ply,SBD,F
Girls,75.07,1,Marie Coon,Buna,73.62,192.78,90.72,183.7,467.2,Single-ply,SBD,F
Girls,75.07,2,Tia Hart,Vanderbilt Industrial,73.62,145.15,77.11,140.61,362.87,Single-ply,SBD,F
Girls,75.07,3,Kasey Garza,Vanderbilt Industrial,74.98,129.27,74.84,131.54,335.66,Single-ply,SBD,F
Girls,75.07,4,Delia Lopez,Palacios,70.4,97.52,61.23,136.08,294.84,Single-ply,SBD,F
Girls,75.07,5,Roni Fleming,Hitchcock,73.12,108.86,70.31,113.4,292.57,Single-ply,SBD,F
Girls,75.07,6,Laelah Brickham,Boling,68.58,115.67,52.16,122.47,290.3,Single-ply,SBD,F
Girls,75.07,7,Kansas Smith,Edna,73.75,113.4,49.9,124.74,288.03,Single-ply,SBD,F
Girls,75.07,8,Morgan Callaway,Saratoga West Hardin,67.72,113.4,47.63,104.33,265.35,Single-ply,SBD,F
Girls,75.07,9,Kimmy Simmons,Hitchcock,70.35,83.91,68.04,113.4,265.35,Single-ply,SBD,F
Girls,75.07,10,Ashley Gilbert,Van Vleck,73.98,111.13,47.63,106.59,265.35,Single-ply,SBD,F
Girls,75.07,11,Jacelyn Peveto,Deweyville,67.81,74.84,47.63,111.13,233.6,Single-ply,SBD,F
Girls,75.07,12,Gisella Chavez,Palacios,71.08,61.23,54.43,104.33,219.99,Single-ply,SBD,F
Girls,75.07,DQ,Tiann Perry,Coldspring-Oakhurst,71.89,129.27,65.77,,,Single-ply,SBD,F
Girls,82.33,1,Shamaurie Williams,El Maton Tidehaven,75.21,172.37,86.18,167.83,426.38,Single-ply,SBD,F
Girls,82.33,2,Joyclyne Landry,Anahuac,79.2,131.54,79.38,147.42,358.34,Single-ply,SBD,F
Girls,82.33,3,Desiree Vega,El Maton Tidehaven,81.33,133.81,68.04,129.27,331.12,Single-ply,SBD,F
Girls,82.33,4,Kristen Lewis,Buna,75.21,133.81,61.23,129.27,324.32,Single-ply,SBD,F
Girls,82.33,5,Symone Lalonde,Kirbyville,80.74,117.93,54.43,145.15,317.51,Single-ply,SBD,F
Girls,82.33,6,Raenah Cross,Coldspring-Oakhurst,76.11,115.67,63.5,133.81,312.98,Single-ply,SBD,F
Girls,82.33,7,Shae Russell,Buna,76.29,108.86,54.43,113.4,276.69,Single-ply,SBD,F
Girls,82.33,8,Kenedy Rogers,Colmesneil,77.2,106.59,47.63,117.93,272.16,Single-ply,SBD,F
Girls,82.33,9,Marion Purvis,Warren,78.74,102.06,43.09,106.59,251.74,Single-ply,SBD,F
Girls,82.33,10,Sarah Fox,Deweyville,79.7,79.38,49.9,106.59,235.87,Single-ply,SBD,F
Girls,82.33,DQ,Chelsea Garza,Vanderbilt Industrial,77.43,,,,,Single-ply,SBD,F
Girls,90.04,1,Sydney Goodman,Buna,88.09,136.08,58.97,136.08,331.12,Single-ply,SBD,F
Girls,90.04,2,Taylor Hall,Kirbyville,88.9,145.15,45.36,138.35,328.85,Single-ply,SBD,F
Girls,90.04,3,Qatarah Mayes,Anahuac,84.73,113.4,68.04,133.81,315.25,Single-ply,SBD,F
Girls,90.04,4,Anisa Rodriguez,El Maton Tidehaven,85.09,120.2,58.97,127.01,306.17,Single-ply,SBD,F
Girls,90.04,5,Rachel Hargraves,Anahuac,82.42,113.4,68.04,120.2,301.64,Single-ply,SBD,F
Girls,90.04,6,Hailey Sanchez,Boling,85.55,122.47,54.43,124.74,301.64,Single-ply,SBD,F
Girls,90.04,7,Savana Wakefield,Hardin,87.45,111.13,56.7,133.81,301.64,Single-ply,SBD,F
Girls,90.04,8,Morgan Clark,Buna,86.95,106.59,63.5,127.01,297.1,Single-ply,SBD,F
Girls,90.04,9,Liz Martinez,Van Vleck,85.59,120.2,45.36,120.2,285.76,Single-ply,SBD,F
Girls,90.04,10,Paiten Lopez,Boling,84.01,92.99,47.63,117.93,258.55,Single-ply,SBD,F
Girls,90.04,DQ,Danielle Bowers,Boling,89.81,,,,,Single-ply,SBD,F
Girls,100.02,1,Mattie Harmon,Winnie East Chambers,98.79,181.44,86.18,174.63,442.25,Single-ply,SBD,F
Girls,100.02,2,Alexis Anaya,Winnie East Chambers,99.16,142.88,70.31,149.69,362.87,Single-ply,SBD,F
Girls,100.02,3,Stacie Howard,Woodville,99.34,154.22,61.23,142.88,358.34,Single-ply,SBD,F
Girls,100.02,4,Kamri Preston,Hitchcock,98.25,142.88,79.38,108.86,331.12,Single-ply,SBD,F
Girls,100.02,5,Brooke Potts,Palacios,98.52,97.52,74.84,129.27,301.64,Single-ply,SBD,F
Girls,100.02,6,Mallorie Brown,Saratoga West Hardin,93.98,131.54,47.63,117.93,297.1,Single-ply,SBD,F
Girls,100.02,7,Tatyana White,Winnie East Chambers,96.39,120.2,54.43,106.59,281.23,Single-ply,SBD,F
Girls,100.02,DQ,Emily Ramos,Hitchcock,95.35,,,,,Single-ply,SBD,F
Girls,100.02,DQ,Kali Spurlock,Hardin,98.25,,,,,Single-ply,SBD,F
Girls,100.02,DQ,Tabitha Patterson,El Maton Tidehaven,97.66,,,,,Single-ply,SBD,F
Girls,117.71,1,Tiffany Goranson,Edna,101.33,165.56,77.11,170.1,412.77,Single-ply,SBD,F
Girls,117.71,2,Tikyana Harrison,Coldspring-Oakhurst,109.77,151.95,70.31,172.37,394.63,Single-ply,SBD,F
Girls,117.71,3,Alyssah Cunningham,Buna,110.4,163.29,86.18,113.4,362.87,Single-ply,SBD,F
Girls,117.71,4,Nadia Reyna,Edna,107.41,136.08,58.97,138.35,333.39,Single-ply,SBD,F
Girls,117.71,5,Ashlyn Hogan,Hull-Daisetta,110.77,142.88,77.11,108.86,328.85,Single-ply,SBD,F
Girls,117.71,6,Miranda Fuentes,Palacios,104.96,120.2,72.57,122.47,315.25,Single-ply,SBD,F
Girls,117.71,7,Christina Peterson,Palacios,110.31,104.33,56.7,124.74,285.76,Single-ply,SBD,F
Girls,117.71,8,Hailey Fuentes,Palacios,104.05,90.72,63.5,127.01,281.23,Single-ply,SBD,F
Girls,117.71,9,Peighton Krushall,Boling,104.33,99.79,43.09,131.54,274.42,Single-ply,SBD,F
Girls,117.71,10,Cierra Hadnot,Buna,114.31,77.11,52.16,106.59,235.87,Single-ply,SBD,F
Girls,117.71,11,Annalise Cannon,Buna,106.96,77.11,27.22,77.11,181.44,Single-ply,SBD,F
Girls,117.71+,1,Bobby Denard,Buna,137.26,165.56,136.08,142.88,444.52,Single-ply,SBD,F
Girls,117.71+,2,Koral Sylestine,Woodville,117.75,133.81,70.31,163.29,367.41,Single-ply,SBD,F
Girls,117.71+,3,Aaron Logan,La Marque,138.89,131.54,81.65,154.22,367.41,Single-ply,SBD,F
Girls,117.71+,4,Macey Townsend,Buna,119.02,102.06,61.23,129.27,292.57,Single-ply,SBD,F
Girls,117.71+,DQ,Kayleigh Overstreet,Warren,132.9,,,,,Single-ply,SBD,F
